4.57068063e+04	2.19214660e-08	0.00000000e+00
7.20942408e+04	1.47450262e-07	8.35921020e+01
7.11518325e+04	5.76340314e-07	1.21839500e+01
6.54973822e+04	6.37643979e-08	8.99556941e+03
2.78010471e+04	9.05853403e-07	6.27447800e+01
9.42408377e+02	8.06476440e-07	0.00000000e+00
8.01047120e+04	2.20675393e-07	3.09911500e+01
4.09947644e+04	1.05607330e-07	9.15250160e+03
5.74869110e+04	1.47450262e-07	1.65004768e+02
2.87434555e+04	5.33036649e-08	0.00000000e+00
8.01047120e+03	2.04984293e-07	0.00000000e+00
5.27748691e+04	4.66502618e-07	6.24980600e+01
5.70157068e+04	7.07099476e-07	1.30818200e+01
4.24083770e+03	1.00000000e-09	0.00000000e+00
5.27748691e+04	2.88670157e-07	5.53585600e+01
2.35602094e+03	7.33251309e-07	0.00000000e+00
5.27748691e+04	9.94769634e-07	4.57490000e+00
1.46073298e+04	3.72356021e-07	0.00000000e+00
7.06806283e+04	1.99753927e-07	4.07025680e+01
3.15706806e+04	8.69240838e-07	4.58879200e+01
1.60209424e+04	4.82193717e-07	7.98247068e+03
6.45549738e+04	4.56041885e-07	3.21870300e+01
3.62827225e+04	9.94769634e-07	1.40883000e+01
7.06806283e+03	5.81570681e-07	0.00000000e+00
7.39790576e+04	3.09591623e-07	1.85366367e+01
1.97905759e+04	6.23036649e-09	0.00000000e+00
9.42408377e+03	4.66502618e-07	0.00000000e+00
3.91099476e+04	9.79078534e-07	1.18713200e+01
5.46596859e+04	7.22790576e-07	1.38913500e+01
9.00000000e+04	9.11083770e-07	1.79382000e+00
3.25130890e+04	2.99130890e-07	5.45869008e+02
3.67539267e+04	2.25905759e-07	1.74702067e+03
1.46073298e+04	5.44958115e-07	7.37017504e+03
8.01047120e+03	3.23821990e-08	0.00000000e+00
4.90052356e+04	3.93277487e-07	4.89872833e+01
7.39790576e+04	5.55418848e-07	1.19543700e+01
2.21465969e+04	5.34497382e-07	2.98871486e+02
5.41884817e+04	1.47450262e-07	2.40077733e+02
5.74869110e+04	7.59403141e-07	1.00159500e+01
6.40837696e+04	2.31136126e-07	4.30297240e+01
3.29842932e+03	9.26774869e-07	0.00000000e+00
8.81151832e+04	5.08345550e-07	8.79357000e+00
5.04188482e+04	6.12952880e-07	3.16519900e+01
2.92146597e+04	3.04361257e-07	3.09263791e+03
9.42408377e+03	2.10214660e-07	0.00000000e+00
8.34031414e+04	9.89539267e-07	1.65699000e+00
3.25130890e+04	8.37858639e-07	4.84191300e+01
6.59685864e+03	6.33874346e-07	0.00000000e+00
4.90052356e+04	1.42219895e-07	1.56923150e+03
7.30366492e+04	1.78832461e-07	4.66744260e+01
7.72774869e+04	3.20052356e-07	4.19342800e+01
7.25654450e+04	3.23821990e-08	9.16588441e+03
3.20418848e+04	7.90785340e-07	6.61281900e+01
7.35078534e+04	9.37235602e-07	2.56575000e+00
7.25654450e+04	6.02492147e-07	1.01075900e+01
5.65445026e+03	9.73848168e-07	0.00000000e+00
8.57591623e+04	4.40350785e-07	1.36566900e+01
8.01047120e+04	8.79701571e-07	2.56661000e+00
7.44502618e+04	7.33251309e-07	5.31032000e+00
5.32460733e+04	1.14607330e-08	9.31879564e+03
1.88481675e+03	6.80947644e-07	0.00000000e+00
3.39267016e+04	8.27397906e-07	4.34240200e+01
8.15183246e+04	4.45581152e-07	1.56071400e+01
1.83769634e+04	6.75717277e-07	3.68335269e+02
4.71204188e+03	3.56664921e-07	0.00000000e+00
1.64921466e+04	1.16068063e-07	0.00000000e+00
2.54450262e+04	7.64633508e-07	6.98816033e+01
5.74869110e+04	4.19429319e-07	6.15992700e+01
1.03664921e+04	8.46858639e-08	0.00000000e+00
2.45026178e+04	9.52926702e-07	8.24521800e+01
5.79581152e+04	8.95392670e-07	5.41886000e+00
4.05235602e+04	6.02492147e-07	2.57537333e+01
7.77486911e+04	4.82193717e-07	1.48824000e+01
5.04188482e+04	7.85554974e-07	1.33510700e+01
5.27748691e+04	8.16937173e-07	1.00007600e+01
2.02617801e+04	2.10214660e-07	0.00000000e+00
8.71727749e+04	8.48319372e-07	2.34566000e+00
5.60732984e+04	1.78832461e-07	1.10889954e+02
1.60209424e+04	7.69863874e-07	5.30971824e+02
8.29319372e+04	3.76125654e-08	8.97995183e+03
5.46596859e+04	5.24036649e-07	3.88799200e+01
3.81675393e+04	5.08345550e-07	6.06814800e+01
8.48167539e+04	7.28020942e-07	3.82853000e+00
4.71204188e+03	2.36366492e-07	0.00000000e+00
8.48167539e+04	1.57910995e-07	3.20723880e+01
5.98429319e+04	6.60026178e-07	1.40312000e+01
4.52356021e+04	5.71109948e-07	5.92877200e+01
7.63350785e+04	4.61272251e-07	1.77145900e+01
1.60209424e+04	4.03738220e-07	0.00000000e+00
4.80628272e+04	8.79701571e-07	9.98358000e+00
5.98429319e+04	1.57910995e-07	1.13765523e+02
3.58115183e+04	3.67125654e-07	1.80038644e+02
2.59162304e+04	2.62518325e-07	8.73867642e+03
7.11518325e+04	2.71518325e-08	9.20223688e+03
3.76963351e+04	8.90162304e-07	2.11883600e+01
2.63874346e+04	1.00376963e-07	0.00000000e+00
4.05235602e+04	9.68617801e-07	1.11345200e+01
4.85340314e+04	1.57910995e-07	4.69837026e+02
7.16230366e+04	9.94769634e-07	2.23248000e+00
7.06806283e+03	2.78209424e-07	0.00000000e+00
3.91099476e+04	8.64010471e-07	2.12709700e+01
7.91623037e+04	2.93900524e-07	1.63637200e+01
3.72251309e+04	7.54172775e-07	4.50457500e+01
7.06806283e+03	3.20052356e-07	0.00000000e+00
3.25130890e+04	1.16068063e-07	9.21572134e+03
2.87434555e+04	9.52926702e-07	4.22550700e+01
8.71727749e+04	7.94554974e-08	8.24377656e+01
8.71727749e+04	7.69863874e-07	3.06600000e+00
4.71204188e+03	1.14607330e-08	0.00000000e+00
7.68062827e+04	2.46827225e-07	2.80288133e+01
2.82722513e+04	9.89539267e-07	3.68760600e+01
2.26178010e+04	5.50188482e-07	3.22732230e+02
3.62827225e+04	3.61895288e-07	1.77210454e+02
7.49214660e+04	7.69863874e-07	4.51860000e+00
8.52879581e+04	7.80324607e-07	3.11677000e+00
1.08376963e+04	5.24036649e-07	0.00000000e+00
8.43455497e+04	8.99162304e-08	9.38170857e+01
7.91623037e+04	5.65879581e-07	9.21438000e+00
2.59162304e+04	3.09591623e-07	8.14353898e+03
3.48691099e+04	9.51465969e-08	9.24381395e+03
1.97905759e+04	2.99130890e-07	0.00000000e+00
1.08376963e+04	5.71109948e-07	0.00000000e+00
3.15706806e+04	2.52057592e-07	7.95382527e+03
2.63874346e+04	1.94523560e-07	9.07941769e+03
3.81675393e+04	1.63141361e-07	8.84218429e+03
5.89005236e+04	9.16314136e-07	4.76401000e+00
7.96335079e+04	7.33251309e-07	4.43084000e+00
5.93717277e+04	6.18183246e-07	1.76886700e+01
2.30890052e+04	6.49565445e-07	2.50407390e+02
7.16230366e+04	2.62518325e-07	3.17817367e+01
8.38743455e+04	6.54795812e-07	5.26931000e+00
5.08900524e+04	1.47450262e-07	4.05063984e+02
7.96335079e+04	9.37235602e-07	2.14623000e+00
6.59685864e+03	1.10837696e-07	0.00000000e+00
2.35602094e+04	8.53549738e-07	1.71571340e+02
8.62303665e+04	3.25282723e-07	2.74632200e+01
8.05759162e+04	2.78209424e-07	1.74754900e+01
3.34554974e+04	2.46827225e-07	4.82522360e+03
8.01047120e+04	4.45581152e-07	1.65097800e+01
3.95811518e+04	1.57910995e-07	8.81945027e+03
1.41361257e+03	4.28429319e-08	0.00000000e+00
1.36649215e+04	8.06476440e-07	7.88004090e+02
7.39790576e+04	8.22167539e-07	3.82154000e+00
2.87434555e+04	1.89293194e-07	9.04098682e+03
5.18324607e+03	9.05853403e-07	0.00000000e+00
1.60209424e+04	7.48942408e-07	3.65275309e+02
5.18324607e+03	6.02492147e-07	0.00000000e+00
3.34554974e+04	2.41596859e-07	7.21467975e+03
8.29319372e+04	8.11706806e-07	2.98848000e+00
1.83769634e+04	9.89539267e-07	2.50121160e+02
4.28795812e+04	8.37858639e-07	1.76511100e+01
1.64921466e+04	4.97884817e-07	7.68282524e+03
8.48167539e+04	1.05607330e-07	6.01038829e+01
2.96858639e+04	4.29890052e-07	1.99086430e+02
1.79057592e+04	4.82193717e-07	7.44783512e+03
3.06282723e+04	6.28643979e-07	7.10103033e+01
4.75916230e+04	1.14607330e-08	0.00000000e+00
6.97382199e+04	9.05853403e-07	3.24403000e+00
1.83769634e+04	7.94554974e-08	0.00000000e+00
3.43979058e+04	6.54795812e-07	3.65088467e+01
5.04188482e+04	2.71518325e-08	9.30395197e+03
1.36649215e+04	6.96638743e-07	4.66820833e+03
4.19371728e+04	5.65879581e-07	2.80680733e+01
1.60209424e+04	6.60026178e-07	1.57009973e+03
5.74869110e+04	8.95392670e-07	5.54185000e+00
4.80628272e+04	7.94554974e-08	9.17083480e+03
7.63350785e+04	6.28643979e-07	7.70725000e+00
2.82722513e+03	7.85554974e-07	0.00000000e+00
5.65445026e+04	7.07099476e-07	1.34256200e+01
6.69109948e+04	8.48319372e-07	4.47749000e+00
3.43979058e+04	7.17560209e-07	7.46137100e+01
1.74345550e+04	6.86178010e-07	4.91837060e+02
1.27225131e+04	8.27397906e-07	1.29848954e+03
7.77486911e+04	6.44335079e-07	6.81727000e+00
2.92146597e+04	9.11083770e-07	4.97712900e+01
4.85340314e+04	4.71732984e-07	2.88008967e+01
7.44502618e+04	1.31759162e-07	6.85612700e+01
5.32460733e+04	7.90785340e-07	1.09805200e+01
8.95287958e+03	6.89947644e-08	0.00000000e+00
1.83769634e+04	6.54795812e-07	3.63488592e+02
8.95287958e+03	6.80947644e-07	0.00000000e+00
3.25130890e+04	5.03115183e-07	1.33199563e+02
2.68586387e+04	3.67125654e-07	1.08086978e+03
6.92670157e+04	5.85340314e-08	8.97140457e+03
6.03141361e+04	3.51434555e-07	2.91799600e+01
4.75916230e+04	2.83439791e-07	1.64558183e+02
2.82722513e+04	7.42251309e-08	0.00000000e+00
8.15183246e+04	9.68617801e-07	1.84969000e+00
5.74869110e+04	2.04984293e-07	1.06349012e+02
5.70157068e+04	9.51465969e-08	8.77344256e+03
5.18324607e+03	2.46827225e-07	0.00000000e+00
3.76963351e+03	6.18183246e-07	0.00000000e+00
3.95811518e+04	1.78832461e-07	8.40295304e+03
5.79581152e+04	5.81570681e-07	2.31230300e+01
1.64921466e+04	7.17560209e-07	5.31409197e+02
4.09947644e+04	1.73602094e-07	8.26049250e+03
7.39790576e+04	1.00000000e-06	2.04877000e+00
5.98429319e+04	6.18183246e-07	1.72357300e+01
3.25130890e+04	8.48319372e-07	4.57797800e+01
1.79057592e+04	2.46827225e-07	0.00000000e+00
4.90052356e+04	5.76340314e-07	4.28048800e+01
3.76963351e+04	8.74471204e-07	2.29557700e+01
1.36649215e+04	2.52057592e-07	0.00000000e+00
8.15183246e+04	4.87424084e-07	1.24376200e+01
5.08900524e+04	2.78209424e-07	7.44842420e+01
6.97382199e+04	7.28020942e-07	6.51759000e+00
3.48691099e+04	7.75094241e-07	5.16859200e+01
4.47643979e+04	1.78832461e-07	6.12464168e+02
8.05759162e+04	5.71109948e-07	8.52650000e+00
3.53403141e+04	9.52926702e-07	1.92516600e+01
2.12041885e+04	6.18183246e-07	2.41268554e+02
4.75916230e+04	4.29890052e-07	4.18401400e+01
5.65445026e+03	2.99130890e-07	0.00000000e+00
2.78010471e+04	5.92031414e-07	1.45648960e+02
5.70157068e+04	2.19214660e-08	9.29150465e+03
3.72251309e+04	3.88047120e-07	1.13827098e+02
6.07853403e+04	7.33251309e-07	9.51918000e+00
2.07329843e+04	1.63141361e-07	0.00000000e+00
5.74869110e+04	8.79701571e-07	5.91437000e+00
2.02617801e+04	5.55418848e-07	6.03240837e+02
7.30366492e+04	9.89539267e-07	2.17905000e+00
7.02094241e+04	2.57287958e-07	2.17976860e+01
7.06806283e+04	8.27397906e-07	4.21147000e+00
2.16753927e+04	9.47696335e-07	2.97032500e+01
7.53926702e+04	5.29267016e-07	1.28250200e+01
7.44502618e+04	9.51465969e-08	1.42756181e+02
8.19895288e+04	8.64010471e-07	2.56142000e+00
4.94764398e+04	3.77586387e-07	5.34176567e+01
2.02617801e+04	2.31136126e-07	0.00000000e+00
2.02617801e+04	5.34497382e-07	8.67638288e+02
3.62827225e+04	9.00623037e-07	2.29969500e+01
6.17277487e+04	8.32628272e-07	5.92269000e+00
6.40837696e+04	3.20052356e-07	2.96231000e+01
2.16753927e+04	7.90785340e-07	3.66320930e+02
3.34554974e+04	7.42251309e-08	0.00000000e+00
6.59685864e+03	3.61895288e-07	0.00000000e+00
8.19895288e+04	8.43089005e-07	2.75423000e+00
4.14659686e+04	4.35120419e-07	7.28622567e+01
8.62303665e+04	1.31759162e-07	7.54186100e+01
5.41884817e+04	7.38481675e-07	1.32584900e+01
4.90052356e+04	6.89947644e-08	9.20429697e+03
2.45026178e+04	1.99753927e-07	9.08347861e+03
2.26178010e+04	8.74471204e-07	1.83076540e+02
6.17277487e+04	3.20052356e-07	3.44323767e+01
6.50261780e+04	4.08968586e-07	4.20473600e+01
2.59162304e+04	6.23036649e-09	0.00000000e+00
4.94764398e+04	8.99162304e-08	9.09472713e+03
3.20418848e+04	1.10837696e-07	9.22699837e+03
4.85340314e+04	8.53549738e-07	1.09388400e+01
7.96335079e+04	7.64633508e-07	3.92436000e+00
8.15183246e+04	3.04361257e-07	1.35056433e+01
3.76963351e+04	5.85340314e-08	0.00000000e+00
5.46596859e+04	3.67125654e-07	3.83026900e+01
6.50261780e+04	7.64633508e-07	6.81089000e+00
2.68586387e+04	2.99130890e-07	8.11680443e+03
6.83246073e+04	6.44335079e-07	1.00044500e+01
1.69633508e+04	8.64010471e-07	2.85278547e+02
1.13089005e+04	1.42219895e-07	0.00000000e+00
6.87958115e+04	7.38481675e-07	6.47844000e+00
5.23036649e+04	5.76340314e-07	3.39030800e+01
3.86387435e+04	5.97261780e-07	9.35396500e+01
3.10994764e+04	8.84931937e-07	4.47419700e+01
6.03141361e+04	6.23036649e-09	9.30919275e+03
7.96335079e+04	9.73848168e-07	1.91248000e+00
1.08376963e+04	3.93277487e-07	0.00000000e+00
2.92146597e+04	2.88670157e-07	7.23393432e+03
3.58115183e+04	5.39727749e-07	6.43936167e+01
1.97905759e+04	5.71109948e-07	5.91623657e+02
1.41361257e+04	9.51465969e-08	0.00000000e+00
8.24607330e+04	4.71732984e-07	1.30272000e+01
6.92670157e+04	6.70486911e-07	8.51857000e+00
6.97382199e+04	9.79078534e-07	2.49647000e+00
8.10471204e+04	4.82193717e-07	1.30222400e+01
7.82198953e+04	3.88047120e-07	2.52239300e+01
3.29842932e+04	7.90785340e-07	5.89818800e+01
4.33507853e+04	5.97261780e-07	5.99096900e+01
2.68586387e+04	9.32005236e-07	6.26773600e+01
3.39267016e+04	9.11083770e-07	2.78483800e+01
4.61780105e+04	3.14821990e-07	1.33450120e+02
3.10994764e+04	3.04361257e-07	8.51322625e+02
6.87958115e+04	2.67748691e-07	3.56243633e+01
1.60209424e+04	4.92654450e-07	7.88735776e+03
1.22513089e+04	8.27397906e-07	1.43360851e+03
4.09947644e+04	3.46204188e-07	1.05814004e+02
2.21465969e+04	6.02492147e-07	2.95019016e+02
4.24083770e+03	7.42251309e-08	0.00000000e+00
8.43455497e+04	9.16314136e-07	2.02871000e+00
5.84293194e+04	8.53549738e-07	6.32341000e+00
3.58115183e+04	2.19214660e-08	0.00000000e+00
2.02617801e+04	2.19214660e-08	0.00000000e+00
4.33507853e+04	3.14821990e-07	1.86171587e+02
5.84293194e+04	2.36366492e-07	6.25387440e+01
5.74869110e+04	4.03738220e-07	2.37860867e+01
4.71204188e+03	5.76340314e-07	0.00000000e+00
4.09947644e+04	4.82193717e-07	5.36649600e+01
3.72251309e+04	4.82193717e-07	8.23327433e+01
4.85340314e+04	1.16068063e-07	8.87800505e+03
6.83246073e+04	1.52680628e-07	7.24837586e+01
2.92146597e+04	2.10214660e-07	8.91670458e+03
5.27748691e+04	5.86801047e-07	3.10308300e+01
5.98429319e+04	8.11706806e-07	7.06162000e+00
4.24083770e+03	5.76340314e-07	0.00000000e+00
7.53926702e+04	1.10837696e-07	1.04393599e+02
5.51308901e+04	6.12952880e-07	2.32314100e+01
8.38743455e+04	5.85340314e-08	1.69737585e+02
5.51308901e+04	3.88047120e-07	3.14364700e+01
3.15706806e+04	8.58780105e-07	4.85296100e+01
5.18324607e+03	7.69863874e-07	0.00000000e+00
8.38743455e+04	4.14198953e-07	1.70399800e+01
7.39790576e+04	8.69240838e-07	3.21295000e+00
7.16230366e+04	3.23821990e-08	9.17350908e+03
6.54973822e+04	4.28429319e-08	9.16834488e+03
3.20418848e+04	8.06476440e-07	6.07389600e+01
1.31937173e+04	6.23413613e-07	1.51293346e+03
4.24083770e+03	4.35120419e-07	0.00000000e+00
6.54973822e+04	9.63387435e-07	3.04233000e+00
1.88481675e+04	9.89539267e-07	2.21509680e+02
3.72251309e+04	2.10214660e-07	5.64829061e+03
3.48691099e+04	1.00000000e-09	0.00000000e+00
5.93717277e+04	7.54172775e-07	9.29249000e+00
4.24083770e+04	3.76125654e-08	0.00000000e+00
7.53926702e+03	9.79078534e-07	0.00000000e+00
5.84293194e+04	7.33251309e-07	1.07276300e+01
6.83246073e+04	8.01246073e-07	5.10545000e+00
7.25654450e+04	1.57910995e-07	6.69630820e+01
3.20418848e+04	1.89293194e-07	8.92403086e+03
3.29842932e+04	1.66910995e-08	0.00000000e+00
7.68062827e+04	4.35120419e-07	2.01379000e+01
3.95811518e+04	1.84062827e-07	8.15863433e+03
8.76439791e+04	8.22167539e-07	2.52141000e+00
7.11518325e+04	4.28429319e-08	9.10951637e+03
0.00000000e+00	9.89539267e-07	0.00000000e+00
4.75916230e+04	3.56664921e-07	7.60610700e+01
5.23036649e+04	9.84308901e-07	4.89989000e+00
7.20942408e+04	1.14607330e-08	9.25505569e+03
7.44502618e+04	1.05607330e-07	1.01963428e+02
2.82722513e+04	6.33874346e-07	9.92760267e+01
1.50785340e+04	8.79701571e-07	3.03486090e+02
4.71204188e+02	1.16068063e-07	0.00000000e+00
8.01047120e+03	5.50188482e-07	0.00000000e+00
3.95811518e+04	2.71518325e-08	0.00000000e+00
7.02094241e+04	9.84308901e-07	2.41616000e+00
9.89528796e+03	3.23821990e-08	0.00000000e+00
8.05759162e+04	4.92654450e-07	1.25623400e+01
3.34554974e+04	3.61895288e-07	1.67810458e+02
4.94764398e+04	7.90785340e-07	1.38318300e+01
2.30890052e+04	2.78209424e-07	8.82408421e+03
5.79581152e+04	2.10214660e-07	9.37545060e+01
7.68062827e+04	4.45581152e-07	1.89618500e+01
3.01570681e+04	6.28643979e-07	7.61563567e+01
2.16753927e+04	5.39727749e-07	3.34503467e+02
0.00000000e+00	4.28429319e-08	0.00000000e+00
2.02617801e+04	8.64010471e-07	1.12126507e+02
5.18324607e+04	7.69863874e-07	1.31697100e+01
6.12565445e+04	7.64633508e-07	8.08512000e+00
6.59685864e+04	4.28429319e-08	9.16416750e+03
1.79057592e+04	7.42251309e-08	0.00000000e+00
7.82198953e+04	2.78209424e-07	1.95318333e+01
6.54973822e+04	6.33874346e-07	1.19586700e+01
3.95811518e+04	4.45581152e-07	8.28047300e+01
5.13612565e+04	5.33036649e-08	9.23868488e+03
4.90052356e+04	8.37858639e-07	1.14220500e+01
9.00000000e+04	6.23036649e-09	9.19245361e+03
6.78534031e+04	9.21544503e-07	3.26926000e+00
7.30366492e+04	5.71109948e-07	1.15246700e+01
1.17801047e+04	1.94523560e-07	0.00000000e+00
4.75916230e+04	2.19214660e-08	0.00000000e+00
6.97382199e+04	8.32628272e-07	4.27157000e+00
2.68586387e+04	9.47696335e-07	5.74362700e+01
8.10471204e+04	8.37858639e-07	2.88262000e+00
1.08376963e+04	2.20675393e-07	0.00000000e+00
4.19371728e+04	2.36366492e-07	2.32033659e+02
1.13089005e+04	5.03115183e-07	0.00000000e+00
3.91099476e+04	3.82816754e-07	9.23295980e+01
6.12565445e+04	8.58780105e-07	5.42847000e+00
3.15706806e+04	6.12952880e-07	6.86814967e+01
5.13612565e+04	3.56664921e-07	5.42618833e+01
1.27225131e+04	6.02492147e-07	0.00000000e+00
8.57591623e+04	9.68617801e-07	1.66912000e+00
3.48691099e+04	4.71732984e-07	1.22067963e+02
9.42408377e+03	9.84308901e-07	0.00000000e+00
5.70157068e+04	2.36366492e-07	7.06234860e+01
4.00523560e+04	3.72356021e-07	9.06888120e+01
6.73821990e+04	5.92031414e-07	1.33930800e+01
5.27748691e+04	4.97884817e-07	5.14886800e+01
6.83246073e+04	5.81570681e-07	1.34834700e+01
5.65445026e+04	3.04361257e-07	5.73681300e+01
2.02617801e+04	4.08968586e-07	7.91207050e+03
4.05235602e+04	5.50188482e-07	1.02915470e+02
3.48691099e+04	6.23036649e-09	0.00000000e+00
8.10471204e+04	7.17560209e-07	4.49550000e+00
6.31413613e+04	8.79701571e-07	4.59987000e+00
7.58638743e+04	2.83439791e-07	2.09622500e+01
5.23036649e+04	8.84931937e-07	7.55756000e+00
5.13612565e+04	2.19214660e-08	9.30929666e+03
2.63874346e+04	9.58157068e-07	5.83699400e+01
8.57591623e+04	9.79078534e-07	0.00000000e+00
7.77486911e+04	3.61895288e-07	3.05464300e+01
7.16230366e+04	7.28020942e-07	6.04561000e+00
4.52356021e+04	6.23413613e-07	4.41397400e+01
6.17277487e+04	1.14607330e-08	9.29589791e+03
6.64397906e+04	9.51465969e-08	2.43577907e+02
4.09947644e+04	1.94523560e-07	1.23075805e+03
4.71204188e+03	7.28020942e-07	0.00000000e+00
2.54450262e+04	6.75717277e-07	1.24006847e+02
5.65445026e+03	2.67748691e-07	0.00000000e+00
8.15183246e+04	2.52057592e-07	2.11310500e+01
6.97382199e+04	2.41596859e-07	4.38867367e+01
4.24083770e+04	1.78832461e-07	2.08627093e+03
5.74869110e+04	3.51434555e-07	3.53543367e+01
7.16230366e+04	9.42465969e-07	2.66979000e+00
1.08376963e+04	1.47450262e-07	0.00000000e+00
5.56020942e+04	7.54172775e-07	1.13650700e+01
4.05235602e+04	7.07099476e-07	4.21203600e+01
3.67539267e+04	5.08345550e-07	7.17291533e+01
8.95287958e+03	1.52680628e-07	0.00000000e+00
1.31937173e+04	3.25282723e-07	0.00000000e+00
8.52879581e+04	5.85340314e-08	1.66186792e+02
7.53926702e+04	6.07722513e-07	8.79525000e+00
6.45549738e+04	8.22167539e-07	5.46930000e+00
6.31413613e+04	8.84931937e-07	4.50621000e+00
8.05759162e+04	3.25282723e-07	1.20031567e+01
6.03141361e+04	1.84062827e-07	1.15164066e+02
3.58115183e+04	8.43089005e-07	3.25768100e+01
8.52879581e+04	9.63387435e-07	1.71445000e+00
4.33507853e+04	7.22790576e-07	3.03849500e+01
3.06282723e+04	4.24659686e-07	1.72295021e+02
4.99476440e+04	7.48942408e-07	1.64083200e+01
6.78534031e+04	3.67125654e-07	1.65120333e+01
8.52879581e+04	5.97261780e-07	6.41130000e+00
5.70157068e+04	1.94523560e-07	9.49480629e+01
5.65445026e+04	4.19429319e-07	2.26919000e+01
1.69633508e+04	3.35743455e-07	0.00000000e+00
7.63350785e+04	3.77586387e-07	2.93205000e+01
6.73821990e+04	6.39104712e-07	1.06925600e+01
4.66492147e+04	8.16937173e-07	1.47645000e+01
4.61780105e+04	6.23036649e-09	0.00000000e+00
6.03141361e+04	6.89947644e-08	9.05209205e+03
4.71204188e+04	4.35120419e-07	4.19645500e+01
1.74345550e+04	7.94554974e-08	0.00000000e+00
4.57068063e+04	4.82193717e-07	3.41181433e+01
4.66492147e+04	5.76340314e-07	5.13021100e+01
4.24083770e+04	3.25282723e-07	1.11704076e+02
4.80628272e+04	9.68617801e-07	6.62880000e+00
1.88481675e+04	6.33874346e-07	4.90666360e+02
5.04188482e+04	6.89947644e-08	9.19073343e+03
2.87434555e+04	3.09591623e-07	3.39243558e+03
6.17277487e+04	7.33251309e-07	9.09029000e+00
9.42408377e+02	7.17560209e-07	0.00000000e+00
7.30366492e+04	9.11083770e-07	2.85419000e+00
8.38743455e+04	7.17560209e-07	4.10181000e+00
3.01570681e+04	4.19429319e-07	2.03947600e+02
5.46596859e+04	9.52926702e-07	4.98277000e+00
8.67015707e+04	6.86178010e-07	4.24374000e+00
3.43979058e+04	1.21298429e-07	9.18766467e+03
2.07329843e+04	6.86178010e-07	2.08294266e+02
6.12565445e+03	8.84931937e-07	0.00000000e+00
7.72774869e+04	1.94523560e-07	4.87705467e+01
5.08900524e+04	2.88670157e-07	6.60173920e+01
4.19371728e+04	3.88047120e-07	6.20011440e+01
1.46073298e+04	1.26528796e-07	0.00000000e+00
5.13612565e+04	1.31759162e-07	1.46653848e+03
7.16230366e+04	6.33874346e-07	9.10216000e+00
7.02094241e+04	4.24659686e-07	2.90818600e+01
6.54973822e+04	2.88670157e-07	3.57396167e+01
7.20942408e+04	5.44958115e-07	1.36660000e+01
9.00000000e+04	7.80324607e-07	2.73330000e+00
2.68586387e+04	4.66502618e-07	2.53989860e+02
4.38219895e+04	4.76963351e-07	4.20151833e+01
6.78534031e+04	1.21298429e-07	1.22316537e+02
4.24083770e+04	2.62518325e-07	1.95030404e+02
2.82722513e+03	2.46827225e-07	0.00000000e+00
8.01047120e+04	1.36989529e-07	5.89836000e+01
5.89005236e+04	7.85554974e-07	8.28930000e+00
6.45549738e+04	6.02492147e-07	1.45809500e+01
7.20942408e+04	8.16937173e-07	4.16555000e+00
5.18324607e+04	9.11083770e-07	6.91707000e+00
2.45026178e+04	1.68371728e-07	0.00000000e+00
6.03141361e+04	6.49565445e-07	1.44005000e+01
6.17277487e+04	1.00000000e-06	3.04683000e+00
7.02094241e+04	8.06476440e-07	4.65030000e+00
3.10994764e+04	4.28429319e-08	0.00000000e+00
5.65445026e+03	3.56664921e-07	0.00000000e+00
3.76963351e+04	6.44335079e-07	2.67898133e+01
2.21465969e+04	5.50188482e-07	3.80285707e+02
7.39790576e+04	2.25905759e-07	4.05934433e+01
7.02094241e+04	8.27397906e-07	4.28536000e+00
8.24607330e+04	5.13575916e-07	1.05036700e+01
3.34554974e+04	5.03115183e-07	1.15717560e+02
1.79057592e+04	2.20675393e-07	0.00000000e+00
5.89005236e+04	7.94554974e-08	8.97275445e+03
2.82722513e+03	4.29890052e-07	0.00000000e+00
5.98429319e+04	5.13575916e-07	2.99990200e+01
1.17801047e+04	7.54172775e-07	1.31198420e+03
2.02617801e+04	2.04984293e-07	0.00000000e+00
2.78010471e+04	3.25282723e-07	3.09523925e+03
3.29842932e+03	5.71109948e-07	0.00000000e+00
6.64397906e+04	2.04984293e-07	5.06498280e+01
7.30366492e+04	5.55418848e-07	1.24470300e+01
2.26178010e+04	1.31759162e-07	0.00000000e+00
3.10994764e+04	8.95392670e-07	4.22749100e+01
6.73821990e+04	5.29267016e-07	1.84376700e+01
1.69633508e+04	2.62518325e-07	0.00000000e+00
1.31937173e+04	4.03738220e-07	0.00000000e+00
5.84293194e+04	1.84062827e-07	9.91278043e+01
8.85863874e+04	8.58780105e-07	2.18547000e+00
8.24607330e+04	7.38481675e-07	3.96269000e+00
1.46073298e+04	3.61895288e-07	0.00000000e+00
5.27748691e+04	3.72356021e-07	4.24219967e+01
2.63874346e+04	2.10214660e-07	9.02615819e+03
1.46073298e+04	7.28020942e-07	1.31861957e+03
9.00000000e+04	4.66502618e-07	0.00000000e+00
4.85340314e+04	1.73602094e-07	2.55415847e+02
7.72774869e+04	1.78832461e-07	3.60066120e+01
4.42931937e+04	7.48942408e-07	2.46380000e+01
7.11518325e+04	2.20675393e-07	5.08104000e+01
2.40314136e+04	5.92031414e-07	1.94552760e+02
2.40314136e+04	8.22167539e-07	6.42166833e+01
8.48167539e+03	9.89539267e-07	0.00000000e+00
9.89528796e+03	1.14607330e-08	0.00000000e+00
8.05759162e+04	1.89293194e-07	4.35006867e+01
7.06806283e+03	7.17560209e-07	0.00000000e+00
7.20942408e+04	6.33874346e-07	0.00000000e+00
3.86387435e+04	8.16937173e-07	2.82408600e+01
1.41361257e+03	2.15445026e-07	0.00000000e+00
7.30366492e+04	9.84308901e-07	2.21741000e+00
5.32460733e+04	9.37235602e-07	5.71986000e+00
5.13612565e+04	8.32628272e-07	1.01202600e+01
7.68062827e+04	1.00376963e-07	9.68115978e+01
6.69109948e+04	6.37643979e-08	8.95655195e+03
6.73821990e+04	9.26774869e-07	3.26152000e+00
6.92670157e+04	1.00000000e-06	2.35246000e+00
2.92146597e+04	6.02492147e-07	2.98683930e+02
4.71204188e+02	7.85554974e-07	0.00000000e+00
4.05235602e+04	4.82193717e-07	5.64085867e+01
3.48691099e+04	6.37643979e-08	0.00000000e+00
6.59685864e+03	7.22790576e-07	0.00000000e+00
6.92670157e+04	7.48942408e-07	6.08265000e+00
4.71204188e+02	5.18806283e-07	0.00000000e+00
2.35602094e+04	9.68617801e-07	8.95950600e+01
4.47643979e+04	4.82193717e-07	3.71140867e+01
5.32460733e+04	1.66910995e-08	9.31179951e+03
2.21465969e+04	7.33251309e-07	1.68146393e+02
1.88481675e+04	2.83439791e-07	0.00000000e+00
6.92670157e+04	8.48319372e-07	0.00000000e+00
7.53926702e+04	6.65256545e-07	6.81233000e+00
5.27748691e+04	1.63141361e-07	2.14512740e+02
4.75916230e+04	2.71518325e-08	9.31074407e+03
6.59685864e+03	7.54172775e-07	0.00000000e+00
8.52879581e+04	3.72356021e-07	7.09554667e+00
1.79057592e+04	4.08968586e-07	8.39241329e+03
7.11518325e+04	4.50811518e-07	2.37608200e+01
8.01047120e+03	4.66502618e-07	0.00000000e+00
6.36125654e+04	4.66502618e-07	3.18316700e+01
5.65445026e+03	9.51465969e-08	0.00000000e+00
2.82722513e+03	6.60026178e-07	0.00000000e+00
8.05759162e+04	4.80732984e-08	8.56787758e+03
4.09947644e+04	1.66910995e-08	0.00000000e+00
6.64397906e+04	2.19214660e-08	9.24905291e+03
8.57591623e+04	8.84931937e-07	2.15985000e+00
4.14659686e+04	4.50811518e-07	6.44570767e+01
6.07853403e+04	7.01869110e-07	1.09753400e+01
4.09947644e+04	4.14198953e-07	9.12813900e+01
3.10994764e+04	6.33874346e-07	6.40919200e+01
3.58115183e+04	2.15445026e-07	7.85890087e+03
4.19371728e+04	6.33874346e-07	5.51926300e+01
7.68062827e+04	6.75717277e-07	6.17853000e+00
9.42408377e+02	1.00376963e-07	0.00000000e+00
4.57068063e+04	8.64010471e-07	1.25835900e+01
1.97905759e+04	6.65256545e-07	3.38374826e+02
3.10994764e+04	6.70486911e-07	5.08703300e+01
2.82722513e+04	1.00000000e-06	3.47715500e+01
6.64397906e+04	9.79078534e-07	2.78092000e+00
6.83246073e+04	9.63387435e-07	2.76401000e+00
8.01047120e+04	1.05607330e-07	8.29377657e+01
1.88481675e+04	5.55418848e-07	1.36073193e+03
7.16230366e+04	8.01246073e-07	4.50153000e+00
6.17277487e+04	2.36366492e-07	4.80434100e+01
4.57068063e+04	9.42465969e-07	8.67734000e+00
5.04188482e+04	8.01246073e-07	1.23935200e+01
3.86387435e+04	5.86801047e-07	9.95650500e+01
7.53926702e+04	7.59403141e-07	4.62866000e+00
8.01047120e+03	1.84062827e-07	0.00000000e+00
7.72774869e+04	7.90785340e-07	3.84715000e+00
6.07853403e+04	1.63141361e-07	1.17545013e+02
4.24083770e+03	8.27397906e-07	0.00000000e+00
3.53403141e+04	3.82816754e-07	1.61864372e+02
3.01570681e+04	2.93900524e-07	2.67994343e+03
4.42931937e+04	4.19429319e-07	6.15851433e+01
6.54973822e+04	8.06476440e-07	5.59857000e+00
2.82722513e+04	7.80324607e-07	3.99158267e+01
1.22513089e+04	3.51434555e-07	0.00000000e+00
5.18324607e+04	7.07099476e-07	1.78086600e+01
6.78534031e+04	3.77586387e-07	4.44257800e+01
3.95811518e+04	1.14607330e-08	0.00000000e+00
6.69109948e+04	6.54795812e-07	1.01469000e+01
6.59685864e+03	5.97261780e-07	0.00000000e+00
3.01570681e+04	8.48319372e-07	6.16800400e+01
2.73298429e+04	8.95392670e-07	7.13423100e+01
1.79057592e+04	6.54795812e-07	4.50332558e+02
1.83769634e+04	6.91408377e-07	3.12348431e+02
3.67539267e+04	2.36366492e-07	1.00005792e+03
2.63874346e+04	4.19429319e-07	3.25672107e+02
3.20418848e+04	5.50188482e-07	9.93528567e+01
6.54973822e+04	2.78209424e-07	2.36531140e+01
2.63874346e+04	3.40973822e-07	5.05800900e+03
3.25130890e+04	3.04361257e-07	4.67742428e+02
3.29842932e+03	7.42251309e-08	0.00000000e+00
2.12041885e+04	2.88670157e-07	8.86671321e+03
9.89528796e+03	9.89539267e-07	7.93819170e+02
3.06282723e+04	9.51465969e-08	0.00000000e+00
6.54973822e+04	4.08968586e-07	4.09720700e+01
5.23036649e+04	7.01869110e-07	1.77326000e+01
8.10471204e+04	8.90162304e-07	2.41283000e+00
2.02617801e+04	1.78832461e-07	0.00000000e+00
7.35078534e+04	7.80324607e-07	4.55943000e+00
3.91099476e+04	7.07099476e-07	4.81195900e+01
3.29842932e+03	5.85340314e-08	0.00000000e+00
8.01047120e+03	1.57910995e-07	0.00000000e+00
4.61780105e+04	8.84931937e-07	1.10300200e+01
2.49738220e+04	7.48942408e-07	2.42976490e+02
8.62303665e+04	4.66502618e-07	1.16459600e+01
1.03664921e+04	3.46204188e-07	0.00000000e+00
7.11518325e+04	8.58780105e-07	3.67133000e+00
6.92670157e+04	8.01246073e-07	4.92090000e+00
2.82722513e+03	6.91408377e-07	0.00000000e+00
1.55497382e+04	5.60649215e-07	6.98586242e+03
4.85340314e+04	2.93900524e-07	7.88627760e+01
3.72251309e+04	6.96638743e-07	6.14490000e+01
1.22513089e+04	5.24036649e-07	0.00000000e+00
1.36649215e+04	7.59403141e-07	1.98038141e+03
7.77486911e+04	3.23821990e-08	9.11847313e+03
1.41361257e+04	3.14821990e-07	0.00000000e+00
1.41361257e+03	8.43089005e-07	0.00000000e+00
6.97382199e+04	7.69863874e-07	5.47394000e+00
4.19371728e+04	4.66502618e-07	5.45199600e+01
2.59162304e+04	8.90162304e-07	9.19240400e+01
6.36125654e+04	4.19429319e-07	4.25357700e+01
2.45026178e+04	2.10214660e-07	9.06075436e+03
8.38743455e+04	5.39727749e-07	8.77773000e+00
5.04188482e+04	4.97884817e-07	6.09775100e+01
8.76439791e+04	3.56664921e-07	2.10054500e+01
6.97382199e+04	2.04984293e-07	4.04247680e+01
4.24083770e+03	8.99162304e-08	0.00000000e+00
3.34554974e+04	5.81570681e-07	6.53748500e+01
7.39790576e+04	3.82816754e-07	3.15964100e+01
4.24083770e+03	7.07099476e-07	0.00000000e+00
1.27225131e+04	8.69240838e-07	8.73147826e+02
4.00523560e+04	8.01246073e-07	2.69175800e+01
7.63350785e+04	6.80947644e-07	6.15202000e+00
6.83246073e+04	4.24659686e-07	3.19391400e+01
2.78010471e+04	8.48319372e-07	8.61235500e+01
1.60209424e+04	6.37643979e-08	0.00000000e+00
2.96858639e+04	6.12952880e-07	9.10894500e+01
2.49738220e+04	1.89293194e-07	0.00000000e+00
8.52879581e+04	1.00000000e-09	9.23459449e+03
6.87958115e+04	3.46204188e-07	5.27128000e+01
5.79581152e+04	7.59403141e-07	9.76952000e+00
6.36125654e+04	1.10837696e-07	2.44567716e+02
6.12565445e+04	5.34497382e-07	2.46567000e+01
5.65445026e+04	1.42219895e-07	2.25711251e+02
1.64921466e+04	9.42465969e-07	1.96257123e+02
2.49738220e+04	7.80324607e-07	2.01651790e+02
8.34031414e+04	6.65256545e-07	5.12547000e+00
4.33507853e+04	3.51434555e-07	7.49203080e+01
1.93193717e+04	8.64010471e-07	4.10687340e+02
3.29842932e+03	5.50188482e-07	0.00000000e+00
4.85340314e+04	8.58780105e-07	1.06785400e+01
2.26178010e+04	1.00000000e-06	8.98283000e+01
7.30366492e+04	8.37858639e-07	3.72314000e+00
2.16753927e+04	4.03738220e-07	7.43663246e+03
2.12041885e+04	6.02492147e-07	3.98681780e+02
4.90052356e+04	1.00000000e-06	5.44934000e+00
6.31413613e+04	1.05607330e-07	2.20597395e+02
5.18324607e+04	2.72979058e-07	7.22379840e+01
3.39267016e+04	9.21544503e-07	2.63580600e+01
2.45026178e+04	2.99130890e-07	8.54300346e+03
8.01047120e+03	5.97261780e-07	0.00000000e+00
4.24083770e+03	2.10214660e-07	0.00000000e+00
2.59162304e+04	5.86801047e-07	1.31964994e+02
6.64397906e+04	8.99162304e-08	2.70785817e+02
8.57591623e+04	5.34497382e-07	8.41463000e+00
8.67015707e+04	3.35743455e-07	2.50604300e+01
9.00000000e+04	5.76340314e-07	6.02965000e+00
8.85863874e+04	5.03115183e-07	8.88053000e+00
6.26701571e+04	6.91408377e-07	1.04820400e+01
4.33507853e+04	7.28020942e-07	2.95763600e+01
4.61780105e+04	8.32628272e-07	1.41633300e+01
3.53403141e+04	6.60026178e-07	9.26848100e+01
1.88481675e+04	5.24036649e-07	3.76715143e+03
9.42408377e+03	2.19214660e-08	0.00000000e+00
5.18324607e+04	6.12952880e-07	2.87474600e+01
5.04188482e+04	4.87424084e-07	6.50447500e+01
5.56020942e+04	6.23413613e-07	2.13928600e+01
4.52356021e+04	1.68371728e-07	1.03831326e+03
7.16230366e+04	6.07722513e-07	1.02615900e+01
5.70157068e+04	3.93277487e-07	2.64762600e+01
6.83246073e+04	8.64010471e-07	3.99217000e+00
3.62827225e+04	7.17560209e-07	6.05403500e+01
6.12565445e+03	3.82816754e-07	0.00000000e+00
6.12565445e+04	6.37643979e-08	9.08050855e+03
5.60732984e+04	4.50811518e-07	5.50635600e+01
1.31937173e+04	5.86801047e-07	0.00000000e+00
1.64921466e+04	4.14198953e-07	0.00000000e+00
3.29842932e+04	1.68371728e-07	9.02057142e+03
2.82722513e+04	1.89293194e-07	9.05338879e+03
5.84293194e+04	4.24659686e-07	1.93373667e+01
7.16230366e+04	5.97261780e-07	1.07849400e+01
9.42408377e+02	9.47696335e-07	0.00000000e+00
1.88481675e+04	1.52680628e-07	0.00000000e+00
5.56020942e+04	4.82193717e-07	4.67409200e+01
3.95811518e+04	8.99162304e-08	9.22191738e+03
8.67015707e+04	1.47450262e-07	3.40897320e+01
2.92146597e+04	6.75717277e-07	6.48739933e+01
1.88481675e+03	6.18183246e-07	0.00000000e+00
5.41884817e+04	2.62518325e-07	6.56116460e+01
5.27748691e+04	4.19429319e-07	2.97026733e+01
4.61780105e+04	3.93277487e-07	6.33696367e+01
5.41884817e+04	1.31759162e-07	3.92929378e+02
8.48167539e+04	8.11706806e-07	2.82786000e+00
3.06282723e+04	4.87424084e-07	1.25208426e+02
7.86910995e+04	2.52057592e-07	2.41953000e+01
1.88481675e+04	3.14821990e-07	0.00000000e+00
8.01047120e+04	3.35743455e-07	1.13502433e+01
5.18324607e+03	9.79078534e-07	0.00000000e+00
5.23036649e+04	6.54795812e-07	2.24132900e+01
1.93193717e+04	9.89539267e-07	1.96989610e+02
2.02617801e+04	2.78209424e-07	0.00000000e+00
1.50785340e+04	1.73602094e-07	0.00000000e+00
6.07853403e+04	3.20052356e-07	3.66682900e+01
8.95287958e+04	6.23036649e-09	9.19485105e+03
5.23036649e+04	6.28643979e-07	2.56562200e+01
1.79057592e+04	3.51434555e-07	0.00000000e+00
3.76963351e+03	7.12329843e-07	0.00000000e+00
2.35602094e+03	8.53549738e-07	0.00000000e+00
7.53926702e+03	5.60649215e-07	0.00000000e+00
2.68586387e+04	7.90785340e-07	1.37741000e+02
8.05759162e+04	9.47696335e-07	2.02286000e+00
5.89005236e+04	9.00623037e-07	5.07702000e+00
2.68586387e+04	3.30513089e-07	5.75556481e+03
4.09947644e+04	9.84308901e-07	9.92858000e+00
7.96335079e+04	5.92031414e-07	8.02584000e+00
2.40314136e+04	5.44958115e-07	2.21391611e+02
4.38219895e+04	2.72979058e-07	1.31936131e+02
1.08376963e+04	8.74471204e-07	1.25593017e+03
3.95811518e+04	3.23821990e-08	0.00000000e+00
2.82722513e+03	2.19214660e-08	0.00000000e+00
4.71204188e+02	9.42465969e-07	0.00000000e+00
1.03664921e+04	4.87424084e-07	0.00000000e+00
7.96335079e+04	4.24659686e-07	1.89972000e+01
3.06282723e+04	7.90785340e-07	7.93457600e+01
8.34031414e+04	3.25282723e-07	1.06087567e+01
5.23036649e+04	5.44958115e-07	4.03600200e+01
7.58638743e+04	8.64010471e-07	3.08239000e+00
4.14659686e+04	9.51465969e-08	9.18705141e+03
3.62827225e+04	2.52057592e-07	5.35296552e+02
1.50785340e+04	4.82193717e-07	0.00000000e+00
8.15183246e+04	6.28643979e-07	6.37532000e+00
7.68062827e+04	4.82193717e-07	1.54809800e+01
8.71727749e+04	5.39727749e-07	7.81512000e+00
2.78010471e+04	4.82193717e-07	2.33817468e+02
1.17801047e+04	6.37643979e-08	0.00000000e+00
5.60732984e+04	7.38481675e-07	1.19042600e+01
6.45549738e+04	5.71109948e-07	5.76640333e+00
1.55497382e+04	1.16068063e-07	0.00000000e+00
8.01047120e+03	9.32005236e-07	0.00000000e+00
5.51308901e+04	2.71518325e-08	9.28784669e+03
3.62827225e+04	3.25282723e-07	1.63040118e+02
6.45549738e+04	3.25282723e-07	2.75612367e+01
8.48167539e+04	7.01869110e-07	4.22554000e+00
8.19895288e+04	2.67748691e-07	1.79296733e+01
7.53926702e+04	4.66502618e-07	1.79220200e+01
8.34031414e+04	7.48942408e-07	3.69952000e+00
6.92670157e+04	5.65879581e-07	1.39623100e+01
3.29842932e+03	1.21298429e-07	0.00000000e+00
8.48167539e+03	4.97884817e-07	0.00000000e+00
2.82722513e+03	1.99753927e-07	0.00000000e+00
8.48167539e+03	2.88670157e-07	0.00000000e+00
5.23036649e+04	5.24036649e-07	4.55441400e+01
6.83246073e+04	4.76963351e-07	2.34379600e+01
5.51308901e+04	7.96015707e-07	9.63243000e+00
5.74869110e+04	3.98507853e-07	2.46914000e+01
8.01047120e+04	8.90162304e-07	2.47856000e+00
4.71204188e+02	5.92031414e-07	0.00000000e+00
3.01570681e+04	6.65256545e-07	6.01473333e+01
4.24083770e+03	3.72356021e-07	0.00000000e+00
2.26178010e+04	6.44335079e-07	1.76690656e+02
4.38219895e+04	3.09591623e-07	1.12490026e+02
7.68062827e+04	7.64633508e-07	4.31761000e+00
7.02094241e+04	3.14821990e-07	2.16717467e+01
4.90052356e+04	7.22790576e-07	1.98678500e+01
6.07853403e+04	5.13575916e-07	2.84198900e+01
8.43455497e+04	1.94523560e-07	3.37497000e+01
1.31937173e+04	5.81570681e-07	0.00000000e+00
6.40837696e+04	5.65879581e-07	1.79599200e+01
6.40837696e+04	8.95392670e-07	4.16261000e+00
2.26178010e+04	7.17560209e-07	1.68220473e+02
3.25130890e+04	5.86801047e-07	7.17310200e+01
6.45549738e+04	8.90162304e-07	4.16854000e+00
4.71204188e+04	4.24659686e-07	4.53651967e+01
7.49214660e+04	1.99753927e-07	5.22430567e+01
7.53926702e+04	3.23821990e-08	9.14106995e+03
3.06282723e+04	9.05853403e-07	4.24280300e+01
3.29842932e+04	1.10837696e-07	9.22283313e+03
1.41361257e+04	8.53549738e-07	4.02043740e+02
6.31413613e+04	4.56041885e-07	3.47724600e+01
6.92670157e+04	3.46204188e-07	1.78463000e+01
5.79581152e+04	9.89539267e-07	3.69152000e+00
3.95811518e+04	6.33874346e-07	6.88484700e+01
1.17801047e+04	1.66910995e-08	0.00000000e+00
6.59685864e+04	7.43712042e-07	7.13933000e+00
4.57068063e+04	8.95392670e-07	1.08435600e+01
8.19895288e+04	4.29890052e-07	1.67518500e+01
4.00523560e+04	1.21298429e-07	9.09399565e+03
5.98429319e+04	5.34497382e-07	2.66983600e+01
6.17277487e+04	5.39727749e-07	2.33535100e+01
4.24083770e+04	8.32628272e-07	1.88097500e+01
6.45549738e+04	8.27397906e-07	5.35601000e+00
3.06282723e+04	8.64010471e-07	5.32265200e+01
5.74869110e+04	7.43712042e-07	1.07536200e+01
7.20942408e+04	9.42465969e-07	2.63105000e+00
3.29842932e+04	9.73848168e-07	2.21464000e+01
7.35078534e+04	4.61272251e-07	2.00655200e+01
5.98429319e+04	3.82816754e-07	2.36866567e+01
7.77486911e+04	5.33036649e-08	2.85911052e+03
3.34554974e+04	7.12329843e-07	8.58306200e+01
1.74345550e+04	4.08968586e-07	8.42537417e+03
1.88481675e+04	8.95392670e-07	1.32408587e+02
4.24083770e+03	9.58157068e-07	0.00000000e+00
8.90575916e+04	3.56664921e-07	1.99198200e+01
5.51308901e+04	6.18183246e-07	2.26169700e+01
1.97905759e+04	3.61895288e-07	8.52830681e+03
5.08900524e+04	3.25282723e-07	7.51556200e+01
7.02094241e+04	2.31136126e-07	4.77823767e+01
1.93193717e+04	7.38481675e-07	3.44698340e+02
2.63874346e+04	6.12952880e-07	1.62324983e+02
1.13089005e+04	3.14821990e-07	0.00000000e+00
7.11518325e+04	9.58157068e-07	2.56651000e+00
5.89005236e+04	5.65879581e-07	2.37653800e+01
1.88481675e+03	2.20675393e-07	0.00000000e+00
3.25130890e+04	1.05607330e-07	9.23380021e+03
7.68062827e+04	3.40973822e-07	3.68148700e+01
6.54973822e+04	9.58157068e-07	3.10192000e+00
5.32460733e+04	2.78209424e-07	5.95350360e+01
3.62827225e+04	4.76963351e-07	9.66172800e+01
3.91099476e+04	7.33251309e-07	4.18339600e+01
2.68586387e+04	6.80947644e-07	2.64418530e+02
1.41361257e+03	7.22790576e-07	0.00000000e+00
4.00523560e+04	8.79701571e-07	1.80866600e+01
6.17277487e+04	6.28643979e-07	1.48009200e+01
1.93193717e+04	1.84062827e-07	0.00000000e+00
5.18324607e+03	1.63141361e-07	0.00000000e+00
2.21465969e+04	2.72979058e-07	8.90085964e+03
5.70157068e+04	1.73602094e-07	1.42593937e+02
8.29319372e+04	4.08968586e-07	1.82405700e+01
8.05759162e+04	3.35743455e-07	3.22913600e+01
8.67015707e+04	8.90162304e-07	2.07389000e+00
8.10471204e+04	1.31759162e-07	6.13131460e+01
1.50785340e+04	7.12329843e-07	1.22961263e+03
3.15706806e+04	7.43712042e-07	9.10388100e+01
4.38219895e+04	6.60026178e-07	4.06640300e+01
4.52356021e+04	2.83439791e-07	1.31379804e+02
6.36125654e+04	8.22167539e-07	5.69569000e+00
1.64921466e+04	4.28429319e-08	0.00000000e+00
9.00000000e+04	7.33251309e-07	3.22183000e+00
5.56020942e+04	7.96015707e-07	9.38599000e+00
1.64921466e+04	9.47696335e-07	1.89780470e+02
4.71204188e+04	1.57910995e-07	9.84727037e+02
2.35602094e+04	4.71732984e-07	4.55925387e+02
8.43455497e+04	2.62518325e-07	1.68806233e+01
6.87958115e+04	7.94554974e-08	3.90187963e+02
2.16753927e+04	1.73602094e-07	0.00000000e+00
9.00000000e+04	7.48942408e-07	3.04667000e+00
3.67539267e+04	4.03738220e-07	1.03874274e+02
2.45026178e+04	6.23413613e-07	2.21972547e+02
4.42931937e+04	9.89539267e-07	0.00000000e+00
6.26701571e+04	9.73848168e-07	3.25025000e+00
7.53926702e+03	4.45581152e-07	0.00000000e+00
4.80628272e+04	3.09591623e-07	1.15622837e+02
3.29842932e+04	5.50188482e-07	8.67479400e+01
1.41361257e+04	3.51434555e-07	0.00000000e+00
1.88481675e+04	4.40350785e-07	7.83251834e+03
5.41884817e+04	9.47696335e-07	5.21551000e+00
4.71204188e+04	2.72979058e-07	1.19877158e+02
6.78534031e+04	1.42219895e-07	9.35492629e+01
4.71204188e+04	7.22790576e-07	2.27034400e+01
7.39790576e+04	1.14607330e-08	9.24671256e+03
8.15183246e+04	3.76125654e-08	9.01056966e+03
5.23036649e+04	1.84062827e-07	1.61270277e+02
6.64397906e+04	1.31759162e-07	1.36872091e+02
2.92146597e+04	1.99753927e-07	8.97704990e+03
3.72251309e+04	9.26774869e-07	1.83438400e+01
6.59685864e+03	8.32628272e-07	0.00000000e+00
4.19371728e+04	8.11706806e-07	2.16920900e+01
3.25130890e+04	6.39104712e-07	1.47776830e+02
4.75916230e+04	3.61895288e-07	7.25434300e+01
6.78534031e+04	9.11083770e-07	3.39522000e+00
7.49214660e+04	2.93900524e-07	2.01098933e+01
6.69109948e+04	2.83439791e-07	3.43981700e+01
2.54450262e+04	7.54172775e-07	7.45085567e+01
9.00000000e+04	9.63387435e-07	1.53727000e+00
2.96858639e+04	3.35743455e-07	5.94892633e+02
8.76439791e+04	1.68371728e-07	4.00219967e+01
8.52879581e+04	9.16314136e-07	1.97973000e+00
8.01047120e+04	3.09591623e-07	3.98964100e+01
3.20418848e+04	2.72979058e-07	1.97991417e+03
1.27225131e+04	8.37858639e-07	1.16443968e+03
8.76439791e+04	3.14821990e-07	2.79934600e+01
7.63350785e+04	4.66502618e-07	1.72087400e+01
5.84293194e+04	8.06476440e-07	7.73624000e+00
1.79057592e+04	4.61272251e-07	7.81188804e+03
4.52356021e+04	9.05853403e-07	1.06581300e+01
2.49738220e+04	7.01869110e-07	1.13786177e+02
3.67539267e+04	8.84931937e-07	2.38338100e+01
5.84293194e+04	3.67125654e-07	2.92746300e+01
8.38743455e+04	8.69240838e-07	2.39063000e+00
4.90052356e+04	4.50811518e-07	3.19756633e+01
3.76963351e+03	1.14607330e-08	0.00000000e+00
2.35602094e+04	6.12952880e-07	1.81811712e+02
3.76963351e+04	3.23821990e-08	0.00000000e+00
9.42408377e+03	7.17560209e-07	0.00000000e+00
8.81151832e+04	3.04361257e-07	1.02220167e+01
1.79057592e+04	2.83439791e-07	0.00000000e+00
7.39790576e+04	3.20052356e-07	1.70545567e+01
1.17801047e+04	1.05607330e-07	0.00000000e+00
2.78010471e+04	5.34497382e-07	1.39983892e+02
5.65445026e+04	7.59403141e-07	1.05350900e+01
3.29842932e+04	4.08968586e-07	1.81589912e+02
5.74869110e+04	4.56041885e-07	4.86612300e+01
3.10994764e+04	9.73848168e-07	2.76406300e+01
2.78010471e+04	1.00000000e-09	0.00000000e+00
7.53926702e+03	7.64633508e-07	0.00000000e+00
4.94764398e+04	6.39104712e-07	2.94492400e+01
1.64921466e+04	6.91408377e-07	7.29234173e+02
5.32460733e+04	9.52926702e-07	5.34173000e+00
7.35078534e+04	2.83439791e-07	2.36873967e+01
0.00000000e+00	9.47696335e-07	0.00000000e+00
5.18324607e+04	5.44958115e-07	4.17030600e+01
6.59685864e+04	2.93900524e-07	3.31093900e+01
3.86387435e+04	4.14198953e-07	1.21237047e+02
4.94764398e+04	1.68371728e-07	2.50610177e+02
6.54973822e+04	9.52926702e-07	3.16444000e+00
8.48167539e+04	7.90785340e-07	3.04101000e+00
4.24083770e+03	6.60026178e-07	0.00000000e+00
7.39790576e+04	9.89539267e-07	2.11969000e+00
9.42408377e+02	3.23821990e-08	0.00000000e+00
2.26178010e+04	1.66910995e-08	0.00000000e+00
8.05759162e+04	1.00000000e-09	9.25255747e+03
2.07329843e+04	4.92654450e-07	1.63503927e+03
8.15183246e+04	6.23413613e-07	6.52224000e+00
7.53926702e+03	9.11083770e-07	0.00000000e+00
7.91623037e+04	2.57287958e-07	2.25177767e+01
4.80628272e+04	9.51465969e-08	9.08773737e+03
7.06806283e+04	5.34497382e-07	1.53600800e+01
6.03141361e+04	5.71109948e-07	2.13506400e+01
1.88481675e+04	4.82193717e-07	6.87868846e+03
7.06806283e+04	6.91408377e-07	0.00000000e+00
1.50785340e+04	1.21298429e-07	0.00000000e+00
4.19371728e+04	3.56664921e-07	8.40123760e+01
4.19371728e+04	8.64010471e-07	1.67176600e+01
4.57068063e+04	2.78209424e-07	9.49399714e+01
8.01047120e+03	9.73848168e-07	0.00000000e+00
2.59162304e+04	1.89293194e-07	9.10008118e+03
2.21465969e+04	7.75094241e-07	1.26896693e+02
8.95287958e+04	9.16314136e-07	1.78535000e+00
1.97905759e+04	1.84062827e-07	0.00000000e+00
1.79057592e+04	5.34497382e-07	5.57410215e+03
5.74869110e+04	8.74471204e-07	6.04559000e+00
8.48167539e+04	1.00000000e-06	1.55326000e+00
2.07329843e+04	2.78209424e-07	8.90321780e+03
3.62827225e+04	7.90785340e-07	4.08538500e+01
3.29842932e+04	9.47696335e-07	2.54621300e+01
8.43455497e+04	5.24036649e-07	9.30565000e+00
8.90575916e+04	6.91408377e-07	3.87460000e+00
0.00000000e+00	1.00376963e-07	0.00000000e+00
5.37172775e+04	1.63141361e-07	1.83729784e+02
2.73298429e+04	9.37235602e-07	5.66460200e+01
6.03141361e+04	3.61895288e-07	7.68588300e+01
7.77486911e+04	2.36366492e-07	2.96463733e+01
6.87958115e+04	2.20675393e-07	3.54031480e+01
1.88481675e+03	8.95392670e-07	0.00000000e+00
1.88481675e+04	5.71109948e-07	9.83981159e+02
3.01570681e+04	7.48942408e-07	1.06810150e+02
7.53926702e+03	4.28429319e-08	0.00000000e+00
5.60732984e+04	1.00376963e-07	8.69538025e+03
1.93193717e+04	5.71109948e-07	7.52693052e+02
4.57068063e+04	5.71109948e-07	5.70368100e+01
4.71204188e+02	2.52057592e-07	0.00000000e+00
3.95811518e+04	3.56664921e-07	1.14050458e+02
5.79581152e+04	7.69863874e-07	9.32262000e+00
1.22513089e+04	1.00376963e-07	0.00000000e+00
2.73298429e+04	9.05853403e-07	6.73216500e+01
5.32460733e+04	2.46827225e-07	8.75143780e+01
6.12565445e+03	1.99753927e-07	0.00000000e+00
1.31937173e+04	2.57287958e-07	0.00000000e+00
6.64397906e+04	3.67125654e-07	1.78551567e+01
5.18324607e+04	8.84931937e-07	7.76469000e+00
4.19371728e+04	4.61272251e-07	5.66747800e+01
3.43979058e+04	9.42465969e-07	2.24333600e+01
2.73298429e+04	9.94769634e-07	4.11177800e+01
4.71204188e+04	1.42219895e-07	8.17855462e+03
6.50261780e+04	5.33036649e-08	9.10671084e+03
8.15183246e+04	1.10837696e-07	9.23404080e+01
4.71204188e+02	3.04361257e-07	0.00000000e+00
8.29319372e+04	7.54172775e-07	3.68058000e+00
7.11518325e+04	4.66502618e-07	2.17002400e+01
1.69633508e+04	3.46204188e-07	0.00000000e+00
5.74869110e+04	7.28020942e-07	1.15487500e+01
7.86910995e+04	8.74471204e-07	2.72320000e+00
8.67015707e+04	4.08968586e-07	1.57593300e+01
1.03664921e+04	8.01246073e-07	0.00000000e+00
8.01047120e+04	3.88047120e-07	2.32767800e+01
7.25654450e+04	1.10837696e-07	1.33684130e+02
7.39790576e+04	5.92031414e-07	1.00195900e+01
5.56020942e+04	3.04361257e-07	6.17902100e+01
3.95811518e+04	6.12952880e-07	7.76266400e+01
3.06282723e+04	3.93277487e-07	2.02650964e+02
1.69633508e+04	6.12952880e-07	1.97854009e+03
4.71204188e+04	9.26774869e-07	8.51950000e+00
1.22513089e+04	7.80324607e-07	2.38999245e+03
6.21989529e+04	9.37235602e-07	3.80890000e+00
7.02094241e+04	3.25282723e-07	1.99287767e+01
6.36125654e+04	3.51434555e-07	2.36974200e+01
3.01570681e+04	6.96638743e-07	4.95589833e+01
3.58115183e+04	3.88047120e-07	1.41243022e+02
6.50261780e+04	2.52057592e-07	3.18068380e+01
8.95287958e+04	6.70486911e-07	4.14223000e+00
5.18324607e+04	7.48942408e-07	1.45342300e+01
1.17801047e+04	3.67125654e-07	0.00000000e+00
7.06806283e+04	9.00623037e-07	0.00000000e+00
5.56020942e+04	1.99753927e-07	1.40777514e+02
4.24083770e+03	4.61272251e-07	0.00000000e+00
8.81151832e+04	7.75094241e-07	2.93143000e+00
5.46596859e+04	9.21544503e-07	5.69143000e+00
2.59162304e+04	7.28020942e-07	8.05760400e+01
6.92670157e+04	6.37643979e-08	8.86191359e+03
6.64397906e+04	3.61895288e-07	1.85506300e+01
7.82198953e+04	7.75094241e-07	3.95584000e+00
8.95287958e+03	8.06476440e-07	0.00000000e+00
2.49738220e+04	1.21298429e-07	0.00000000e+00
5.89005236e+04	4.61272251e-07	4.31476000e+01
7.06806283e+03	1.78832461e-07	0.00000000e+00
3.29842932e+03	2.93900524e-07	0.00000000e+00
8.95287958e+04	4.14198953e-07	1.37749000e+01
3.20418848e+04	2.19214660e-08	0.00000000e+00
4.90052356e+04	5.33036649e-08	9.25378290e+03
8.34031414e+04	4.29890052e-07	1.58467900e+01
4.24083770e+04	5.81570681e-07	7.13271700e+01
8.43455497e+04	6.02492147e-07	6.46677000e+00
2.12041885e+04	8.64010471e-07	8.98744700e+01
4.71204188e+03	1.26528796e-07	0.00000000e+00
8.76439791e+04	5.92031414e-07	6.07137000e+00
4.94764398e+04	5.33036649e-08	9.25099941e+03
3.72251309e+04	4.80732984e-08	0.00000000e+00
4.57068063e+04	5.92031414e-07	5.06141900e+01
1.88481675e+03	6.70486911e-07	0.00000000e+00
6.83246073e+04	3.40973822e-07	5.61630900e+01
6.26701571e+04	6.54795812e-07	1.24440500e+01
3.72251309e+04	2.52057592e-07	3.80612629e+02
3.01570681e+04	2.25905759e-07	8.73149495e+03
6.21989529e+04	5.18806283e-07	2.55022400e+01
6.12565445e+04	3.72356021e-07	2.33745067e+01
4.09947644e+04	6.23036649e-09	0.00000000e+00
3.58115183e+04	9.73848168e-07	1.64612700e+01
4.00523560e+04	1.00000000e-06	9.88357000e+00
4.24083770e+04	9.42465969e-07	1.09484900e+01
1.88481675e+03	3.09591623e-07	0.00000000e+00
3.86387435e+04	9.68617801e-07	1.30344300e+01
8.95287958e+03	9.26774869e-07	0.00000000e+00
4.42931937e+04	9.52926702e-07	9.08774000e+00
5.79581152e+04	8.79701571e-07	5.78167000e+00
4.24083770e+04	1.21298429e-07	9.04026906e+03
2.92146597e+04	7.12329843e-07	1.50797810e+02
8.19895288e+04	9.00623037e-07	2.27035000e+00
5.56020942e+04	1.89293194e-07	1.21947789e+02
6.31413613e+04	9.79078534e-07	3.13043000e+00
4.80628272e+04	4.61272251e-07	3.21361767e+01
6.87958115e+04	2.41596859e-07	2.78989220e+01
5.51308901e+04	8.69240838e-07	6.96538000e+00
4.57068063e+04	9.00623037e-07	1.05782700e+01
3.81675393e+04	5.55418848e-07	4.40331133e+01
1.64921466e+04	3.98507853e-07	0.00000000e+00
8.29319372e+04	2.71518325e-08	9.10885450e+03
7.39790576e+04	1.00000000e-09	9.27555329e+03
2.26178010e+04	6.23413613e-07	2.11749936e+02
7.68062827e+04	8.43089005e-07	3.22192000e+00
5.84293194e+04	8.22167539e-07	7.22614000e+00
7.68062827e+04	3.25282723e-07	1.42698567e+01
5.04188482e+04	5.65879581e-07	4.09707800e+01
8.34031414e+04	2.88670157e-07	1.40859167e+01
3.62827225e+04	3.14821990e-07	1.93025214e+02
6.97382199e+04	5.03115183e-07	1.89385400e+01
5.74869110e+04	8.43089005e-07	6.92337000e+00
3.06282723e+04	3.23821990e-08	0.00000000e+00
4.24083770e+04	5.60649215e-07	2.77377367e+01
7.16230366e+04	7.43712042e-07	5.66729000e+00
4.14659686e+04	6.37643979e-08	9.27253873e+03
3.67539267e+04	1.00000000e-09	0.00000000e+00
7.63350785e+04	5.85340314e-08	1.10228615e+03
4.00523560e+04	4.61272251e-07	6.93696667e+01
5.18324607e+04	3.77586387e-07	4.38729367e+01
3.25130890e+04	2.10214660e-07	8.70427111e+03
2.96858639e+04	7.59403141e-07	1.07513520e+02
1.88481675e+03	1.99753927e-07	0.00000000e+00
3.43979058e+04	9.58157068e-07	2.06448200e+01
9.89528796e+03	7.64633508e-07	0.00000000e+00
6.50261780e+04	2.04984293e-07	5.61869440e+01
4.19371728e+04	5.55418848e-07	8.70199900e+01
3.72251309e+04	2.78209424e-07	2.58455815e+02
5.65445026e+03	4.66502618e-07	0.00000000e+00
8.01047120e+04	2.10214660e-07	3.47885167e+01
7.06806283e+04	2.57287958e-07	3.53276467e+01
8.71727749e+04	8.90162304e-07	2.04966000e+00
6.92670157e+04	8.69240838e-07	3.78019000e+00
1.93193717e+04	9.68617801e-07	2.22142230e+02
6.36125654e+04	1.42219895e-07	1.09553906e+02
1.41361257e+04	6.65256545e-07	5.16151776e+03
3.81675393e+04	9.47696335e-07	1.51145200e+01
1.27225131e+04	7.07099476e-07	3.89636721e+03
4.47643979e+04	9.51465969e-08	9.14270513e+03
8.67015707e+04	2.99130890e-07	1.12659900e+01
8.90575916e+04	9.89539267e-07	1.45829000e+00
4.71204188e+04	8.79701571e-07	1.06085000e+01
7.91623037e+04	5.60649215e-07	9.44762000e+00
9.89528796e+03	5.60649215e-07	0.00000000e+00
1.36649215e+04	7.80324607e-07	1.47920130e+03
2.63874346e+04	6.49565445e-07	1.24296017e+02
8.76439791e+04	4.76963351e-07	1.04816800e+01
9.00000000e+04	4.82193717e-07	9.40360000e+00
8.10471204e+04	2.52057592e-07	2.16032400e+01
2.16753927e+04	4.87424084e-07	8.40802019e+02
1.08376963e+04	2.78209424e-07	0.00000000e+00
3.25130890e+04	3.88047120e-07	1.83418364e+02
8.81151832e+04	7.64633508e-07	3.04062000e+00
3.20418848e+04	6.23413613e-07	1.73144430e+02
5.70157068e+04	4.24659686e-07	2.12108367e+01
4.85340314e+04	1.78832461e-07	2.45727276e+02
4.99476440e+04	6.49565445e-07	2.69803300e+01
5.23036649e+04	1.47450262e-07	2.74615054e+02
3.29842932e+03	6.39104712e-07	0.00000000e+00
2.30890052e+04	8.99162304e-08	0.00000000e+00
3.67539267e+04	2.93900524e-07	2.54564570e+02
5.65445026e+03	3.67125654e-07	0.00000000e+00
1.46073298e+04	5.34497382e-07	7.38677434e+03
3.34554974e+04	8.32628272e-07	4.45444700e+01
8.76439791e+04	4.80732984e-08	1.99614612e+02
9.89528796e+03	3.88047120e-07	0.00000000e+00
8.48167539e+03	2.99130890e-07	0.00000000e+00
5.46596859e+04	1.89293194e-07	1.36147274e+02
1.08376963e+04	9.11083770e-07	6.40099267e+02
1.27225131e+04	5.71109948e-07	0.00000000e+00
1.36649215e+04	3.61895288e-07	0.00000000e+00
2.87434555e+04	8.48319372e-07	7.50228000e+01
6.45549738e+04	3.72356021e-07	5.52649200e+01
9.89528796e+03	5.29267016e-07	0.00000000e+00
3.86387435e+04	6.02492147e-07	9.06897900e+01
1.60209424e+04	3.23821990e-08	0.00000000e+00
1.22513089e+04	6.89947644e-08	0.00000000e+00
3.06282723e+04	3.20052356e-07	6.28403643e+02
2.07329843e+04	2.83439791e-07	8.89154554e+03
7.53926702e+04	8.27397906e-07	3.57101000e+00
3.76963351e+03	6.65256545e-07	0.00000000e+00
3.76963351e+04	1.00000000e-06	1.20496300e+01
5.27748691e+04	6.28643979e-07	2.48837600e+01
4.80628272e+04	5.44958115e-07	1.88081600e+01
2.59162304e+04	2.46827225e-07	8.85313591e+03
4.38219895e+04	5.86801047e-07	6.10444300e+01
2.12041885e+04	2.36366492e-07	0.00000000e+00
6.26701571e+04	2.04984293e-07	4.81496643e+01
3.01570681e+04	7.54172775e-07	1.03696740e+02
4.09947644e+04	4.35120419e-07	7.66948467e+01
2.30890052e+04	4.92654450e-07	3.87641080e+02
4.71204188e+03	6.23036649e-09	0.00000000e+00
7.25654450e+04	3.61895288e-07	3.89184100e+01
8.05759162e+04	9.16314136e-07	0.00000000e+00
2.16753927e+04	4.24659686e-07	6.40082325e+03
3.67539267e+04	4.29890052e-07	1.34999930e+02
8.95287958e+03	1.42219895e-07	0.00000000e+00
8.38743455e+04	1.52680628e-07	3.64602380e+01
5.23036649e+04	5.92031414e-07	3.11375600e+01
4.47643979e+04	2.99130890e-07	1.13760634e+02
6.59685864e+03	7.59403141e-07	0.00000000e+00
4.80628272e+04	1.14607330e-08	0.00000000e+00
2.82722513e+04	7.17560209e-07	5.79108967e+01
1.74345550e+04	7.22790576e-07	3.31595023e+02
5.41884817e+04	8.95392670e-07	6.52709000e+00
4.05235602e+04	4.19429319e-07	5.53222620e+01
3.91099476e+04	1.14607330e-08	0.00000000e+00
6.50261780e+04	8.99162304e-08	4.44969054e+02
4.14659686e+04	3.46204188e-07	9.95516600e+01
8.81151832e+04	7.17560209e-07	3.60395000e+00
2.30890052e+04	6.39104712e-07	1.63805286e+02
8.81151832e+04	6.65256545e-07	4.41249000e+00
5.65445026e+03	2.25905759e-07	0.00000000e+00
2.92146597e+04	5.03115183e-07	1.40883330e+02
4.47643979e+04	2.83439791e-07	1.39628592e+02
4.94764398e+04	1.99753927e-07	2.19715367e+02
3.15706806e+04	3.56664921e-07	2.33750760e+02
8.29319372e+04	9.84308901e-07	1.70164000e+00
7.96335079e+04	7.90785340e-07	3.56424000e+00
5.46596859e+04	5.33036649e-08	9.21430890e+03
2.96858639e+04	4.87424084e-07	1.49154244e+02
8.19895288e+04	4.56041885e-07	1.44533000e+01
7.20942408e+04	6.07722513e-07	1.00559000e+01
1.64921466e+04	4.24659686e-07	8.31192685e+03
5.13612565e+04	3.23821990e-08	9.29195276e+03
3.67539267e+04	9.58157068e-07	1.63036100e+01
6.36125654e+04	7.96015707e-07	6.34169000e+00
1.41361257e+04	2.52057592e-07	0.00000000e+00
2.78010471e+04	9.26774869e-07	5.58885300e+01
1.13089005e+04	2.31136126e-07	0.00000000e+00
5.18324607e+04	9.21544503e-07	6.60314000e+00
8.76439791e+04	8.01246073e-07	2.70976000e+00
4.57068063e+04	9.47696335e-07	8.46813000e+00
1.50785340e+04	6.96638743e-07	1.62324832e+03
6.87958115e+04	6.18183246e-07	1.10712900e+01
4.57068063e+04	6.18183246e-07	4.37420800e+01
5.60732984e+04	6.96638743e-07	1.44960700e+01
6.03141361e+04	1.10837696e-07	3.33884131e+02
5.98429319e+04	3.20052356e-07	3.90933767e+01
6.54973822e+04	5.39727749e-07	1.91334600e+01
2.35602094e+03	2.78209424e-07	0.00000000e+00
4.66492147e+04	6.23413613e-07	3.94872500e+01
4.24083770e+04	6.70486911e-07	4.33417200e+01
3.39267016e+04	7.43712042e-07	6.82005700e+01
4.52356021e+04	8.58780105e-07	1.33437500e+01
4.71204188e+03	1.99753927e-07	0.00000000e+00
1.93193717e+04	5.29267016e-07	1.81734918e+03
8.29319372e+04	7.48942408e-07	3.75315000e+00
2.73298429e+04	7.75094241e-07	1.39669950e+02
6.78534031e+04	4.76963351e-07	8.15809000e+00
4.14659686e+04	4.08968586e-07	5.43289420e+01
7.91623037e+04	6.86178010e-07	5.43425000e+00
5.51308901e+04	1.42219895e-07	2.45383675e+02
4.71204188e+02	8.01246073e-07	0.00000000e+00
2.54450262e+04	2.71518325e-08	0.00000000e+00
3.34554974e+04	6.86178010e-07	9.95613400e+01
5.32460733e+04	6.28643979e-07	2.41384600e+01
8.24607330e+04	9.84308901e-07	1.72226000e+00
8.38743455e+04	7.48942408e-07	3.64648000e+00
7.20942408e+04	5.92031414e-07	1.08384700e+01
7.49214660e+04	5.44958115e-07	1.20958900e+01
3.20418848e+04	4.76963351e-07	1.79632877e+02
3.10994764e+04	3.67125654e-07	2.70508519e+02
8.48167539e+04	1.16068063e-07	6.66257280e+01
3.86387435e+04	7.75094241e-07	3.51074300e+01
7.06806283e+03	2.31136126e-07	0.00000000e+00
1.88481675e+04	4.61272251e-07	7.45758927e+03
6.26701571e+04	4.76963351e-07	3.15100400e+01
1.60209424e+04	4.80732984e-08	0.00000000e+00
4.52356021e+04	5.97261780e-07	5.10529100e+01
4.71204188e+04	3.82816754e-07	6.32481933e+01
8.15183246e+04	5.65879581e-07	8.44304000e+00
6.64397906e+04	2.99130890e-07	8.67723400e+01
5.46596859e+04	5.71109948e-07	2.98973000e+01
8.52879581e+04	6.33874346e-07	5.48357000e+00
6.78534031e+04	5.60649215e-07	1.53049300e+01
1.46073298e+04	4.35120419e-07	0.00000000e+00
9.00000000e+04	1.14607330e-08	9.16508823e+03
5.56020942e+04	3.56664921e-07	3.88511133e+01
8.90575916e+04	2.83439791e-07	3.35262300e+01
8.01047120e+04	6.44335079e-07	6.26282000e+00
5.51308901e+04	9.05853403e-07	5.94426000e+00
6.78534031e+04	6.28643979e-07	1.09941600e+01
5.79581152e+04	8.43089005e-07	6.76473000e+00
1.88481675e+04	1.99753927e-07	0.00000000e+00
6.54973822e+04	6.28643979e-07	1.22607800e+01
1.13089005e+04	6.80947644e-07	0.00000000e+00
6.54973822e+04	9.00623037e-07	3.85769000e+00
3.01570681e+04	7.90785340e-07	2.86318433e+01
5.93717277e+04	1.52680628e-07	1.75327271e+02
6.26701571e+04	3.35743455e-07	2.84218300e+01
6.73821990e+04	6.02492147e-07	1.27288100e+01
5.79581152e+04	7.01869110e-07	1.27354400e+01
1.13089005e+04	1.31759162e-07	0.00000000e+00
8.24607330e+04	8.16937173e-07	2.97590000e+00
9.42408377e+03	2.46827225e-07	0.00000000e+00
7.20942408e+04	1.00000000e-09	9.28186575e+03
4.90052356e+04	7.80324607e-07	1.49930700e+01
4.94764398e+04	9.94769634e-07	5.43366000e+00
8.52879581e+04	1.00376963e-07	6.61827214e+01
2.68586387e+04	7.42251309e-08	0.00000000e+00
8.15183246e+04	2.88670157e-07	1.53248800e+01
1.60209424e+04	4.14198953e-07	0.00000000e+00
6.07853403e+04	8.32628272e-07	6.17743000e+00
8.01047120e+04	5.03115183e-07	1.21260900e+01
2.73298429e+04	2.36366492e-07	8.84190957e+03
3.76963351e+04	2.57287958e-07	3.24481638e+02
7.53926702e+04	2.78209424e-07	2.24850933e+01
7.63350785e+04	6.07722513e-07	8.47643000e+00
3.67539267e+04	9.37235602e-07	1.81826900e+01
6.83246073e+04	4.80732984e-08	9.10352063e+03
5.74869110e+04	3.82816754e-07	2.77017833e+01
7.35078534e+04	2.41596859e-07	3.52340467e+01
3.91099476e+04	1.52680628e-07	8.90018522e+03
4.09947644e+04	4.03738220e-07	6.00220760e+01
6.03141361e+04	1.47450262e-07	1.78921136e+02
3.76963351e+04	1.26528796e-07	9.11628481e+03
8.62303665e+04	8.90162304e-07	2.09907000e+00
7.20942408e+04	2.15445026e-07	5.10295833e+01
7.53926702e+04	2.15445026e-07	4.21577233e+01
1.13089005e+04	5.34497382e-07	0.00000000e+00
1.50785340e+04	9.68617801e-07	2.67908103e+02
9.00000000e+04	3.88047120e-07	1.58055500e+01
6.59685864e+04	3.77586387e-07	4.92064100e+01
3.15706806e+04	9.42465969e-07	3.09418200e+01
5.79581152e+04	2.15445026e-07	8.67017300e+01
4.80628272e+04	6.07722513e-07	3.86146500e+01
1.69633508e+04	1.73602094e-07	0.00000000e+00
2.68586387e+04	5.71109948e-07	1.23633028e+02
2.82722513e+03	8.64010471e-07	0.00000000e+00
7.91623037e+04	1.73602094e-07	3.47608840e+01
2.68586387e+04	6.23036649e-09	0.00000000e+00
8.24607330e+04	2.25905759e-07	2.61190300e+01
4.99476440e+04	3.20052356e-07	8.61917767e+01
4.24083770e+04	6.18183246e-07	5.78026000e+01
1.64921466e+04	6.60026178e-07	1.14011070e+03
3.76963351e+03	2.93900524e-07	0.00000000e+00
5.32460733e+04	7.38481675e-07	1.40197000e+01
5.32460733e+04	7.33251309e-07	1.43731500e+01
8.01047120e+04	4.76963351e-07	1.39001400e+01
1.27225131e+04	7.54172775e-07	3.30160350e+03
2.21465969e+04	2.41596859e-07	0.00000000e+00
6.59685864e+04	6.12952880e-07	1.29369800e+01
4.52356021e+04	9.58157068e-07	8.31504000e+00
7.53926702e+03	1.66910995e-08	0.00000000e+00
1.27225131e+04	2.72979058e-07	0.00000000e+00
7.77486911e+04	1.36989529e-07	6.85948960e+01
7.72774869e+04	5.03115183e-07	1.35861700e+01
8.29319372e+04	1.94523560e-07	3.61879900e+01
5.70157068e+04	6.86178010e-07	1.44545800e+01
5.51308901e+04	9.11083770e-07	5.81098000e+00
3.72251309e+04	6.44335079e-07	8.24423800e+01
7.02094241e+04	1.94523560e-07	4.50229640e+01
4.24083770e+04	7.54172775e-07	2.79325500e+01
4.75916230e+04	7.80324607e-07	1.65193300e+01
7.82198953e+04	1.73602094e-07	3.66802620e+01
7.86910995e+04	6.75717277e-07	5.76714000e+00
1.69633508e+04	3.20052356e-07	0.00000000e+00
7.06806283e+03	1.73602094e-07	0.00000000e+00
5.13612565e+04	6.70486911e-07	2.20226900e+01
7.11518325e+04	8.99162304e-08	1.78292991e+02
3.67539267e+04	6.23036649e-09	0.00000000e+00
8.24607330e+04	1.68371728e-07	3.12360980e+01
8.48167539e+04	2.72979058e-07	1.50908267e+01
2.68586387e+04	2.41596859e-07	8.83358323e+03
8.52879581e+04	2.93900524e-07	3.59534700e+01
7.91623037e+04	3.09591623e-07	1.44275467e+01
2.82722513e+03	7.28020942e-07	0.00000000e+00
9.00000000e+04	8.53549738e-07	2.14252000e+00
3.86387435e+04	1.00000000e-09	0.00000000e+00
3.01570681e+04	4.45581152e-07	1.49326930e+02
2.30890052e+04	7.80324607e-07	1.00056043e+02
3.67539267e+04	7.80324607e-07	4.11066400e+01
1.17801047e+04	7.90785340e-07	1.09013818e+03
1.60209424e+04	7.54172775e-07	4.44507144e+02
1.13089005e+04	6.12952880e-07	0.00000000e+00
8.43455497e+04	6.91408377e-07	4.47043000e+00
7.72774869e+04	3.77586387e-07	2.81152300e+01
7.63350785e+04	9.26774869e-07	2.44108000e+00
1.41361257e+04	4.40350785e-07	0.00000000e+00
3.43979058e+04	6.28643979e-07	4.28111000e+01
8.01047120e+03	4.19429319e-07	0.00000000e+00
