4.57068063e+04	2.19214660e-08	0.00000000e+00
3.29842932e+03	4.14198953e-07	0.00000000e+00
8.57591623e+04	5.81570681e-07	6.76875000e+00
2.87434555e+04	4.92654450e-07	1.70964432e+02
7.20942408e+04	1.47450262e-07	5.97113800e+01
7.11518325e+04	5.76340314e-07	1.21794700e+01
6.54973822e+04	6.37643979e-08	8.99556056e+03
2.78010471e+04	9.05853403e-07	6.27356800e+01
9.42408377e+02	8.06476440e-07	0.00000000e+00
8.01047120e+04	2.20675393e-07	1.32831214e+01
4.09947644e+04	1.05607330e-07	9.15249912e+03
5.74869110e+04	1.47450262e-07	1.39605699e+02
2.87434555e+04	5.33036649e-08	0.00000000e+00
8.01047120e+03	2.04984293e-07	0.00000000e+00
5.27748691e+04	4.66502618e-07	2.15350233e+01
5.70157068e+04	7.07099476e-07	1.30775400e+01
4.24083770e+03	1.00000000e-09	0.00000000e+00
7.25654450e+04	6.37643979e-08	1.56434404e+03
5.65445026e+04	2.19214660e-08	9.29310119e+03
3.34554974e+04	7.75094241e-07	2.05228933e+01
5.27748691e+04	2.88670157e-07	9.21198667e+01
3.34554974e+04	4.08968586e-07	9.26219600e+01
2.35602094e+03	7.33251309e-07	0.00000000e+00
5.27748691e+04	9.94769634e-07	4.57358000e+00
4.24083770e+03	4.97884817e-07	0.00000000e+00
9.42408377e+03	5.65879581e-07	0.00000000e+00
4.66492147e+04	7.48942408e-07	2.05895900e+01
1.46073298e+04	3.72356021e-07	0.00000000e+00
7.06806283e+04	1.99753927e-07	2.90672086e+01
6.50261780e+04	4.82193717e-07	2.69218100e+01
3.15706806e+04	8.69240838e-07	4.58792300e+01
1.60209424e+04	4.82193717e-07	7.98247597e+03
6.45549738e+04	4.56041885e-07	3.21784100e+01
1.69633508e+04	2.67748691e-07	0.00000000e+00
3.62827225e+04	9.94769634e-07	4.71001667e+00
7.06806283e+03	5.81570681e-07	0.00000000e+00
7.39790576e+04	3.09591623e-07	1.85319900e+01
4.99476440e+04	1.10837696e-07	8.88443581e+03
1.97905759e+04	6.23036649e-09	0.00000000e+00
4.71204188e+03	9.05853403e-07	0.00000000e+00
9.42408377e+03	4.66502618e-07	0.00000000e+00
3.91099476e+04	9.79078534e-07	1.18667200e+01
5.46596859e+04	7.22790576e-07	1.38862600e+01
4.19371728e+04	5.08345550e-07	2.43774600e+01
9.00000000e+04	9.11083770e-07	1.79273000e+00
6.87958115e+04	1.68371728e-07	7.37469280e+01
3.25130890e+04	2.99130890e-07	5.45828853e+02
3.67539267e+04	2.25905759e-07	1.74693387e+03
1.46073298e+04	5.44958115e-07	7.37017959e+03
5.08900524e+04	2.31136126e-07	1.01080417e+02
8.01047120e+03	3.23821990e-08	0.00000000e+00
4.90052356e+04	3.93277487e-07	2.93917420e+01
8.67015707e+04	4.35120419e-07	2.75945200e+00
7.58638743e+04	4.19429319e-07	2.30292000e+01
7.39790576e+04	5.55418848e-07	4.03007000e+00
2.21465969e+04	5.34497382e-07	2.98849882e+02
8.43455497e+04	6.49565445e-07	5.29990000e+00
3.29842932e+04	9.63387435e-07	2.34174200e+01
5.41884817e+04	1.47450262e-07	2.40054795e+02
5.74869110e+04	7.59403141e-07	1.00133900e+01
6.40837696e+04	2.31136126e-07	4.30227040e+01
3.29842932e+03	9.26774869e-07	0.00000000e+00
8.81151832e+04	5.08345550e-07	8.79021000e+00
2.82722513e+03	9.68617801e-07	0.00000000e+00
5.04188482e+04	6.12952880e-07	3.16426200e+01
2.92146597e+04	3.04361257e-07	3.09251123e+03
9.42408377e+03	2.10214660e-07	0.00000000e+00
8.34031414e+04	9.89539267e-07	0.00000000e+00
6.36125654e+04	3.30513089e-07	1.67784900e+01
3.25130890e+04	8.37858639e-07	1.62954033e+01
4.85340314e+04	3.14821990e-07	4.47200286e+01
6.59685864e+03	6.33874346e-07	0.00000000e+00
4.90052356e+04	1.42219895e-07	1.56910066e+03
5.89005236e+04	1.14607330e-08	9.30452336e+03
6.03141361e+04	1.42219895e-07	2.06065239e+02
7.30366492e+04	1.78832461e-07	4.66647460e+01
7.72774869e+04	3.20052356e-07	4.19204400e+01
3.39267016e+04	7.80324607e-07	1.88630700e+01
7.25654450e+04	3.23821990e-08	9.16587823e+03
3.20418848e+04	7.90785340e-07	6.61077900e+01
7.35078534e+04	9.37235602e-07	0.00000000e+00
5.98429319e+04	4.76963351e-07	1.26640367e+01
7.25654450e+04	6.02492147e-07	1.01048000e+01
7.02094241e+04	8.16937173e-07	4.46177000e+00
5.60732984e+04	3.35743455e-07	4.47133100e+01
7.86910995e+04	4.97884817e-07	4.45285000e+00
7.44502618e+04	1.42219895e-07	5.55829657e+01
5.65445026e+03	9.73848168e-07	0.00000000e+00
4.66492147e+04	4.56041885e-07	1.61212129e+01
8.57591623e+04	4.40350785e-07	1.36523900e+01
8.19895288e+04	7.22790576e-07	4.26948000e+00
8.01047120e+04	8.79701571e-07	2.56518000e+00
7.44502618e+04	7.33251309e-07	5.30901000e+00
5.32460733e+04	1.14607330e-08	9.31879188e+03
1.88481675e+03	6.80947644e-07	0.00000000e+00
3.39267016e+04	8.27397906e-07	4.34145700e+01
7.35078534e+04	1.68371728e-07	5.29719440e+01
8.15183246e+04	4.45581152e-07	5.29003667e+00
1.83769634e+04	6.75717277e-07	2.86474174e+02
1.03664921e+04	4.45581152e-07	0.00000000e+00
6.21989529e+04	6.18183246e-07	1.51906900e+01
2.54450262e+04	9.58157068e-07	6.80255000e+01
4.71204188e+03	3.56664921e-07	0.00000000e+00
1.64921466e+04	1.16068063e-07	0.00000000e+00
2.54450262e+04	7.64633508e-07	6.98648833e+01
5.74869110e+04	4.19429319e-07	1.27844600e+01
1.03664921e+04	8.46858639e-08	0.00000000e+00
2.45026178e+04	9.52926702e-07	2.77213467e+01
1.13089005e+04	7.80324607e-07	0.00000000e+00
5.79581152e+04	8.95392670e-07	5.41646000e+00
4.05235602e+04	6.02492147e-07	7.52535100e+01
7.77486911e+04	4.82193717e-07	1.48785400e+01
5.04188482e+04	7.85554974e-07	1.33475700e+01
5.27748691e+04	8.16937173e-07	9.99714000e+00
3.86387435e+04	9.32005236e-07	5.25272333e+00
9.89528796e+03	7.22790576e-07	0.00000000e+00
2.68586387e+04	4.45581152e-07	1.81528877e+02
2.49738220e+04	4.80732984e-08	0.00000000e+00
2.02617801e+04	2.10214660e-07	0.00000000e+00
8.71727749e+04	8.48319372e-07	2.34426000e+00
5.60732984e+04	1.78832461e-07	9.07173527e+01
3.58115183e+04	9.32005236e-07	2.04807600e+01
1.60209424e+04	7.69863874e-07	3.79437224e+02
8.29319372e+04	3.76125654e-08	8.97993946e+03
4.57068063e+04	2.99130890e-07	7.25313500e+01
5.46596859e+04	5.24036649e-07	1.32509567e+01
3.81675393e+04	5.08345550e-07	2.60051343e+01
8.48167539e+04	7.28020942e-07	3.82715000e+00
8.05759162e+04	5.39727749e-07	9.91106000e+00
4.71204188e+03	2.36366492e-07	0.00000000e+00
8.48167539e+04	1.57910995e-07	3.20653020e+01
7.39790576e+04	9.51465969e-08	1.22547232e+02
4.05235602e+04	9.73848168e-07	1.08492200e+01
5.98429319e+04	6.60026178e-07	1.40279200e+01
4.33507853e+04	8.69240838e-07	2.93241400e+00
5.51308901e+04	2.99130890e-07	4.05734100e+01
4.52356021e+04	5.71109948e-07	2.02566667e+01
1.31937173e+04	2.20675393e-07	0.00000000e+00
7.63350785e+04	4.61272251e-07	1.77094900e+01
7.53926702e+04	6.39104712e-07	7.62456000e+00
6.07853403e+04	4.76963351e-07	1.19717967e+01
1.60209424e+04	4.03738220e-07	0.00000000e+00
5.56020942e+04	6.54795812e-07	6.15831000e+00
4.80628272e+04	8.79701571e-07	9.98013000e+00
6.54973822e+04	1.99753927e-07	4.16719500e+01
5.98429319e+04	1.57910995e-07	1.13752401e+02
3.58115183e+04	3.67125654e-07	1.28625053e+02
1.36649215e+04	5.97261780e-07	5.04138953e+03
4.90052356e+04	8.99162304e-08	9.10327851e+03
2.16753927e+04	9.94769634e-07	1.12085270e+02
4.75916230e+04	6.60026178e-07	3.02300900e+01
2.49738220e+04	9.21544503e-07	3.04738867e+01
2.59162304e+04	2.62518325e-07	8.73867576e+03
7.11518325e+04	2.71518325e-08	9.20223359e+03
3.76963351e+04	8.90162304e-07	2.11854400e+01
2.63874346e+04	1.00376963e-07	0.00000000e+00
1.55497382e+04	7.28020942e-07	7.51200004e+02
1.64921466e+04	9.52926702e-07	1.83530720e+02
4.05235602e+04	9.68617801e-07	1.11318500e+01
4.85340314e+04	1.57910995e-07	4.69786084e+02
7.16230366e+04	9.94769634e-07	2.23107000e+00
6.78534031e+04	2.72979058e-07	2.15116780e+01
1.74345550e+04	9.37235602e-07	6.50329643e+01
6.59685864e+03	6.37643979e-08	0.00000000e+00
6.40837696e+04	8.11706806e-07	5.82176000e+00
3.53403141e+04	6.23036649e-09	0.00000000e+00
7.58638743e+04	2.19214660e-08	9.19631181e+03
7.06806283e+03	2.78209424e-07	0.00000000e+00
3.91099476e+04	8.64010471e-07	2.12647000e+01
7.91623037e+04	2.93900524e-07	1.63582333e+01
3.72251309e+04	7.54172775e-07	1.51972867e+01
7.06806283e+03	3.20052356e-07	0.00000000e+00
3.25130890e+04	1.16068063e-07	9.21571986e+03
2.87434555e+04	9.52926702e-07	4.22452300e+01
7.49214660e+04	6.07722513e-07	8.95866000e+00
3.62827225e+04	5.08345550e-07	7.60069867e+01
7.49214660e+04	5.34497382e-07	4.29890333e+00
8.71727749e+04	7.94554974e-08	6.74375082e+01
8.71727749e+04	7.69863874e-07	3.06502000e+00
2.16753927e+04	9.05853403e-07	3.78822880e+01
4.71204188e+03	1.14607330e-08	0.00000000e+00
8.01047120e+04	7.94554974e-08	8.88359507e+01
6.40837696e+04	9.11083770e-07	1.30887333e+00
7.68062827e+04	2.46827225e-07	2.80198133e+01
2.82722513e+04	9.89539267e-07	3.68679000e+01
4.00523560e+04	5.33036649e-08	9.29242353e+03
2.26178010e+04	5.50188482e-07	2.51009310e+02
3.62827225e+04	3.61895288e-07	1.77191186e+02
6.73821990e+04	8.64010471e-07	4.13489000e+00
7.49214660e+04	7.69863874e-07	4.51625000e+00
8.52879581e+04	7.80324607e-07	3.11472000e+00
1.08376963e+04	5.24036649e-07	0.00000000e+00
1.46073298e+04	8.53549738e-07	3.26833469e+02
1.27225131e+04	6.37643979e-08	0.00000000e+00
8.43455497e+04	8.99162304e-08	5.96965227e+01
7.91623037e+04	5.65879581e-07	9.21247000e+00
2.59162304e+04	3.09591623e-07	8.14353620e+03
3.48691099e+04	9.51465969e-08	9.24381478e+03
2.26178010e+04	7.64633508e-07	1.22344587e+02
1.97905759e+04	2.99130890e-07	0.00000000e+00
3.81675393e+04	3.35743455e-07	1.00523926e+02
1.08376963e+04	5.71109948e-07	0.00000000e+00
3.15706806e+04	2.52057592e-07	7.95380330e+03
2.63874346e+04	1.94523560e-07	9.07941146e+03
6.50261780e+04	5.81570681e-07	5.33554333e+00
3.81675393e+04	1.63141361e-07	8.84217855e+03
5.89005236e+04	9.16314136e-07	4.76140000e+00
7.96335079e+04	7.33251309e-07	4.42878000e+00
8.95287958e+03	1.26528796e-07	0.00000000e+00
5.93717277e+04	6.18183246e-07	3.57996800e+00
4.71204188e+03	5.44958115e-07	0.00000000e+00
5.18324607e+03	9.21544503e-07	0.00000000e+00
2.30890052e+04	6.49565445e-07	1.50380244e+02
7.16230366e+04	2.62518325e-07	3.17760567e+01
8.38743455e+04	6.54795812e-07	5.26767000e+00
5.08900524e+04	1.47450262e-07	4.05018578e+02
8.90575916e+04	2.57287958e-07	8.67318800e+00
7.96335079e+04	9.37235602e-07	2.14459000e+00
6.59685864e+03	1.10837696e-07	0.00000000e+00
2.35602094e+04	8.53549738e-07	5.83900200e+01
8.62303665e+04	3.25282723e-07	2.74554700e+01
1.74345550e+04	2.88670157e-07	0.00000000e+00
8.05759162e+04	2.78209424e-07	1.74712333e+01
3.34554974e+04	2.46827225e-07	4.82485423e+03
5.04188482e+04	6.75717277e-07	7.70212667e+00
8.01047120e+04	4.45581152e-07	5.59586667e+00
3.81675393e+04	4.82193717e-07	7.34396200e+01
3.95811518e+04	1.57910995e-07	8.81944541e+03
1.41361257e+03	4.28429319e-08	0.00000000e+00
1.36649215e+04	8.06476440e-07	7.87981239e+02
7.39790576e+04	8.22167539e-07	3.81881000e+00
2.87434555e+04	1.89293194e-07	9.04097985e+03
3.72251309e+04	8.84931937e-07	7.63044000e+00
5.18324607e+03	9.05853403e-07	0.00000000e+00
7.58638743e+04	7.54172775e-07	4.64358000e+00
1.60209424e+04	7.48942408e-07	4.69566209e+02
8.10471204e+04	6.07722513e-07	7.10075000e+00
5.23036649e+04	6.37643979e-08	9.19256083e+03
5.18324607e+03	6.02492147e-07	0.00000000e+00
3.34554974e+04	2.41596859e-07	7.21455159e+03
6.07853403e+04	8.48319372e-07	5.78493000e+00
8.29319372e+04	8.11706806e-07	0.00000000e+00
1.83769634e+04	9.89539267e-07	8.48553833e+01
4.28795812e+04	8.37858639e-07	1.76433900e+01
1.64921466e+04	4.97884817e-07	7.68283293e+03
8.48167539e+04	1.05607330e-07	6.00934171e+01
4.28795812e+04	9.11083770e-07	1.23227000e+01
2.96858639e+04	4.29890052e-07	1.26684817e+02
7.72774869e+04	4.28429319e-08	9.01729409e+03
1.79057592e+04	4.82193717e-07	7.44784052e+03
3.06282723e+04	6.28643979e-07	4.26045680e+01
4.19371728e+04	1.00376963e-07	9.16120988e+03
3.76963351e+03	7.38481675e-07	0.00000000e+00
4.75916230e+04	1.14607330e-08	0.00000000e+00
2.68586387e+04	2.71518325e-08	0.00000000e+00
1.46073298e+04	7.75094241e-07	7.00501154e+02
3.39267016e+04	3.14821990e-07	2.32978255e+02
6.97382199e+04	9.05853403e-07	3.24216000e+00
1.83769634e+04	7.94554974e-08	0.00000000e+00
5.23036649e+04	2.20675393e-07	1.01622076e+02
3.43979058e+04	6.54795812e-07	1.56429129e+01
6.26701571e+04	1.26528796e-07	1.90298050e+02
5.04188482e+04	2.71518325e-08	9.30395136e+03
1.36649215e+04	6.96638743e-07	4.66822336e+03
8.48167539e+03	9.26774869e-07	0.00000000e+00
4.19371728e+04	5.65879581e-07	1.68368880e+01
1.60209424e+04	6.60026178e-07	1.57008320e+03
5.74869110e+04	8.95392670e-07	5.53983000e+00
4.80628272e+04	7.94554974e-08	9.17082724e+03
7.63350785e+04	6.28643979e-07	7.70430000e+00
3.81675393e+04	6.02492147e-07	3.27084133e+01
2.82722513e+03	7.85554974e-07	0.00000000e+00
1.69633508e+04	7.48942408e-07	2.42194983e+02
5.65445026e+04	7.07099476e-07	1.34216400e+01
6.69109948e+04	8.48319372e-07	0.00000000e+00
3.43979058e+04	7.17560209e-07	2.53389633e+01
1.74345550e+04	6.86178010e-07	4.91805910e+02
1.27225131e+04	8.27397906e-07	1.29850695e+03
6.45549738e+04	8.16937173e-07	5.58589000e+00
7.77486911e+04	6.44335079e-07	6.81499000e+00
7.58638743e+04	4.28429319e-08	9.04309412e+03
2.92146597e+04	9.11083770e-07	4.97598300e+01
4.85340314e+04	4.71732984e-07	1.72777440e+01
2.78010471e+04	4.61272251e-07	1.65145053e+02
7.44502618e+04	1.31759162e-07	6.85535329e+01
8.57591623e+04	9.51465969e-08	7.34734743e+01
5.32460733e+04	7.90785340e-07	2.20891600e+00
8.95287958e+03	6.89947644e-08	0.00000000e+00
5.08900524e+04	5.76340314e-07	1.27011433e+01
6.54973822e+04	5.03115183e-07	7.92445667e+00
1.83769634e+04	6.54795812e-07	3.63464832e+02
8.95287958e+03	6.80947644e-07	0.00000000e+00
3.25130890e+04	5.03115183e-07	5.71178471e+01
2.68586387e+04	3.67125654e-07	1.08084273e+03
3.91099476e+04	5.50188482e-07	4.11292500e+01
4.85340314e+04	3.56664921e-07	4.17751520e+01
6.92670157e+04	5.85340314e-08	8.97139336e+03
6.03141361e+04	3.51434555e-07	1.75064160e+01
5.98429319e+04	1.26528796e-07	1.71786719e+02
4.75916230e+04	2.83439791e-07	7.07615729e+01
2.82722513e+04	7.42251309e-08	0.00000000e+00
8.15183246e+04	9.68617801e-07	1.84888000e+00
5.74869110e+04	2.04984293e-07	5.90846422e+01
5.70157068e+04	9.51465969e-08	8.77342942e+03
5.18324607e+03	2.46827225e-07	0.00000000e+00
3.76963351e+03	6.18183246e-07	0.00000000e+00
3.95811518e+04	1.78832461e-07	8.40293567e+03
5.79581152e+04	5.81570681e-07	7.82121000e+00
7.06806283e+03	7.07099476e-07	0.00000000e+00
1.64921466e+04	7.17560209e-07	5.31382317e+02
4.09947644e+04	1.73602094e-07	8.26046139e+03
7.39790576e+04	1.00000000e-06	2.04779000e+00
5.98429319e+04	6.18183246e-07	5.81241333e+00
3.25130890e+04	8.48319372e-07	4.57704200e+01
8.85863874e+04	8.69240838e-07	2.11352000e+00
1.79057592e+04	2.46827225e-07	0.00000000e+00
4.90052356e+04	5.76340314e-07	1.45614167e+01
2.82722513e+04	1.10837696e-07	0.00000000e+00
3.76963351e+04	8.74471204e-07	2.29505000e+01
5.27748691e+04	3.98507853e-07	3.46189200e+01
1.36649215e+04	2.52057592e-07	0.00000000e+00
6.73821990e+04	7.43712042e-07	6.71293000e+00
8.15183246e+04	4.87424084e-07	1.24343800e+01
5.08900524e+04	2.78209424e-07	7.44747040e+01
7.82198953e+04	7.28020942e-07	4.74152000e+00
2.49738220e+04	3.93277487e-07	1.41861067e+03
6.97382199e+04	7.28020942e-07	6.51502000e+00
2.02617801e+04	9.79078534e-07	5.64749667e+01
3.48691099e+04	7.75094241e-07	5.16741900e+01
4.47643979e+04	1.78832461e-07	6.12403024e+02
8.05759162e+04	5.71109948e-07	8.52230000e+00
4.47643979e+04	8.48319372e-07	1.45227500e+01
3.53403141e+04	9.52926702e-07	1.92457400e+01
2.12041885e+04	6.18183246e-07	3.37633832e+02
4.75916230e+04	4.29890052e-07	1.19120380e+02
5.65445026e+03	2.99130890e-07	0.00000000e+00
2.78010471e+04	5.92031414e-07	6.24424986e+01
5.70157068e+04	2.19214660e-08	9.29150382e+03
3.72251309e+04	3.88047120e-07	1.13811574e+02
6.07853403e+04	7.33251309e-07	9.51703000e+00
2.07329843e+04	1.63141361e-07	0.00000000e+00
5.74869110e+04	8.79701571e-07	1.97883667e+00
5.32460733e+04	1.21298429e-07	1.80242822e+03
6.03141361e+04	7.75094241e-07	2.71028667e+00
2.02617801e+04	5.55418848e-07	4.93649405e+02
8.52879581e+04	5.03115183e-07	9.95972000e+00
7.30366492e+04	9.89539267e-07	2.17763000e+00
7.02094241e+04	2.57287958e-07	3.63062067e+01
7.06806283e+04	8.27397906e-07	4.21072000e+00
2.16753927e+04	9.47696335e-07	4.94961633e+01
7.53926702e+04	5.29267016e-07	4.32760333e+00
7.44502618e+04	9.51465969e-08	9.88216846e+01
8.19895288e+04	8.64010471e-07	2.56069000e+00
1.64921466e+04	1.00000000e-06	8.21420440e+01
4.94764398e+04	3.77586387e-07	5.34064067e+01
2.02617801e+04	2.31136126e-07	0.00000000e+00
5.60732984e+04	1.00000000e-09	9.32481620e+03
2.02617801e+04	5.34497382e-07	8.67603099e+02
3.62827225e+04	9.00623037e-07	7.70594667e+00
6.17277487e+04	8.32628272e-07	5.92131000e+00
6.40837696e+04	3.20052356e-07	1.77726600e+01
2.16753927e+04	7.90785340e-07	7.65204720e+01
9.42408377e+02	5.34497382e-07	0.00000000e+00
5.93717277e+04	5.13575916e-07	3.08272600e+01
3.34554974e+04	7.42251309e-08	0.00000000e+00
1.64921466e+04	1.21298429e-07	0.00000000e+00
6.59685864e+03	3.61895288e-07	0.00000000e+00
7.86910995e+04	6.96638743e-07	5.29318000e+00
8.19895288e+04	8.43089005e-07	5.52238000e-01
4.14659686e+04	4.35120419e-07	4.37264940e+01
8.62303665e+04	1.31759162e-07	2.52085789e+01
1.03664921e+04	7.54172775e-07	0.00000000e+00
2.92146597e+04	8.16937173e-07	8.33511600e+01
8.57591623e+04	2.83439791e-07	1.32731633e+01
5.41884817e+04	7.38481675e-07	1.32547000e+01
4.90052356e+04	6.89947644e-08	9.20429326e+03
4.00523560e+04	4.14198953e-07	6.11421700e+01
2.45026178e+04	1.99753927e-07	9.08347112e+03
2.26178010e+04	8.74471204e-07	3.73636280e+01
2.35602094e+04	8.79701571e-07	1.47807860e+02
6.17277487e+04	3.20052356e-07	3.44213800e+01
6.50261780e+04	4.08968586e-07	4.20363700e+01
2.59162304e+04	6.23036649e-09	0.00000000e+00
4.94764398e+04	8.99162304e-08	9.09472342e+03
3.20418848e+04	1.10837696e-07	9.22699422e+03
8.48167539e+04	8.46858639e-08	8.27514878e+01
4.85340314e+04	8.53549738e-07	3.66374333e+00
7.96335079e+04	7.64633508e-07	3.92186000e+00
8.15183246e+04	3.04361257e-07	1.35022067e+01
4.24083770e+04	3.14821990e-07	9.04844857e+01
1.31937173e+04	3.67125654e-07	0.00000000e+00
3.76963351e+04	5.85340314e-08	0.00000000e+00
5.46596859e+04	3.67125654e-07	3.82930400e+01
6.50261780e+04	7.64633508e-07	6.80782000e+00
2.68586387e+04	2.99130890e-07	8.11680000e+03
8.43455497e+04	4.03738220e-07	1.77923100e+01
6.83246073e+04	6.44335079e-07	1.00004500e+01
1.69633508e+04	8.64010471e-07	1.71230850e+02
1.13089005e+04	1.42219895e-07	0.00000000e+00
5.32460733e+04	1.00376963e-07	8.88751961e+03
6.87958115e+04	7.38481675e-07	6.47629000e+00
4.28795812e+04	1.05607330e-07	9.12173570e+03
2.78010471e+04	8.69240838e-07	7.67417100e+01
4.75916230e+04	3.30513089e-07	5.85781900e+01
5.23036649e+04	5.76340314e-07	1.15066400e+01
3.86387435e+04	5.97261780e-07	3.21196333e+01
3.10994764e+04	8.84931937e-07	4.47338800e+01
6.03141361e+04	6.23036649e-09	9.30919032e+03
6.31413613e+04	6.91408377e-07	1.02438300e+01
7.96335079e+04	9.73848168e-07	1.91065000e+00
1.08376963e+04	3.93277487e-07	0.00000000e+00
8.15183246e+04	9.94769634e-07	1.70741000e+00
3.10994764e+04	9.37235602e-07	3.37252600e+01
2.92146597e+04	2.88670157e-07	7.23387008e+03
8.10471204e+04	7.01869110e-07	4.78090000e+00
3.58115183e+04	5.39727749e-07	6.43817267e+01
2.26178010e+04	9.42465969e-07	2.51997260e+01
1.97905759e+04	5.71109948e-07	5.91593269e+02
7.96335079e+04	5.44958115e-07	1.00134500e+01
1.41361257e+04	9.51465969e-08	0.00000000e+00
8.24607330e+04	4.71732984e-07	1.30210800e+01
6.92670157e+04	6.70486911e-07	2.85991000e+00
6.97382199e+04	9.79078534e-07	2.49511000e+00
0.00000000e+00	7.90785340e-07	0.00000000e+00
8.10471204e+04	4.82193717e-07	4.40158333e+00
7.30366492e+04	8.84931937e-07	3.12770000e+00
7.82198953e+04	3.88047120e-07	2.52180200e+01
3.29842932e+04	7.90785340e-07	5.89646700e+01
4.33507853e+04	5.97261780e-07	2.04368400e+01
5.27748691e+04	9.84308901e-07	4.78239000e+00
2.68586387e+04	9.32005236e-07	0.00000000e+00
9.42408377e+03	4.61272251e-07	0.00000000e+00
3.39267016e+04	9.11083770e-07	2.78439500e+01
4.61780105e+04	3.14821990e-07	8.02240860e+01
3.06282723e+04	7.01869110e-07	4.49142300e+01
3.10994764e+04	3.04361257e-07	8.51271647e+02
6.87958115e+04	2.67748691e-07	2.13763400e+01
1.60209424e+04	4.92654450e-07	7.88736139e+03
1.22513089e+04	8.27397906e-07	1.43360502e+03
8.48167539e+03	7.80324607e-07	0.00000000e+00
4.09947644e+04	3.46204188e-07	7.55780900e+01
8.29319372e+04	4.28429319e-08	8.80971026e+03
2.21465969e+04	6.02492147e-07	2.10734947e+02
2.82722513e+04	3.82816754e-07	3.95250067e+02
4.24083770e+03	7.42251309e-08	0.00000000e+00
6.78534031e+04	5.29267016e-07	2.03241000e+00
8.43455497e+04	9.16314136e-07	2.02697000e+00
3.53403141e+04	6.70486911e-07	8.72779300e+01
5.84293194e+04	8.53549738e-07	6.32062000e+00
3.58115183e+04	2.19214660e-08	0.00000000e+00
2.02617801e+04	2.19214660e-08	0.00000000e+00
4.33507853e+04	3.14821990e-07	1.12076892e+02
5.84293194e+04	2.36366492e-07	6.25266060e+01
8.24607330e+04	2.88670157e-07	8.81160200e+00
5.74869110e+04	4.03738220e-07	2.37763633e+01
1.03664921e+04	6.44335079e-07	0.00000000e+00
4.71204188e+03	5.76340314e-07	0.00000000e+00
8.15183246e+04	3.56664921e-07	2.68625400e+01
8.95287958e+04	4.97884817e-07	8.82572000e+00
4.09947644e+04	4.82193717e-07	2.29987357e+01
3.72251309e+04	4.82193717e-07	4.94084160e+01
4.85340314e+04	1.16068063e-07	8.87799716e+03
8.05759162e+04	6.12952880e-07	7.05781000e+00
6.83246073e+04	1.52680628e-07	5.63660844e+01
2.92146597e+04	2.10214660e-07	8.91670301e+03
5.27748691e+04	5.86801047e-07	3.10228400e+01
7.82198953e+04	8.53549738e-07	2.96777000e+00
5.98429319e+04	8.11706806e-07	2.36372667e+00
6.78534031e+04	3.09591623e-07	1.54869100e+01
4.24083770e+03	5.76340314e-07	0.00000000e+00
7.20942408e+04	4.61272251e-07	7.27112667e+00
7.53926702e+04	1.10837696e-07	6.64276273e+01
5.51308901e+04	6.12952880e-07	7.84916333e+00
2.78010471e+04	2.99130890e-07	7.73876558e+03
8.38743455e+04	5.85340314e-08	1.49743285e+02
1.31937173e+04	7.96015707e-07	1.54210934e+03
6.40837696e+04	1.57910995e-07	7.36212633e+01
5.51308901e+04	3.88047120e-07	1.88585880e+01
3.15706806e+04	8.58780105e-07	4.85170700e+01
5.18324607e+03	7.69863874e-07	0.00000000e+00
8.38743455e+04	4.14198953e-07	1.70346900e+01
7.39790576e+04	8.69240838e-07	3.21114000e+00
7.16230366e+04	3.23821990e-08	9.17350291e+03
1.41361257e+04	8.48319372e-07	4.21179536e+02
6.54973822e+04	4.28429319e-08	9.16833764e+03
7.72774869e+04	4.24659686e-07	2.09674800e+01
3.20418848e+04	8.06476440e-07	6.07255400e+01
1.31937173e+04	6.23413613e-07	1.51293373e+03
2.35602094e+03	4.76963351e-07	0.00000000e+00
4.24083770e+03	4.35120419e-07	0.00000000e+00
2.21465969e+04	8.11706806e-07	1.00458543e+02
8.10471204e+04	8.58780105e-07	2.67684000e+00
5.65445026e+04	3.09591623e-07	5.45930700e+01
6.54973822e+04	9.63387435e-07	3.04008000e+00
2.45026178e+04	6.54795812e-07	7.47535243e+01
8.15183246e+04	8.27397906e-07	2.94746000e+00
1.93193717e+04	7.07099476e-07	2.69341182e+02
1.88481675e+04	9.89539267e-07	3.21491757e+01
3.72251309e+04	2.10214660e-07	5.64765427e+03
2.21465969e+04	9.79078534e-07	1.11210030e+02
3.48691099e+04	1.00000000e-09	0.00000000e+00
5.93717277e+04	7.54172775e-07	9.28925000e+00
4.24083770e+04	3.76125654e-08	0.00000000e+00
3.81675393e+04	6.33874346e-07	7.93267800e+01
7.53926702e+03	9.79078534e-07	0.00000000e+00
5.84293194e+04	7.33251309e-07	1.07223900e+01
6.83246073e+04	8.01246073e-07	5.10345000e+00
1.31937173e+04	9.73848168e-07	3.24205822e+02
7.25654450e+04	1.57910995e-07	4.78291871e+01
4.71204188e+02	1.63141361e-07	0.00000000e+00
4.85340314e+04	4.08968586e-07	1.93399929e+01
3.20418848e+04	1.89293194e-07	8.92402758e+03
3.29842932e+04	1.66910995e-08	0.00000000e+00
7.68062827e+04	4.35120419e-07	2.01319300e+01
3.95811518e+04	1.84062827e-07	8.15859899e+03
6.59685864e+04	9.21544503e-07	1.17026333e+00
3.67539267e+04	8.27397906e-07	3.21183200e+01
8.76439791e+04	8.22167539e-07	2.52079000e+00
7.11518325e+04	4.28429319e-08	9.10950925e+03
0.00000000e+00	9.89539267e-07	0.00000000e+00
4.75916230e+04	3.56664921e-07	7.60450600e+01
8.85863874e+04	8.11706806e-07	2.54827000e+00
6.97382199e+04	1.05607330e-07	1.13047110e+02
5.23036649e+04	9.84308901e-07	4.89867000e+00
5.56020942e+04	4.61272251e-07	1.09632200e+01
7.20942408e+04	1.14607330e-08	9.25505424e+03
7.44502618e+04	1.05607330e-07	8.34135082e+01
2.82722513e+04	6.33874346e-07	5.95703460e+01
1.50785340e+04	8.79701571e-07	3.03463358e+02
3.43979058e+04	9.94769634e-07	5.68181000e+00
7.06806283e+03	6.75717277e-07	0.00000000e+00
4.71204188e+02	1.16068063e-07	0.00000000e+00
8.01047120e+03	5.50188482e-07	0.00000000e+00
5.65445026e+04	2.46827225e-07	4.59992171e+01
3.95811518e+04	2.71518325e-08	0.00000000e+00
7.02094241e+04	9.84308901e-07	2.41605000e+00
9.89528796e+03	3.23821990e-08	0.00000000e+00
8.05759162e+04	4.92654450e-07	1.25578700e+01
3.34554974e+04	3.61895288e-07	1.67791690e+02
4.94764398e+04	7.90785340e-07	1.38276200e+01
1.41361257e+04	3.76125654e-08	0.00000000e+00
2.30890052e+04	2.78209424e-07	8.82408443e+03
5.79581152e+04	2.10214660e-07	4.26155882e+01
7.68062827e+04	4.45581152e-07	1.89554700e+01
9.89528796e+03	4.76963351e-07	0.00000000e+00
7.39790576e+04	6.49565445e-07	7.70286000e+00
3.01570681e+04	6.28643979e-07	4.56915420e+01
2.16753927e+04	5.39727749e-07	3.34486312e+02
0.00000000e+00	4.28429319e-08	0.00000000e+00
2.02617801e+04	8.64010471e-07	3.25513070e+02
5.18324607e+04	7.69863874e-07	1.31661300e+01
1.31937173e+04	1.66910995e-08	0.00000000e+00
6.12565445e+04	7.64633508e-07	2.70935667e+00
6.59685864e+04	4.28429319e-08	9.16416213e+03
1.79057592e+04	7.42251309e-08	0.00000000e+00
7.82198953e+04	2.78209424e-07	1.95270233e+01
4.47643979e+04	6.91408377e-07	3.18813000e+01
1.22513089e+04	2.19214660e-08	0.00000000e+00
6.87958115e+04	9.32005236e-07	3.04313000e+00
6.54973822e+04	6.33874346e-07	1.19533500e+01
3.95811518e+04	4.45581152e-07	4.96946360e+01
5.13612565e+04	5.33036649e-08	9.23867997e+03
4.90052356e+04	8.37858639e-07	1.14168400e+01
9.00000000e+04	6.23036649e-09	9.19244247e+03
6.78534031e+04	9.21544503e-07	3.26782000e+00
4.94764398e+04	8.69240838e-07	9.58496000e+00
7.30366492e+04	5.71109948e-07	3.88316000e+00
1.17801047e+04	1.94523560e-07	0.00000000e+00
1.69633508e+04	6.33874346e-07	1.03035811e+03
7.16230366e+04	6.39104712e-07	1.79239600e+00
5.08900524e+04	8.37858639e-07	1.01617700e+01
4.85340314e+04	9.73848168e-07	6.29224000e+00
4.75916230e+04	2.19214660e-08	0.00000000e+00
6.97382199e+04	8.32628272e-07	4.27028000e+00
2.68586387e+04	9.47696335e-07	5.74242600e+01
7.72774869e+04	6.86178010e-07	5.81083000e+00
8.10471204e+04	8.37858639e-07	9.63870000e-01
2.87434555e+04	9.58157068e-07	4.10364100e+01
1.08376963e+04	2.20675393e-07	0.00000000e+00
4.19371728e+04	2.36366492e-07	1.96321028e+02
1.13089005e+04	5.03115183e-07	0.00000000e+00
7.72774869e+04	7.85554974e-07	3.92209000e+00
3.91099476e+04	3.82816754e-07	6.59416843e+01
6.12565445e+04	8.58780105e-07	5.42589000e+00
3.15706806e+04	6.12952880e-07	6.86695833e+01
5.13612565e+04	3.56664921e-07	5.42495000e+01
1.27225131e+04	6.02492147e-07	0.00000000e+00
8.57591623e+04	9.68617801e-07	1.66883000e+00
2.54450262e+04	4.35120419e-07	4.11622246e+02
3.48691099e+04	4.71732984e-07	1.22056313e+02
9.42408377e+03	9.84308901e-07	0.00000000e+00
5.70157068e+04	2.36366492e-07	5.04399986e+01
3.62827225e+04	1.00000000e-06	1.36975700e+01
4.00523560e+04	3.72356021e-07	9.06761780e+01
6.73821990e+04	5.92031414e-07	1.33877500e+01
3.91099476e+04	6.33874346e-07	7.20685800e+01
5.27748691e+04	4.97884817e-07	5.14787000e+01
6.97382199e+04	3.67125654e-07	1.49342167e+01
6.83246073e+04	5.81570681e-07	1.34787500e+01
6.92670157e+04	3.23821990e-08	9.19082680e+03
2.82722513e+04	6.23413613e-07	6.40283900e+01
5.65445026e+04	3.04361257e-07	2.45956014e+01
2.02617801e+04	4.08968586e-07	7.91207269e+03
4.05235602e+04	5.50188482e-07	3.55449033e+01
3.48691099e+04	6.23036649e-09	0.00000000e+00
8.10471204e+04	7.17560209e-07	4.49427000e+00
6.31413613e+04	8.79701571e-07	4.59742000e+00
7.58638743e+04	2.83439791e-07	2.09572867e+01
5.23036649e+04	8.84931937e-07	7.55674000e+00
5.13612565e+04	2.19214660e-08	9.30929393e+03
2.63874346e+04	9.58157068e-07	1.95865267e+01
8.57591623e+04	9.79078534e-07	1.61615000e+00
2.92146597e+04	3.23821990e-08	0.00000000e+00
7.77486911e+04	3.61895288e-07	3.05382100e+01
7.16230366e+04	7.28020942e-07	6.04258000e+00
4.52356021e+04	6.23413613e-07	1.49850900e+01
6.17277487e+04	1.14607330e-08	9.29589707e+03
3.86387435e+04	5.85340314e-08	0.00000000e+00
6.07853403e+04	2.10214660e-07	7.29864080e+01
2.45026178e+04	7.80324607e-07	7.55379200e+01
6.64397906e+04	9.51465969e-08	1.92277163e+02
4.09947644e+04	1.94523560e-07	1.23067934e+03
4.71204188e+03	7.28020942e-07	0.00000000e+00
1.13089005e+04	9.05853403e-07	1.08229205e+03
6.92670157e+04	5.50188482e-07	1.51140500e+01
2.54450262e+04	6.75717277e-07	1.23991310e+02
5.65445026e+03	2.67748691e-07	0.00000000e+00
8.15183246e+04	2.52057592e-07	1.26767360e+01
6.97382199e+04	2.41596859e-07	4.38743767e+01
4.24083770e+04	1.78832461e-07	2.08609798e+03
3.29842932e+03	1.73602094e-07	0.00000000e+00
5.79581152e+04	9.79078534e-07	1.28542000e+00
5.74869110e+04	3.51434555e-07	2.12105180e+01
7.16230366e+04	9.42465969e-07	0.00000000e+00
1.08376963e+04	1.47450262e-07	0.00000000e+00
5.56020942e+04	7.54172775e-07	3.81351667e+00
7.30366492e+04	7.43712042e-07	5.36733000e+00
4.05235602e+04	7.07099476e-07	1.42376633e+01
3.67539267e+04	5.08345550e-07	4.30391320e+01
6.12565445e+03	9.05853403e-07	0.00000000e+00
3.29842932e+03	5.29267016e-07	0.00000000e+00
8.95287958e+03	1.52680628e-07	0.00000000e+00
1.31937173e+04	3.25282723e-07	0.00000000e+00
8.52879581e+04	5.85340314e-08	1.44011829e+02
6.17277487e+04	7.59403141e-07	2.71206333e+00
7.53926702e+04	6.07722513e-07	8.79241000e+00
6.45549738e+04	8.22167539e-07	5.46765000e+00
4.05235602e+04	4.66502618e-07	2.11034467e+01
6.31413613e+04	8.84931937e-07	4.50411000e+00
2.87434555e+04	9.63387435e-07	3.98788600e+01
2.63874346e+04	9.11083770e-07	7.58032800e+01
8.05759162e+04	3.25282723e-07	3.47870400e+01
6.03141361e+04	1.84062827e-07	6.39898678e+01
3.58115183e+04	8.43089005e-07	3.25697600e+01
5.32460733e+04	5.65879581e-07	3.36891400e+01
8.52879581e+04	9.63387435e-07	1.71298000e+00
4.33507853e+04	7.22790576e-07	3.03772600e+01
3.06282723e+04	4.24659686e-07	1.72277244e+02
1.31937173e+04	1.00000000e-06	4.49235267e+02
1.64921466e+04	4.03738220e-07	0.00000000e+00
4.99476440e+04	7.48942408e-07	1.64066000e+01
6.78534031e+04	3.67125654e-07	4.77338000e+01
8.52879581e+04	5.97261780e-07	0.00000000e+00
5.70157068e+04	1.94523560e-07	6.04137527e+01
5.65445026e+04	4.19429319e-07	6.54926000e+01
1.36649215e+04	7.28020942e-07	3.22424355e+03
1.69633508e+04	3.35743455e-07	0.00000000e+00
7.63350785e+04	3.77586387e-07	2.93138400e+01
6.73821990e+04	6.39104712e-07	1.06886000e+01
4.66492147e+04	8.16937173e-07	1.47579600e+01
4.61780105e+04	6.23036649e-09	0.00000000e+00
6.03141361e+04	6.89947644e-08	9.05208436e+03
4.71204188e+04	4.35120419e-07	4.19567333e+01
1.74345550e+04	7.94554974e-08	0.00000000e+00
4.57068063e+04	4.82193717e-07	2.04660160e+01
7.06806283e+03	7.90785340e-07	0.00000000e+00
4.66492147e+04	5.76340314e-07	1.74876200e+01
4.24083770e+04	3.25282723e-07	7.97831414e+01
3.86387435e+04	9.26774869e-07	0.00000000e+00
2.07329843e+04	5.65879581e-07	4.16467760e+02
4.80628272e+04	9.68617801e-07	6.62493000e+00
3.15706806e+04	3.04361257e-07	6.85147699e+02
1.88481675e+04	7.59403141e-07	1.45039549e+02
7.72774869e+04	8.01246073e-07	1.23798333e+00
3.86387435e+04	2.31136126e-07	4.95081573e+02
3.53403141e+04	1.31759162e-07	9.13567588e+03
1.88481675e+04	6.33874346e-07	3.81664561e+02
5.04188482e+04	6.89947644e-08	9.19073022e+03
2.87434555e+04	3.09591623e-07	3.39229639e+03
6.17277487e+04	7.33251309e-07	3.04960667e+00
9.42408377e+02	7.17560209e-07	0.00000000e+00
1.03664921e+04	2.93900524e-07	0.00000000e+00
7.30366492e+04	9.11083770e-07	9.53383333e-01
8.38743455e+04	7.17560209e-07	4.10131000e+00
2.26178010e+04	2.83439791e-07	8.82095936e+03
3.01570681e+04	4.19429319e-07	2.03925991e+02
5.46596859e+04	9.52926702e-07	4.98092000e+00
8.67015707e+04	6.86178010e-07	4.24127000e+00
3.48691099e+04	7.28020942e-07	6.67189300e+01
3.43979058e+04	1.21298429e-07	9.18765998e+03
3.76963351e+04	2.10214660e-07	3.03781798e+03
2.07329843e+04	6.86178010e-07	2.08275910e+02
6.12565445e+03	8.84931937e-07	0.00000000e+00
2.82722513e+04	7.28020942e-07	3.26005960e+01
7.72774869e+04	1.94523560e-07	2.92830560e+01
5.08900524e+04	2.88670157e-07	6.60061160e+01
4.19371728e+04	3.88047120e-07	6.10798500e+01
6.92670157e+04	9.16314136e-07	0.00000000e+00
4.52356021e+04	4.97884817e-07	3.20136833e+01
7.30366492e+04	2.72979058e-07	1.60086580e+01
1.46073298e+04	1.26528796e-07	0.00000000e+00
5.13612565e+04	1.31759162e-07	1.46640850e+03
7.16230366e+04	6.33874346e-07	3.05939667e+00
7.02094241e+04	4.24659686e-07	9.93298667e+00
6.54973822e+04	2.88670157e-07	3.57316400e+01
7.20942408e+04	5.44958115e-07	1.36615800e+01
3.53403141e+04	8.99162304e-08	9.25105816e+03
6.59685864e+04	8.22167539e-07	5.15271000e+00
9.00000000e+04	7.80324607e-07	2.73205000e+00
2.68586387e+04	4.66502618e-07	1.61622949e+02
4.38219895e+04	4.76963351e-07	2.52041900e+01
6.78534031e+04	1.21298429e-07	8.46692338e+01
4.24083770e+04	2.62518325e-07	1.51685040e+02
6.21989529e+04	4.19429319e-07	4.60972000e+01
4.61780105e+04	9.42465969e-07	2.81146000e+00
2.59162304e+04	7.64633508e-07	6.42686700e+01
7.44502618e+04	9.63387435e-07	2.27947000e+00
2.82722513e+03	2.46827225e-07	0.00000000e+00
8.01047120e+04	1.36989529e-07	3.27683600e+01
5.89005236e+04	7.85554974e-07	8.28523000e+00
7.30366492e+04	1.14607330e-08	9.25106408e+03
6.45549738e+04	6.02492147e-07	4.91480667e+00
5.08900524e+04	5.18806283e-07	5.19087500e+01
7.20942408e+04	8.16937173e-07	4.16439000e+00
1.17801047e+04	3.40973822e-07	0.00000000e+00
5.18324607e+04	9.11083770e-07	6.91430000e+00
2.45026178e+04	1.68371728e-07	0.00000000e+00
6.03141361e+04	6.49565445e-07	1.43943200e+01
5.08900524e+04	9.00623037e-07	7.64064000e+00
6.17277487e+04	1.00000000e-06	3.04551000e+00
8.67015707e+04	8.84931937e-07	2.10773000e+00
7.02094241e+04	8.06476440e-07	4.64855000e+00
3.76963351e+04	3.14821990e-07	1.19821995e+02
3.10994764e+04	4.28429319e-08	0.00000000e+00
5.65445026e+03	3.56664921e-07	0.00000000e+00
2.78010471e+04	3.09591623e-07	6.98919737e+03
3.76963351e+04	6.44335079e-07	7.84576500e+01
2.21465969e+04	5.50188482e-07	3.80260411e+02
7.39790576e+04	2.25905759e-07	4.05837900e+01
7.02094241e+04	8.27397906e-07	4.28400000e+00
8.24607330e+04	5.13575916e-07	1.05004200e+01
8.43455497e+04	1.99753927e-07	1.90424000e+01
3.34554974e+04	5.03115183e-07	1.15702423e+02
1.79057592e+04	2.20675393e-07	0.00000000e+00
5.89005236e+04	7.94554974e-08	8.97275127e+03
2.82722513e+03	4.29890052e-07	0.00000000e+00
1.27225131e+04	4.80732984e-08	0.00000000e+00
1.27225131e+04	3.40973822e-07	0.00000000e+00
4.38219895e+04	3.98507853e-07	4.60252380e+01
3.39267016e+04	8.16937173e-07	4.59082600e+01
5.98429319e+04	5.13575916e-07	2.99932500e+01
1.17801047e+04	7.54172775e-07	1.31197363e+03
2.02617801e+04	2.04984293e-07	0.00000000e+00
2.78010471e+04	3.25282723e-07	3.09512406e+03
2.45026178e+04	7.07099476e-07	7.23876680e+01
3.29842932e+03	5.71109948e-07	0.00000000e+00
1.50785340e+04	8.16937173e-07	3.68105963e+02
6.64397906e+04	2.04984293e-07	5.06418820e+01
7.30366492e+04	5.55418848e-07	1.24429800e+01
2.26178010e+04	1.31759162e-07	0.00000000e+00
3.10994764e+04	8.95392670e-07	1.41960267e+01
6.73821990e+04	5.29267016e-07	1.84329900e+01
1.69633508e+04	2.62518325e-07	0.00000000e+00
1.31937173e+04	4.03738220e-07	0.00000000e+00
5.84293194e+04	1.84062827e-07	7.70891256e+01
8.85863874e+04	8.58780105e-07	2.18557000e+00
8.24607330e+04	7.38481675e-07	3.96111000e+00
4.85340314e+04	8.11706806e-07	1.33278100e+01
4.99476440e+04	7.33251309e-07	5.95170667e+00
8.71727749e+04	8.01246073e-07	2.74363000e+00
4.28795812e+04	9.42465969e-07	1.05657000e+01
1.46073298e+04	3.61895288e-07	0.00000000e+00
3.10994764e+04	1.94523560e-07	8.93016555e+03
5.27748691e+04	3.72356021e-07	4.24133633e+01
2.63874346e+04	2.10214660e-07	9.02615762e+03
2.26178010e+04	4.28429319e-08	0.00000000e+00
4.33507853e+04	5.92031414e-07	2.10726433e+01
1.46073298e+04	7.28020942e-07	1.31859476e+03
9.00000000e+04	4.66502618e-07	1.01905800e+01
4.85340314e+04	1.73602094e-07	2.55388827e+02
7.72774869e+04	1.78832461e-07	2.57111571e+01
4.42931937e+04	7.48942408e-07	2.46329900e+01
7.96335079e+04	4.28429319e-08	8.96170363e+03
6.59685864e+04	6.65256545e-07	1.01053500e+01
7.11518325e+04	2.20675393e-07	5.07992933e+01
2.40314136e+04	5.92031414e-07	1.08079669e+02
7.11518325e+04	4.71732984e-07	2.10576500e+01
5.51308901e+04	8.95392670e-07	2.07992000e+00
2.40314136e+04	8.22167539e-07	6.42048800e+01
1.41361257e+03	5.34497382e-07	0.00000000e+00
8.48167539e+03	9.89539267e-07	0.00000000e+00
4.61780105e+04	8.37858639e-07	1.38099000e+01
9.89528796e+03	1.14607330e-08	0.00000000e+00
2.02617801e+04	2.88670157e-07	0.00000000e+00
8.05759162e+04	1.89293194e-07	4.34903633e+01
7.06806283e+03	7.17560209e-07	0.00000000e+00
7.20942408e+04	6.33874346e-07	2.99914333e+00
3.86387435e+04	8.16937173e-07	2.82307100e+01
1.41361257e+03	2.15445026e-07	0.00000000e+00
7.30366492e+04	9.84308901e-07	2.21655000e+00
5.32460733e+04	9.37235602e-07	0.00000000e+00
5.13612565e+04	8.32628272e-07	1.01182500e+01
5.84293194e+04	7.01869110e-07	1.24131400e+01
7.68062827e+04	1.00376963e-07	7.91975845e+01
4.85340314e+04	7.07099476e-07	2.21893400e+01
6.69109948e+04	6.37643979e-08	8.95654162e+03
4.71204188e+02	6.39104712e-07	0.00000000e+00
1.13089005e+04	1.52680628e-07	0.00000000e+00
6.73821990e+04	9.26774869e-07	1.08983667e+00
9.42408377e+03	5.44958115e-07	0.00000000e+00
6.92670157e+04	1.00000000e-06	2.35166000e+00
2.92146597e+04	6.02492147e-07	1.05686657e+02
1.88481675e+03	6.89947644e-08	0.00000000e+00
4.71204188e+02	7.85554974e-07	0.00000000e+00
2.40314136e+04	1.00376963e-07	0.00000000e+00
4.05235602e+04	4.82193717e-07	5.60754300e+01
1.74345550e+04	3.20052356e-07	0.00000000e+00
5.32460733e+04	6.96638743e-07	3.46130200e+00
3.48691099e+04	6.37643979e-08	0.00000000e+00
1.69633508e+04	2.46827225e-07	0.00000000e+00
6.59685864e+03	7.22790576e-07	0.00000000e+00
5.60732984e+04	2.71518325e-08	9.28220742e+03
6.92670157e+04	7.48942408e-07	6.07917000e+00
4.71204188e+02	5.18806283e-07	0.00000000e+00
2.35602094e+04	9.68617801e-07	3.01193567e+01
2.49738220e+04	8.99162304e-08	0.00000000e+00
4.47643979e+04	4.82193717e-07	2.22646400e+01
4.24083770e+04	8.16937173e-07	4.09395600e+00
5.32460733e+04	1.66910995e-08	9.31179098e+03
2.21465969e+04	7.33251309e-07	1.00906950e+02
6.31413613e+04	6.44335079e-07	1.27635000e+01
2.73298429e+04	4.61272251e-07	1.52352425e+02
1.88481675e+04	2.83439791e-07	0.00000000e+00
6.92670157e+04	8.48319372e-07	4.08750000e+00
7.53926702e+04	6.65256545e-07	0.00000000e+00
5.27748691e+04	1.63141361e-07	1.57300536e+02
4.75916230e+04	2.71518325e-08	9.31073409e+03
6.59685864e+03	7.54172775e-07	0.00000000e+00
1.60209424e+04	9.00623037e-07	1.82594492e+02
8.52879581e+04	3.72356021e-07	2.07903000e+01
1.79057592e+04	4.08968586e-07	8.39241512e+03
6.64397906e+04	4.80732984e-08	9.12668824e+03
7.11518325e+04	4.50811518e-07	8.08487333e+00
8.01047120e+03	4.66502618e-07	0.00000000e+00
8.05759162e+04	9.89539267e-07	1.77621000e+00
6.36125654e+04	4.66502618e-07	1.08565733e+01
5.65445026e+03	9.51465969e-08	0.00000000e+00
2.82722513e+03	6.60026178e-07	0.00000000e+00
8.05759162e+04	4.80732984e-08	8.56755273e+03
1.55497382e+04	6.49565445e-07	3.02937904e+03
4.09947644e+04	1.66910995e-08	0.00000000e+00
3.01570681e+04	2.19214660e-08	0.00000000e+00
6.64397906e+04	2.19214660e-08	9.24904917e+03
8.57591623e+04	8.84931937e-07	2.15971000e+00
7.06806283e+03	7.75094241e-07	0.00000000e+00
6.83246073e+04	5.39727749e-07	5.63421000e+00
8.34031414e+04	8.53549738e-07	2.55106000e+00
4.14659686e+04	4.50811518e-07	6.44444933e+01
6.07853403e+04	7.01869110e-07	1.09725200e+01
4.09947644e+04	4.14198953e-07	5.47890000e+01
3.10994764e+04	6.33874346e-07	3.84504800e+01
6.12565445e+04	7.12329843e-07	3.43081000e+00
1.22513089e+04	9.94769634e-07	4.05964260e+02
3.58115183e+04	2.15445026e-07	7.85885078e+03
4.19371728e+04	6.33874346e-07	5.51826900e+01
3.39267016e+04	6.39104712e-07	4.25468433e+01
7.68062827e+04	6.75717277e-07	6.17663000e+00
9.42408377e+02	1.00376963e-07	0.00000000e+00
4.57068063e+04	8.64010471e-07	4.21528000e+00
1.97905759e+04	6.65256545e-07	2.41699947e+02
3.10994764e+04	6.70486911e-07	5.08619833e+01
2.82722513e+04	1.00000000e-06	1.16386167e+01
6.64397906e+04	9.79078534e-07	2.78075000e+00
2.16753927e+04	7.28020942e-07	1.95378453e+02
6.83246073e+04	9.63387435e-07	2.76352000e+00
8.01047120e+04	1.05607330e-07	6.44999000e+01
1.88481675e+04	5.55418848e-07	1.36070614e+03
1.17801047e+04	8.58780105e-07	1.52231078e+03
3.25130890e+04	5.39727749e-07	6.01086200e+01
7.16230366e+04	8.01246073e-07	4.49857000e+00
6.17277487e+04	2.36366492e-07	7.99361933e+01
2.59162304e+04	2.71518325e-08	0.00000000e+00
5.32460733e+04	6.54795812e-07	2.11076600e+01
4.75916230e+04	3.77586387e-07	6.32707967e+01
4.57068063e+04	9.42465969e-07	8.67434000e+00
5.04188482e+04	8.01246073e-07	1.23892000e+01
9.42408377e+03	8.64010471e-07	0.00000000e+00
6.59685864e+04	1.16068063e-07	1.45211044e+02
3.86387435e+04	5.86801047e-07	2.05553000e+01
7.53926702e+04	7.59403141e-07	4.62749000e+00
8.01047120e+03	1.84062827e-07	0.00000000e+00
7.72774869e+04	7.90785340e-07	1.28778333e+00
1.27225131e+04	6.75717277e-07	2.00982914e+03
9.42408377e+02	9.68617801e-07	0.00000000e+00
6.07853403e+04	1.63141361e-07	1.17493636e+02
6.92670157e+04	4.80732984e-08	9.09073332e+03
4.24083770e+03	8.27397906e-07	0.00000000e+00
5.84293194e+04	1.89293194e-07	7.01333744e+01
3.53403141e+04	3.82816754e-07	7.35738309e+01
3.01570681e+04	2.93900524e-07	2.67981989e+03
4.38219895e+04	8.11706806e-07	6.26586333e+00
4.42931937e+04	4.19429319e-07	3.69566180e+01
6.54973822e+04	8.06476440e-07	5.59592000e+00
2.82722513e+04	7.80324607e-07	3.99061333e+01
1.22513089e+04	3.51434555e-07	0.00000000e+00
5.18324607e+04	7.07099476e-07	1.78031500e+01
6.78534031e+04	3.77586387e-07	1.53243067e+01
3.95811518e+04	1.14607330e-08	0.00000000e+00
7.53926702e+03	1.63141361e-07	0.00000000e+00
1.17801047e+04	6.96638743e-07	0.00000000e+00
6.69109948e+04	6.54795812e-07	1.01441500e+01
4.05235602e+04	8.11706806e-07	2.44757600e+01
6.59685864e+03	5.97261780e-07	0.00000000e+00
3.01570681e+04	8.48319372e-07	2.07798867e+01
2.73298429e+04	8.95392670e-07	1.02925414e+01
1.79057592e+04	6.54795812e-07	4.50314010e+02
1.83769634e+04	6.91408377e-07	2.42925041e+02
3.67539267e+04	2.36366492e-07	9.99977687e+02
8.95287958e+04	8.27397906e-07	2.35759000e+00
2.63874346e+04	4.19429319e-07	3.25647012e+02
3.86387435e+04	6.39104712e-07	7.33632000e+01
3.20418848e+04	5.50188482e-07	9.93416367e+01
4.71204188e+02	7.22790576e-07	0.00000000e+00
6.54973822e+04	2.78209424e-07	3.93967733e+01
2.63874346e+04	3.40973822e-07	5.05788657e+03
3.25130890e+04	3.04361257e-07	4.67708467e+02
3.29842932e+03	7.42251309e-08	0.00000000e+00
2.12041885e+04	2.88670157e-07	8.86670975e+03
9.89528796e+03	9.89539267e-07	7.93816070e+02
7.58638743e+04	1.00000000e-06	0.00000000e+00
2.12041885e+04	1.21298429e-07	0.00000000e+00
3.06282723e+04	9.51465969e-08	0.00000000e+00
2.26178010e+04	2.71518325e-08	0.00000000e+00
6.54973822e+04	4.08968586e-07	1.40770467e+01
2.49738220e+04	9.47696335e-07	7.81713800e+01
5.23036649e+04	7.01869110e-07	5.96638667e+00
8.10471204e+04	8.90162304e-07	2.41125000e+00
2.02617801e+04	1.78832461e-07	0.00000000e+00
7.35078534e+04	7.80324607e-07	4.55744000e+00
3.91099476e+04	7.07099476e-07	4.81109100e+01
2.96858639e+04	5.65879581e-07	1.27858817e+02
4.75916230e+04	5.86801047e-07	4.49082900e+01
3.29842932e+03	5.85340314e-08	0.00000000e+00
4.94764398e+04	6.49565445e-07	2.78785900e+01
1.93193717e+04	4.71732984e-07	6.84142919e+03
8.01047120e+03	1.57910995e-07	0.00000000e+00
2.35602094e+03	9.37235602e-07	0.00000000e+00
6.26701571e+04	9.37235602e-07	3.73464000e+00
4.61780105e+04	8.84931937e-07	3.69158333e+00
2.49738220e+04	7.48942408e-07	3.59797086e+01
2.26178010e+04	8.01246073e-07	5.81439520e+01
8.62303665e+04	4.66502618e-07	3.93601000e+00
1.03664921e+04	3.46204188e-07	0.00000000e+00
7.11518325e+04	8.58780105e-07	3.66906000e+00
4.47643979e+04	2.67748691e-07	1.25042031e+02
8.38743455e+04	4.35120419e-07	1.51003700e+01
6.92670157e+04	8.01246073e-07	1.64720667e+00
2.82722513e+03	6.91408377e-07	0.00000000e+00
1.55497382e+04	5.60649215e-07	6.98587287e+03
6.50261780e+04	2.78209424e-07	4.06132200e+01
4.85340314e+04	2.93900524e-07	7.88481520e+01
3.72251309e+04	6.96638743e-07	2.08495667e+01
3.62827225e+04	3.40973822e-07	1.29469986e+02
7.06806283e+04	3.76125654e-08	9.15118250e+03
1.22513089e+04	5.24036649e-07	0.00000000e+00
1.36649215e+04	7.59403141e-07	1.98037319e+03
7.77486911e+04	3.23821990e-08	9.11846388e+03
1.41361257e+04	3.14821990e-07	0.00000000e+00
1.41361257e+03	8.43089005e-07	0.00000000e+00
5.65445026e+03	4.03738220e-07	0.00000000e+00
1.31937173e+04	5.24036649e-07	0.00000000e+00
6.97382199e+04	7.69863874e-07	5.47133000e+00
4.19371728e+04	4.66502618e-07	3.27128220e+01
8.48167539e+03	8.01246073e-07	0.00000000e+00
2.59162304e+04	8.90162304e-07	1.86038740e+01
6.87958115e+04	1.78832461e-07	6.23406580e+01
5.60732984e+04	9.68617801e-07	8.75144000e-01
6.36125654e+04	4.19429319e-07	1.46123067e+01
2.45026178e+04	2.10214660e-07	9.06074610e+03
4.99476440e+04	7.59403141e-07	1.55957600e+01
8.38743455e+04	5.39727749e-07	8.77423000e+00
5.04188482e+04	4.97884817e-07	6.09654300e+01
1.17801047e+04	4.76963351e-07	0.00000000e+00
5.98429319e+04	1.73602094e-07	8.14179378e+01
8.10471204e+04	8.74471204e-07	2.53984000e+00
8.76439791e+04	3.56664921e-07	2.09985200e+01
6.97382199e+04	2.04984293e-07	4.04168500e+01
4.24083770e+03	8.99162304e-08	0.00000000e+00
3.86387435e+04	1.00376963e-07	9.20031554e+03
5.51308901e+04	7.38481675e-07	1.25523200e+01
3.34554974e+04	5.81570681e-07	6.53584833e+01
5.08900524e+04	3.82816754e-07	4.54340800e+01
5.79581152e+04	4.14198953e-07	2.14139633e+01
7.39790576e+04	3.82816754e-07	3.15875700e+01
2.35602094e+03	5.85340314e-08	0.00000000e+00
4.24083770e+03	7.07099476e-07	0.00000000e+00
1.27225131e+04	8.69240838e-07	8.73129208e+02
4.00523560e+04	8.01246073e-07	2.69119300e+01
7.63350785e+04	6.80947644e-07	6.14938000e+00
6.83246073e+04	4.24659686e-07	1.09219300e+01
5.60732984e+04	9.73848168e-07	4.27063000e+00
2.78010471e+04	8.48319372e-07	2.90760300e+01
1.03664921e+04	4.19429319e-07	0.00000000e+00
1.60209424e+04	6.37643979e-08	0.00000000e+00
2.96858639e+04	6.12952880e-07	2.59053840e+02
2.49738220e+04	1.89293194e-07	0.00000000e+00
7.53926702e+03	4.66502618e-07	0.00000000e+00
8.52879581e+04	1.00000000e-09	9.23458576e+03
1.31937173e+04	4.61272251e-07	0.00000000e+00
6.87958115e+04	3.46204188e-07	1.82989700e+01
5.79581152e+04	7.59403141e-07	9.76598000e+00
6.12565445e+03	5.97261780e-07	0.00000000e+00
6.36125654e+04	1.10837696e-07	2.06945099e+02
6.12565445e+04	5.34497382e-07	8.35567667e+00
5.65445026e+04	1.42219895e-07	1.65503597e+02
8.81151832e+04	1.26528796e-07	4.50114400e+01
1.64921466e+04	9.42465969e-07	1.96239283e+02
3.76963351e+04	7.28020942e-07	1.66993933e+01
2.49738220e+04	7.80324607e-07	4.15158280e+01
3.76963351e+04	9.47696335e-07	1.57699800e+01
8.34031414e+04	6.65256545e-07	5.12309000e+00
4.33507853e+04	3.51434555e-07	5.35084043e+01
1.93193717e+04	8.64010471e-07	8.54305520e+01
7.63350785e+04	7.69863874e-07	1.43925333e+00
7.11518325e+04	7.07099476e-07	6.71783000e+00
6.78534031e+04	4.87424084e-07	7.67650333e+00
3.29842932e+03	5.50188482e-07	0.00000000e+00
4.85340314e+04	8.58780105e-07	1.06755600e+01
5.93717277e+04	6.07722513e-07	1.86396300e+01
2.26178010e+04	1.00000000e-06	3.01645767e+01
7.30366492e+04	8.37858639e-07	3.72256000e+00
2.16753927e+04	4.03738220e-07	7.43662899e+03
2.12041885e+04	6.02492147e-07	2.84865746e+02
4.90052356e+04	1.00000000e-06	5.44599000e+00
6.31413613e+04	1.05607330e-07	2.20568437e+02
6.40837696e+04	7.90785340e-07	6.34686000e+00
5.18324607e+04	2.72979058e-07	5.15937600e+01
5.23036649e+04	8.11706806e-07	1.05253800e+01
3.39267016e+04	9.21544503e-07	2.63476800e+01
2.59162304e+04	7.59403141e-07	6.63425233e+01
2.45026178e+04	2.99130890e-07	8.54300215e+03
1.41361257e+03	6.18183246e-07	0.00000000e+00
5.93717277e+04	8.27397906e-07	6.74517000e+00
8.71727749e+04	1.00376963e-07	4.56866511e+01
7.82198953e+04	6.12952880e-07	7.69901000e+00
8.01047120e+03	5.97261780e-07	0.00000000e+00
4.24083770e+03	2.10214660e-07	0.00000000e+00
2.59162304e+04	5.86801047e-07	1.31949262e+02
1.41361257e+03	2.04984293e-07	0.00000000e+00
6.64397906e+04	8.99162304e-08	2.70747647e+02
7.72774869e+04	1.66910995e-08	9.21131204e+03
8.57591623e+04	5.34497382e-07	8.41092000e+00
8.67015707e+04	3.35743455e-07	2.50532500e+01
9.00000000e+04	5.76340314e-07	6.02687000e+00
8.85863874e+04	5.03115183e-07	8.87726000e+00
6.26701571e+04	6.91408377e-07	3.52028667e+00
4.33507853e+04	7.28020942e-07	9.96657000e+00
4.61780105e+04	8.32628272e-07	4.74817667e+00
2.82722513e+04	2.88670157e-07	7.93369408e+03
3.53403141e+04	6.60026178e-07	9.26675300e+01
1.88481675e+04	5.24036649e-07	3.76710571e+03
2.73298429e+04	1.26528796e-07	0.00000000e+00
9.42408377e+03	2.19214660e-08	0.00000000e+00
5.18324607e+04	6.12952880e-07	2.87393300e+01
1.22513089e+04	7.90785340e-07	2.36023903e+03
3.62827225e+04	2.83439791e-07	2.46654324e+02
5.04188482e+04	4.87424084e-07	2.23873900e+01
4.57068063e+04	7.48942408e-07	2.20913200e+01
4.42931937e+04	3.76125654e-08	9.30444807e+03
5.56020942e+04	6.23413613e-07	2.13874100e+01
4.52356021e+04	1.68371728e-07	1.03820701e+03
7.16230366e+04	6.07722513e-07	1.02583400e+01
5.70157068e+04	3.93277487e-07	1.58831560e+01
6.83246073e+04	8.64010471e-07	1.33482000e+00
3.62827225e+04	7.17560209e-07	2.05151367e+01
6.12565445e+03	3.82816754e-07	0.00000000e+00
6.12565445e+04	6.37643979e-08	9.08050431e+03
6.21989529e+04	5.60649215e-07	2.03627600e+01
1.17801047e+04	3.35743455e-07	0.00000000e+00
4.61780105e+04	4.03738220e-07	5.81431500e+01
5.60732984e+04	4.50811518e-07	1.13731940e+01
1.31937173e+04	5.86801047e-07	0.00000000e+00
2.92146597e+04	1.00000000e-09	0.00000000e+00
3.43979058e+04	7.85554974e-07	1.73667567e+01
1.64921466e+04	4.14198953e-07	0.00000000e+00
3.29842932e+04	1.68371728e-07	9.02056938e+03
2.82722513e+04	1.89293194e-07	9.05338663e+03
5.84293194e+04	4.24659686e-07	8.28536714e+00
7.16230366e+04	5.97261780e-07	1.07802200e+01
3.58115183e+04	4.35120419e-07	1.46868000e+02
9.42408377e+02	9.47696335e-07	0.00000000e+00
1.88481675e+04	1.52680628e-07	0.00000000e+00
8.67015707e+04	1.10837696e-07	3.69684478e+01
5.56020942e+04	4.82193717e-07	1.60116433e+01
3.95811518e+04	8.99162304e-08	9.22191731e+03
8.67015707e+04	1.47450262e-07	5.67056000e+01
2.92146597e+04	6.75717277e-07	6.46921767e+01
1.88481675e+03	6.18183246e-07	0.00000000e+00
5.41884817e+04	2.62518325e-07	6.56018120e+01
5.27748691e+04	4.19429319e-07	8.52218100e+01
4.61780105e+04	3.93277487e-07	6.33578767e+01
5.41884817e+04	1.31759162e-07	3.92884056e+02
7.02094241e+04	1.99753927e-07	2.99637086e+01
8.48167539e+04	8.11706806e-07	2.82673000e+00
3.06282723e+04	4.87424084e-07	8.94259600e+01
1.46073298e+04	1.31759162e-07	0.00000000e+00
7.86910995e+04	2.52057592e-07	1.45151180e+01
1.88481675e+04	3.14821990e-07	0.00000000e+00
8.10471204e+04	9.16314136e-07	7.39646667e-01
5.65445026e+04	4.24659686e-07	2.18831833e+01
4.24083770e+04	2.83439791e-07	1.38720093e+02
8.15183246e+04	7.17560209e-07	4.42461000e+00
7.20942408e+04	2.57287958e-07	3.25593267e+01
8.01047120e+04	3.35743455e-07	3.29543000e+01
4.19371728e+04	8.95392670e-07	1.43133600e+01
5.18324607e+03	9.79078534e-07	0.00000000e+00
5.23036649e+04	6.54795812e-07	2.24076400e+01
6.87958115e+04	8.43089005e-07	4.24409000e+00
1.93193717e+04	9.89539267e-07	6.66121867e+01
3.48691099e+04	1.14607330e-08	0.00000000e+00
2.02617801e+04	2.78209424e-07	0.00000000e+00
1.50785340e+04	1.73602094e-07	0.00000000e+00
2.87434555e+04	3.40973822e-07	7.84616572e+02
6.07853403e+04	3.20052356e-07	3.66595267e+01
8.95287958e+04	6.23036649e-09	9.19484552e+03
5.23036649e+04	6.28643979e-07	5.20008200e+00
1.79057592e+04	3.51434555e-07	0.00000000e+00
3.76963351e+03	7.12329843e-07	0.00000000e+00
7.68062827e+04	2.36366492e-07	1.86850960e+01
8.15183246e+04	1.47450262e-07	3.22897043e+01
2.35602094e+03	8.53549738e-07	0.00000000e+00
7.53926702e+03	5.60649215e-07	0.00000000e+00
2.68586387e+04	7.90785340e-07	4.69218400e+01
6.78534031e+04	2.20675393e-07	3.76285760e+01
8.05759162e+04	9.47696335e-07	2.02183000e+00
6.92670157e+04	2.52057592e-07	2.42932040e+01
8.24607330e+04	2.36366492e-07	1.41027120e+01
5.89005236e+04	9.00623037e-07	5.07401000e+00
2.68586387e+04	3.30513089e-07	5.75541163e+03
4.09947644e+04	9.84308901e-07	9.92681000e+00
7.96335079e+04	5.92031414e-07	8.02312000e+00
2.40314136e+04	5.44958115e-07	1.72176843e+02
4.71204188e+03	5.08345550e-07	0.00000000e+00
4.38219895e+04	2.72979058e-07	8.39488045e+01
1.41361257e+03	6.96638743e-07	0.00000000e+00
1.08376963e+04	8.74471204e-07	1.25592876e+03
3.95811518e+04	3.23821990e-08	0.00000000e+00
6.12565445e+04	9.52926702e-07	3.72184000e+00
2.82722513e+03	2.19214660e-08	0.00000000e+00
4.71204188e+02	9.42465969e-07	0.00000000e+00
2.96858639e+04	6.28643979e-07	4.91321320e+01
3.39267016e+04	5.24036649e-07	9.21528733e+01
1.50785340e+04	1.05607330e-07	0.00000000e+00
4.33507853e+04	3.56664921e-07	7.10951840e+01
1.03664921e+04	4.87424084e-07	0.00000000e+00
6.40837696e+04	8.90162304e-07	4.24565000e+00
2.40314136e+04	1.36989529e-07	0.00000000e+00
8.15183246e+04	2.57287958e-07	2.01257233e+01
1.88481675e+03	1.57910995e-07	0.00000000e+00
7.96335079e+04	4.24659686e-07	6.45629333e+00
3.06282723e+04	7.90785340e-07	7.93301200e+01
8.34031414e+04	3.25282723e-07	1.06062300e+01
5.23036649e+04	5.44958115e-07	4.03510600e+01
7.58638743e+04	8.64010471e-07	3.08070000e+00
4.14659686e+04	9.51465969e-08	9.18704663e+03
1.88481675e+04	6.37643979e-08	0.00000000e+00
3.62827225e+04	2.52057592e-07	5.35244635e+02
7.53926702e+04	1.00376963e-07	1.09670650e+02
4.80628272e+04	9.00623037e-07	9.04789000e+00
1.50785340e+04	4.82193717e-07	0.00000000e+00
8.15183246e+04	6.28643979e-07	6.37365000e+00
8.76439791e+04	3.77586387e-07	1.83688200e+01
7.35078534e+04	9.11083770e-07	2.80964000e+00
7.68062827e+04	4.82193717e-07	5.24009333e+00
4.42931937e+04	5.97261780e-07	1.88196833e+01
8.71727749e+04	5.39727749e-07	7.81287000e+00
2.78010471e+04	4.82193717e-07	1.67014873e+02
1.93193717e+04	6.65256545e-07	2.85600976e+02
2.78010471e+04	5.39727749e-07	9.54536057e+01
1.17801047e+04	6.37643979e-08	0.00000000e+00
5.60732984e+04	7.38481675e-07	1.19001200e+01
6.45549738e+04	5.71109948e-07	3.45748000e+00
1.55497382e+04	1.16068063e-07	0.00000000e+00
8.01047120e+03	9.32005236e-07	0.00000000e+00
6.73821990e+04	5.71109948e-07	3.00583400e+00
5.37172775e+04	3.35743455e-07	5.36633733e+01
5.51308901e+04	2.71518325e-08	9.28783790e+03
4.66492147e+04	1.00000000e-09	0.00000000e+00
9.42408377e+02	6.65256545e-07	0.00000000e+00
3.62827225e+04	3.25282723e-07	1.33380528e+02
6.45549738e+04	3.25282723e-07	2.75515467e+01
8.48167539e+04	7.01869110e-07	4.22387000e+00
8.19895288e+04	2.67748691e-07	1.07555200e+01
7.53926702e+04	4.66502618e-07	6.07627000e+00
8.34031414e+04	7.48942408e-07	3.69730000e+00
6.92670157e+04	5.65879581e-07	4.70904000e+00
8.85863874e+04	3.20052356e-07	8.92441333e+00
6.36125654e+04	1.73602094e-07	7.32943443e+01
3.29842932e+03	1.21298429e-07	0.00000000e+00
8.48167539e+03	4.97884817e-07	0.00000000e+00
6.73821990e+04	4.61272251e-07	9.15992333e+00
2.82722513e+03	1.99753927e-07	0.00000000e+00
8.48167539e+03	2.88670157e-07	0.00000000e+00
5.23036649e+04	5.24036649e-07	9.33140400e+00
6.83246073e+04	4.76963351e-07	2.34329700e+01
5.51308901e+04	7.96015707e-07	9.63065000e+00
5.74869110e+04	3.98507853e-07	2.46850600e+01
8.48167539e+03	7.17560209e-07	0.00000000e+00
2.35602094e+04	5.13575916e-07	2.38176086e+02
8.01047120e+04	8.90162304e-07	2.47649000e+00
4.71204188e+02	5.92031414e-07	0.00000000e+00
3.01570681e+04	6.65256545e-07	3.60843560e+01
4.24083770e+03	3.72356021e-07	0.00000000e+00
2.26178010e+04	6.44335079e-07	1.76667400e+02
4.38219895e+04	3.09591623e-07	1.12476646e+02
7.68062827e+04	7.64633508e-07	4.31587000e+00
7.02094241e+04	3.14821990e-07	2.16663267e+01
4.90052356e+04	7.22790576e-07	0.00000000e+00
6.21989529e+04	4.24659686e-07	1.53209667e+01
6.07853403e+04	5.13575916e-07	2.84112900e+01
8.43455497e+04	1.94523560e-07	2.02537060e+01
1.31937173e+04	5.81570681e-07	0.00000000e+00
4.24083770e+03	1.10837696e-07	0.00000000e+00
6.40837696e+04	5.65879581e-07	1.79550300e+01
2.35602094e+04	2.99130890e-07	8.64875606e+03
6.40837696e+04	8.95392670e-07	4.16012000e+00
7.25654450e+04	7.17560209e-07	1.22304000e+00
2.26178010e+04	7.17560209e-07	1.68202623e+02
3.25130890e+04	5.86801047e-07	7.17204400e+01
6.45549738e+04	8.90162304e-07	4.16644000e+00
4.71204188e+04	4.24659686e-07	2.72187260e+01
7.49214660e+04	1.99753927e-07	3.13683920e+01
7.53926702e+04	3.23821990e-08	9.14106092e+03
8.19895288e+04	3.30513089e-07	1.08484500e+01
3.06282723e+04	9.05853403e-07	4.24198900e+01
5.65445026e+04	6.54795812e-07	1.72879400e+01
3.29842932e+04	1.10837696e-07	9.22283854e+03
1.41361257e+04	8.53549738e-07	4.02021829e+02
7.53926702e+04	9.21544503e-07	2.55553000e+00
6.31413613e+04	4.56041885e-07	3.47638100e+01
6.92670157e+04	3.46204188e-07	1.78393833e+01
5.79581152e+04	9.89539267e-07	0.00000000e+00
3.95811518e+04	6.33874346e-07	2.34742667e+01
5.51308901e+04	7.75094241e-07	1.05844400e+01
7.68062827e+04	2.19214660e-08	9.19041362e+03
1.60209424e+04	1.14607330e-08	0.00000000e+00
7.53926702e+04	7.54172775e-07	4.72232000e+00
1.17801047e+04	1.66910995e-08	0.00000000e+00
6.59685864e+04	7.43712042e-07	7.13735000e+00
3.76963351e+04	4.56041885e-07	9.54469800e+01
4.14659686e+04	2.36366492e-07	2.17621390e+02
3.62827225e+04	3.09591623e-07	2.11179941e+02
4.57068063e+04	8.95392670e-07	1.08403800e+01
8.19895288e+04	4.29890052e-07	1.67471700e+01
8.95287958e+03	6.54795812e-07	0.00000000e+00
4.00523560e+04	1.21298429e-07	9.09399328e+03
5.98429319e+04	5.34497382e-07	2.66926700e+01
6.17277487e+04	5.39727749e-07	7.91399667e+00
4.24083770e+04	8.32628272e-07	1.88045400e+01
6.45549738e+04	8.27397906e-07	5.35264000e+00
5.41884817e+04	5.34497382e-07	3.77653600e+01
4.61780105e+04	1.00376963e-07	9.09113791e+03
7.72774869e+04	8.84931937e-07	2.73973000e+00
3.06282723e+04	8.64010471e-07	1.79087967e+01
5.74869110e+04	7.43712042e-07	1.07502300e+01
7.20942408e+04	9.42465969e-07	2.62962000e+00
3.29842932e+04	9.73848168e-07	7.40996667e+00
7.35078534e+04	4.61272251e-07	2.00595000e+01
2.21465969e+04	2.20675393e-07	0.00000000e+00
5.98429319e+04	3.82816754e-07	1.42089780e+01
4.42931937e+04	2.57287958e-07	1.00649297e+02
4.24083770e+03	5.24036649e-07	0.00000000e+00
2.96858639e+04	3.14821990e-07	1.19265531e+03
7.77486911e+04	5.33036649e-08	2.85535713e+03
8.52879581e+04	4.24659686e-07	5.15056667e+00
3.34554974e+04	7.12329843e-07	2.91776367e+01
3.58115183e+04	6.37643979e-08	0.00000000e+00
1.74345550e+04	4.08968586e-07	8.42537533e+03
5.04188482e+04	3.93277487e-07	2.60947760e+01
1.88481675e+04	8.95392670e-07	7.94424800e+01
4.24083770e+03	9.58157068e-07	0.00000000e+00
8.90575916e+04	3.56664921e-07	1.99124000e+01
5.51308901e+04	6.18183246e-07	4.58311400e+00
8.52879581e+04	3.77586387e-07	6.85897667e+00
1.97905759e+04	3.61895288e-07	8.52830937e+03
5.08900524e+04	3.25282723e-07	4.51198720e+01
7.02094241e+04	2.31136126e-07	4.77711033e+01
1.93193717e+04	7.38481675e-07	2.07065944e+02
2.63874346e+04	6.12952880e-07	6.95971043e+01
1.13089005e+04	3.14821990e-07	0.00000000e+00
7.11518325e+04	9.58157068e-07	2.56571000e+00
5.89005236e+04	5.65879581e-07	2.37602300e+01
6.31413613e+04	5.33036649e-08	9.13105040e+03
1.88481675e+03	2.20675393e-07	0.00000000e+00
3.25130890e+04	1.05607330e-07	9.23378972e+03
7.68062827e+04	3.40973822e-07	3.68023700e+01
6.54973822e+04	9.58157068e-07	3.09956000e+00
5.32460733e+04	2.78209424e-07	5.95258320e+01
3.62827225e+04	4.76963351e-07	3.22153789e+01
3.91099476e+04	7.33251309e-07	4.18243600e+01
2.68586387e+04	6.80947644e-07	9.22451067e+01
5.65445026e+03	5.60649215e-07	0.00000000e+00
1.41361257e+03	7.22790576e-07	0.00000000e+00
4.00523560e+04	8.79701571e-07	1.80811400e+01
8.95287958e+03	4.29890052e-07	0.00000000e+00
6.17277487e+04	6.28643979e-07	4.98524333e+00
1.93193717e+04	1.84062827e-07	0.00000000e+00
5.18324607e+03	1.63141361e-07	0.00000000e+00
2.21465969e+04	2.72979058e-07	8.90086135e+03
1.46073298e+04	9.73848168e-07	3.07815407e+02
5.70157068e+04	1.73602094e-07	9.07372155e+01
8.29319372e+04	4.08968586e-07	1.82349900e+01
9.42408377e+03	3.04361257e-07	0.00000000e+00
8.05759162e+04	3.35743455e-07	3.22842700e+01
8.67015707e+04	8.90162304e-07	2.07277000e+00
8.10471204e+04	1.31759162e-07	4.37926014e+01
5.60732984e+04	4.71732984e-07	1.65701300e+01
1.50785340e+04	7.12329843e-07	1.22959813e+03
3.15706806e+04	7.43712042e-07	9.10230400e+01
4.38219895e+04	6.60026178e-07	1.37712600e+01
4.52356021e+04	2.83439791e-07	5.97270345e+01
5.18324607e+04	5.29267016e-07	1.55794267e+01
6.36125654e+04	8.22167539e-07	5.69198000e+00
1.64921466e+04	4.28429319e-08	0.00000000e+00
9.00000000e+04	7.33251309e-07	3.22032000e+00
5.93717277e+04	6.91408377e-07	1.23961900e+01
5.56020942e+04	7.96015707e-07	9.38211000e+00
1.64921466e+04	9.47696335e-07	1.13868086e+02
4.71204188e+04	1.57910995e-07	9.84609837e+02
6.12565445e+03	1.05607330e-07	0.00000000e+00
2.35602094e+04	4.71732984e-07	4.55900362e+02
2.82722513e+03	2.93900524e-07	0.00000000e+00
4.80628272e+04	9.26774869e-07	2.68544333e+00
4.33507853e+04	1.68371728e-07	3.37426542e+03
8.43455497e+04	2.62518325e-07	7.23342143e+00
6.87958115e+04	7.94554974e-08	3.90118856e+02
2.16753927e+04	1.73602094e-07	0.00000000e+00
4.66492147e+04	2.41596859e-07	2.04882542e+02
3.91099476e+04	5.44958115e-07	4.25572133e+01
9.00000000e+04	7.48942408e-07	1.01972000e+00
3.67539267e+04	4.03738220e-07	1.03862640e+02
2.45026178e+04	6.23413613e-07	9.51928871e+01
4.42931937e+04	9.89539267e-07	7.63104000e+00
6.26701571e+04	9.73848168e-07	3.24872000e+00
7.53926702e+03	4.45581152e-07	0.00000000e+00
4.80628272e+04	3.09591623e-07	1.15607443e+02
3.29842932e+04	5.50188482e-07	8.67372667e+01
1.41361257e+04	3.51434555e-07	0.00000000e+00
1.88481675e+04	4.40350785e-07	7.83252148e+03
5.41884817e+04	9.47696335e-07	5.21259000e+00
4.71204188e+04	2.72979058e-07	8.56269486e+01
8.90575916e+04	9.11083770e-07	1.83340000e+00
6.78534031e+04	1.42219895e-07	5.95231091e+01
4.71204188e+04	7.22790576e-07	2.54714889e+00
7.39790576e+04	1.14607330e-08	9.24670717e+03
0.00000000e+00	6.02492147e-07	0.00000000e+00
8.15183246e+04	3.76125654e-08	9.01055474e+03
5.23036649e+04	1.84062827e-07	1.61247899e+02
6.64397906e+04	1.31759162e-07	8.71016273e+01
2.92146597e+04	1.99753927e-07	8.97704793e+03
3.72251309e+04	9.26774869e-07	1.83393700e+01
6.59685864e+03	8.32628272e-07	0.00000000e+00
4.19371728e+04	8.11706806e-07	7.28344000e+00
7.44502618e+04	6.91408377e-07	6.31406000e+00
3.25130890e+04	6.39104712e-07	5.10085233e+01
4.75916230e+04	3.61895288e-07	4.35423000e+01
6.78534031e+04	9.11083770e-07	3.39440000e+00
7.49214660e+04	2.93900524e-07	2.01031133e+01
6.69109948e+04	2.83439791e-07	3.43805800e+01
2.54450262e+04	7.54172775e-07	7.44923267e+01
9.00000000e+04	9.63387435e-07	1.53672000e+00
2.96858639e+04	3.35743455e-07	5.94856269e+02
8.76439791e+04	1.68371728e-07	2.40270200e+01
8.52879581e+04	9.16314136e-07	1.97842000e+00
8.01047120e+04	3.09591623e-07	1.38141867e+01
3.20418848e+04	2.72979058e-07	1.97983171e+03
6.40837696e+04	4.61272251e-07	1.09186267e+01
1.27225131e+04	8.37858639e-07	1.16442635e+03
8.76439791e+04	3.14821990e-07	9.62474333e+00
7.63350785e+04	4.66502618e-07	5.83255000e+00
9.89528796e+03	7.07099476e-07	0.00000000e+00
5.84293194e+04	8.06476440e-07	7.73280000e+00
8.76439791e+04	6.02492147e-07	1.94698667e+00
8.76439791e+04	6.12952880e-07	1.86075000e+00
6.31413613e+04	5.39727749e-07	7.32564333e+00
1.79057592e+04	4.61272251e-07	7.81189455e+03
4.52356021e+04	9.05853403e-07	3.56561000e+00
2.49738220e+04	7.01869110e-07	4.87634471e+01
3.67539267e+04	8.84931937e-07	2.38266100e+01
6.40837696e+04	7.38481675e-07	7.94594000e+00
7.25654450e+04	9.47696335e-07	2.54465000e+00
8.85863874e+04	8.32628272e-07	2.36738000e+00
5.84293194e+04	3.67125654e-07	1.75626740e+01
8.38743455e+04	8.69240838e-07	0.00000000e+00
4.90052356e+04	4.50811518e-07	3.19684733e+01
3.76963351e+03	1.14607330e-08	0.00000000e+00
2.35602094e+04	6.12952880e-07	1.29856759e+02
3.76963351e+04	3.23821990e-08	0.00000000e+00
9.42408377e+03	7.17560209e-07	0.00000000e+00
8.81151832e+04	3.04361257e-07	1.02183000e+01
1.79057592e+04	2.83439791e-07	0.00000000e+00
1.79057592e+04	8.99162304e-08	0.00000000e+00
3.81675393e+04	6.39104712e-07	7.69872200e+01
7.39790576e+04	3.20052356e-07	1.70487533e+01
1.17801047e+04	1.05607330e-07	0.00000000e+00
2.78010471e+04	5.34497382e-07	1.39974110e+02
7.16230366e+04	8.22167539e-07	4.15297000e+00
3.58115183e+04	4.80732984e-08	0.00000000e+00
6.45549738e+04	6.75717277e-07	1.02959900e+01
2.21465969e+04	9.05853403e-07	1.68470420e+02
5.65445026e+04	7.59403141e-07	1.05331300e+01
1.93193717e+04	1.78832461e-07	0.00000000e+00
3.29842932e+04	4.08968586e-07	8.25452882e+01
3.58115183e+04	7.01869110e-07	2.35865467e+01
1.36649215e+04	5.60649215e-07	0.00000000e+00
5.74869110e+04	4.56041885e-07	1.67084733e+01
3.10994764e+04	9.73848168e-07	9.25163333e+00
2.78010471e+04	1.00000000e-09	0.00000000e+00
6.78534031e+04	8.90162304e-07	3.67494000e+00
7.53926702e+03	7.64633508e-07	0.00000000e+00
3.76963351e+04	9.73848168e-07	1.37743700e+01
4.94764398e+04	6.39104712e-07	2.94420500e+01
4.71204188e+03	3.93277487e-07	0.00000000e+00
4.52356021e+04	9.26774869e-07	9.63748000e+00
1.64921466e+04	6.91408377e-07	5.67687901e+02
2.96858639e+04	4.03738220e-07	1.80251499e+02
5.32460733e+04	9.52926702e-07	5.33906000e+00
7.35078534e+04	2.83439791e-07	1.42109220e+01
0.00000000e+00	9.47696335e-07	0.00000000e+00
5.18324607e+04	5.44958115e-07	1.42087533e+01
6.59685864e+04	2.93900524e-07	1.41890857e+01
3.86387435e+04	4.14198953e-07	7.28031000e+01
4.94764398e+04	1.68371728e-07	1.97833202e+02
6.54973822e+04	9.52926702e-07	3.16232000e+00
8.48167539e+04	7.90785340e-07	1.01749000e+00
4.24083770e+03	6.60026178e-07	0.00000000e+00
7.39790576e+04	9.89539267e-07	2.11788000e+00
9.42408377e+02	3.23821990e-08	0.00000000e+00
6.54973822e+04	1.84062827e-07	7.36872860e+01
7.91623037e+04	1.16068063e-07	5.35168978e+01
6.92670157e+04	2.99130890e-07	2.60097800e+01
2.26178010e+04	1.66910995e-08	0.00000000e+00
3.76963351e+03	4.97884817e-07	0.00000000e+00
8.05759162e+04	1.00000000e-09	9.25255243e+03
2.07329843e+04	4.92654450e-07	1.63501312e+03
8.15183246e+04	6.23413613e-07	6.51989000e+00
3.95811518e+04	3.98507853e-07	5.33130186e+01
4.33507853e+04	4.45581152e-07	5.52244700e+01
7.53926702e+03	9.11083770e-07	0.00000000e+00
7.91623037e+04	2.57287958e-07	2.25113100e+01
4.80628272e+04	9.51465969e-08	9.08773037e+03
2.54450262e+04	3.93277487e-07	1.07486855e+03
8.29319372e+04	7.12329843e-07	1.44483667e+00
7.06806283e+04	5.34497382e-07	1.53538500e+01
5.51308901e+04	1.78832461e-07	8.61071554e+01
8.95287958e+04	6.75717277e-07	4.05773000e+00
6.03141361e+04	5.71109948e-07	7.21902333e+00
1.88481675e+04	4.82193717e-07	6.87869201e+03
7.06806283e+04	6.91408377e-07	7.31920000e+00
1.50785340e+04	1.21298429e-07	0.00000000e+00
4.24083770e+04	6.86178010e-07	3.98498800e+01
5.37172775e+04	6.39104712e-07	2.21965100e+01
4.19371728e+04	3.56664921e-07	8.40001520e+01
1.74345550e+04	3.23821990e-08	0.00000000e+00
4.19371728e+04	8.64010471e-07	5.60259000e+00
4.57068063e+04	2.78209424e-07	1.32872510e+02
8.01047120e+03	9.73848168e-07	0.00000000e+00
8.52879581e+04	1.14607330e-08	9.19176963e+03
2.59162304e+04	1.89293194e-07	9.10007309e+03
2.21465969e+04	7.75094241e-07	1.26879650e+02
8.95287958e+04	9.16314136e-07	1.78418000e+00
1.97905759e+04	1.84062827e-07	0.00000000e+00
1.79057592e+04	5.34497382e-07	5.57409071e+03
5.74869110e+04	8.74471204e-07	0.00000000e+00
8.48167539e+04	1.00000000e-06	5.18710000e-01
2.07329843e+04	2.78209424e-07	8.90321576e+03
3.62827225e+04	7.90785340e-07	4.08456300e+01
3.39267016e+04	2.72979058e-07	7.40508090e+02
3.29842932e+04	9.47696335e-07	0.00000000e+00
8.43455497e+04	5.24036649e-07	9.30259000e+00
5.04188482e+04	1.16068063e-07	8.76439480e+03
8.90575916e+04	6.91408377e-07	3.87292000e+00
7.82198953e+04	5.24036649e-07	3.96236667e+00
0.00000000e+00	1.00376963e-07	0.00000000e+00
4.09947644e+04	7.54172775e-07	3.15500000e+01
5.37172775e+04	1.63141361e-07	1.55452901e+02
2.73298429e+04	9.37235602e-07	5.66345100e+01
4.90052356e+04	2.36366492e-07	9.08659267e+01
9.42408377e+03	4.87424084e-07	0.00000000e+00
6.03141361e+04	3.61895288e-07	2.68796033e+01
7.77486911e+04	2.36366492e-07	2.96393733e+01
6.87958115e+04	2.20675393e-07	3.53931340e+01
1.88481675e+03	8.95392670e-07	0.00000000e+00
3.01570681e+04	7.48942408e-07	2.18147120e+01
3.48691099e+04	8.74471204e-07	1.02343233e+01
7.53926702e+03	4.28429319e-08	0.00000000e+00
5.60732984e+04	1.00376963e-07	8.69535497e+03
1.93193717e+04	5.71109948e-07	7.52660166e+02
4.57068063e+04	5.71109948e-07	1.94760433e+01
3.39267016e+04	1.52680628e-07	9.07479634e+03
4.71204188e+02	2.52057592e-07	0.00000000e+00
7.91623037e+04	3.56664921e-07	2.97252600e+01
4.90052356e+04	7.42251309e-08	9.18354280e+03
3.95811518e+04	3.56664921e-07	8.14588000e+01
5.79581152e+04	7.69863874e-07	9.31992000e+00
1.22513089e+04	1.00376963e-07	0.00000000e+00
3.39267016e+04	3.23821990e-08	0.00000000e+00
2.73298429e+04	9.05853403e-07	2.26474333e+01
5.32460733e+04	2.46827225e-07	6.25067014e+01
6.12565445e+03	1.99753927e-07	0.00000000e+00
6.54973822e+04	1.00000000e-06	2.66224000e+00
1.31937173e+04	2.57287958e-07	0.00000000e+00
7.20942408e+04	4.35120419e-07	8.49509000e+00
6.64397906e+04	3.67125654e-07	5.15387800e+01
5.18324607e+04	8.84931937e-07	0.00000000e+00
4.19371728e+04	4.61272251e-07	5.66495867e+01
3.43979058e+04	9.42465969e-07	7.51088333e+00
2.73298429e+04	9.94769634e-07	4.11124300e+01
4.71204188e+04	1.42219895e-07	8.17847848e+03
6.50261780e+04	5.33036649e-08	9.10670481e+03
8.15183246e+04	1.10837696e-07	5.13144556e+01
4.71204188e+02	3.04361257e-07	0.00000000e+00
8.29319372e+04	7.54172775e-07	3.67861000e+00
2.87434555e+04	7.12329843e-07	5.55621900e+01
7.11518325e+04	4.66502618e-07	7.37053667e+00
5.37172775e+04	3.72356021e-07	1.31476989e+01
1.69633508e+04	3.46204188e-07	0.00000000e+00
4.09947644e+04	5.44958115e-07	3.50508500e+01
1.41361257e+04	5.85340314e-08	0.00000000e+00
2.02617801e+04	3.46204188e-07	8.59701440e+03
3.62827225e+04	1.68371728e-07	8.89160538e+03
5.74869110e+04	7.28020942e-07	3.87746333e+00
6.78534031e+04	1.57910995e-07	5.30464522e+01
7.86910995e+04	8.74471204e-07	2.72266000e+00
8.67015707e+04	4.08968586e-07	5.35026667e+00
1.03664921e+04	8.01246073e-07	0.00000000e+00
4.38219895e+04	5.29267016e-07	2.96264800e+01
8.01047120e+04	3.88047120e-07	2.32681100e+01
7.25654450e+04	1.10837696e-07	1.03972618e+02
7.58638743e+04	3.35743455e-07	1.37879200e+01
7.39790576e+04	5.92031414e-07	3.37116667e+00
5.56020942e+04	3.04361257e-07	6.17774200e+01
3.95811518e+04	6.12952880e-07	2.65455967e+01
3.06282723e+04	3.93277487e-07	1.65791726e+02
1.69633508e+04	6.12952880e-07	1.97851814e+03
4.71204188e+04	9.26774869e-07	8.51679000e+00
1.22513089e+04	7.80324607e-07	2.39000441e+03
6.21989529e+04	9.37235602e-07	0.00000000e+00
7.02094241e+04	3.25282723e-07	1.99236200e+01
2.35602094e+03	3.25282723e-07	0.00000000e+00
3.01570681e+04	5.08345550e-07	8.06545529e+01
6.36125654e+04	3.51434555e-07	2.36892033e+01
3.01570681e+04	6.96638743e-07	4.95484833e+01
3.58115183e+04	3.88047120e-07	1.00886090e+02
8.48167539e+03	1.47450262e-07	0.00000000e+00
6.50261780e+04	2.52057592e-07	3.17942960e+01
2.02617801e+04	6.89947644e-08	0.00000000e+00
7.06806283e+04	9.11083770e-07	3.08023000e+00
8.95287958e+04	6.70486911e-07	4.14025000e+00
5.18324607e+04	7.48942408e-07	1.45299800e+01
1.17801047e+04	3.67125654e-07	0.00000000e+00
7.06806283e+04	9.00623037e-07	3.20040000e+00
5.56020942e+04	1.99753927e-07	1.00585390e+02
4.24083770e+03	4.61272251e-07	0.00000000e+00
8.81151832e+04	7.75094241e-07	2.93005000e+00
5.46596859e+04	9.21544503e-07	5.68843000e+00
3.86387435e+04	2.52057592e-07	2.50199587e+02
2.59162304e+04	7.28020942e-07	8.05606633e+01
8.10471204e+04	2.67748691e-07	1.87225967e+01
5.65445026e+03	5.50188482e-07	0.00000000e+00
6.92670157e+04	6.37643979e-08	8.86189559e+03
7.16230366e+04	1.99753927e-07	2.12941767e+01
6.64397906e+04	3.61895288e-07	1.85465133e+01
7.82198953e+04	7.75094241e-07	3.95415000e+00
4.24083770e+04	1.47450262e-07	8.77729553e+03
8.95287958e+03	8.06476440e-07	0.00000000e+00
5.98429319e+04	8.69240838e-07	5.53945000e+00
2.49738220e+04	1.21298429e-07	0.00000000e+00
5.89005236e+04	4.61272251e-07	1.47814300e+01
4.71204188e+03	3.09591623e-07	0.00000000e+00
7.06806283e+03	1.78832461e-07	0.00000000e+00
2.96858639e+04	3.72356021e-07	3.70010370e+02
3.29842932e+03	2.93900524e-07	0.00000000e+00
3.53403141e+04	2.19214660e-08	0.00000000e+00
3.10994764e+04	3.23821990e-08	0.00000000e+00
8.95287958e+04	4.14198953e-07	1.37685500e+01
3.20418848e+04	2.19214660e-08	0.00000000e+00
4.90052356e+04	5.33036649e-08	9.25378081e+03
3.86387435e+04	7.12329843e-07	1.65595167e+01
8.34031414e+04	4.29890052e-07	1.58429700e+01
4.24083770e+04	5.81570681e-07	1.46487020e+01
8.43455497e+04	6.02492147e-07	6.46429000e+00
2.12041885e+04	8.64010471e-07	8.98558633e+01
4.71204188e+03	1.26528796e-07	0.00000000e+00
8.76439791e+04	5.92031414e-07	6.07026000e+00
4.94764398e+04	5.33036649e-08	9.25099637e+03
6.03141361e+04	8.22167539e-07	0.00000000e+00
1.88481675e+03	2.57287958e-07	0.00000000e+00
3.72251309e+04	4.80732984e-08	0.00000000e+00
4.57068063e+04	5.92031414e-07	1.72364333e+01
3.76963351e+03	2.15445026e-07	0.00000000e+00
1.88481675e+03	6.70486911e-07	0.00000000e+00
6.83246073e+04	3.40973822e-07	5.61481900e+01
6.26701571e+04	6.54795812e-07	4.18565333e+00
3.72251309e+04	2.52057592e-07	4.39085177e+02
3.01570681e+04	2.25905759e-07	8.73149055e+03
3.62827225e+04	6.02492147e-07	1.72600529e+01
2.07329843e+04	4.35120419e-07	7.00241318e+03
6.21989529e+04	5.18806283e-07	2.54965700e+01
6.59685864e+03	8.27397906e-07	0.00000000e+00
6.12565445e+04	3.72356021e-07	2.33678033e+01
4.09947644e+04	6.23036649e-09	0.00000000e+00
3.58115183e+04	9.73848168e-07	1.64551000e+01
4.00523560e+04	1.00000000e-06	3.30235667e+00
4.24083770e+04	9.42465969e-07	3.66085000e+00
1.88481675e+03	3.09591623e-07	0.00000000e+00
1.08376963e+04	4.82193717e-07	0.00000000e+00
8.19895288e+04	9.79078534e-07	1.76918000e+00
3.86387435e+04	9.68617801e-07	1.30322000e+01
8.95287958e+03	9.26774869e-07	0.00000000e+00
4.42931937e+04	9.52926702e-07	9.08501000e+00
5.79581152e+04	8.79701571e-07	5.77950000e+00
4.24083770e+04	1.21298429e-07	9.04026287e+03
2.92146597e+04	7.12329843e-07	5.17435133e+01
8.19895288e+04	9.00623037e-07	2.26849000e+00
5.56020942e+04	1.89293194e-07	9.48375000e+01
1.22513089e+04	6.07722513e-07	0.00000000e+00
3.10994764e+04	3.61895288e-07	2.96087429e+02
6.31413613e+04	9.79078534e-07	3.12897000e+00
5.79581152e+04	7.43712042e-07	1.04807900e+01
4.80628272e+04	4.61272251e-07	1.92793460e+01
6.87958115e+04	2.41596859e-07	2.78909520e+01
1.22513089e+04	8.79701571e-07	9.11121760e+02
5.51308901e+04	8.69240838e-07	6.96224000e+00
4.57068063e+04	9.00623037e-07	1.05750900e+01
3.81675393e+04	5.55418848e-07	4.40244200e+01
1.64921466e+04	3.98507853e-07	0.00000000e+00
8.29319372e+04	2.71518325e-08	9.10884395e+03
7.39790576e+04	1.00000000e-09	9.27554883e+03
4.24083770e+04	1.16068063e-07	9.07359026e+03
2.26178010e+04	6.23413613e-07	2.11728440e+02
7.68062827e+04	8.43089005e-07	3.22010000e+00
4.94764398e+04	5.24036649e-07	5.58859600e+01
4.66492147e+04	3.88047120e-07	3.79689980e+01
5.84293194e+04	8.22167539e-07	7.22175000e+00
7.68062827e+04	3.25282723e-07	1.42640733e+01
5.04188482e+04	5.65879581e-07	4.09608600e+01
6.83246073e+04	9.32005236e-07	3.09312000e+00
8.34031414e+04	2.88670157e-07	1.40809533e+01
3.62827225e+04	3.14821990e-07	2.48126176e+02
6.97382199e+04	5.03115183e-07	1.89328700e+01
8.24607330e+04	5.44958115e-07	3.03384667e+00
5.74869110e+04	8.43089005e-07	0.00000000e+00
3.06282723e+04	3.23821990e-08	0.00000000e+00
8.95287958e+04	3.46204188e-07	7.16256333e+00
4.24083770e+04	5.60649215e-07	1.66395380e+01
7.16230366e+04	7.43712042e-07	5.66399000e+00
1.55497382e+04	2.57287958e-07	0.00000000e+00
4.14659686e+04	6.37643979e-08	9.27254112e+03
3.67539267e+04	1.00000000e-09	0.00000000e+00
7.63350785e+04	5.85340314e-08	1.10218087e+03
3.29842932e+04	4.66502618e-07	5.65124267e+01
4.28795812e+04	8.32628272e-07	1.81036800e+01
4.00523560e+04	4.61272251e-07	6.93583567e+01
5.18324607e+04	3.77586387e-07	2.63233380e+01
3.25130890e+04	2.10214660e-07	8.70426696e+03
2.96858639e+04	7.59403141e-07	3.65774133e+01
4.80628272e+04	1.36989529e-07	8.27600405e+03
1.88481675e+03	1.99753927e-07	0.00000000e+00
3.43979058e+04	9.58157068e-07	6.90831000e+00
9.89528796e+03	7.64633508e-07	0.00000000e+00
6.50261780e+04	2.04984293e-07	9.34111067e+01
4.19371728e+04	5.55418848e-07	8.69983300e+01
3.72251309e+04	2.78209424e-07	2.58428927e+02
5.65445026e+03	4.66502618e-07	0.00000000e+00
8.01047120e+04	2.10214660e-07	2.08766500e+01
7.06806283e+04	2.57287958e-07	3.53188467e+01
8.71727749e+04	8.90162304e-07	2.04827000e+00
6.92670157e+04	8.69240838e-07	3.77861000e+00
1.55497382e+04	1.84062827e-07	0.00000000e+00
1.93193717e+04	9.68617801e-07	2.22118860e+02
6.36125654e+04	1.42219895e-07	1.09537153e+02
1.41361257e+04	6.65256545e-07	5.16153417e+03
3.81675393e+04	9.47696335e-07	1.51104900e+01
7.25654450e+04	3.30513089e-07	1.68962133e+01
2.21465969e+04	5.81570681e-07	2.62300187e+02
1.27225131e+04	7.07099476e-07	3.89639350e+03
4.47643979e+04	9.51465969e-08	9.14270320e+03
8.67015707e+04	2.99130890e-07	3.26188700e+01
8.90575916e+04	9.89539267e-07	1.45778000e+00
3.76963351e+04	4.29890052e-07	1.19066220e+02
4.57068063e+04	3.23821990e-08	9.30821443e+03
6.40837696e+04	6.23413613e-07	1.34566600e+01
4.71204188e+04	8.79701571e-07	3.55120667e+00
1.60209424e+04	9.16314136e-07	1.63814244e+02
7.91623037e+04	5.60649215e-07	3.18062000e+00
9.89528796e+03	5.60649215e-07	0.00000000e+00
7.30366492e+04	3.30513089e-07	1.64945767e+01
1.36649215e+04	7.80324607e-07	1.47919147e+03
2.63874346e+04	6.49565445e-07	1.24283770e+02
1.46073298e+04	6.60026178e-07	4.85520003e+03
8.76439791e+04	4.76963351e-07	1.04771400e+01
9.00000000e+04	4.82193717e-07	3.17227333e+00
8.10471204e+04	2.52057592e-07	2.15977300e+01
3.25130890e+04	2.31136126e-07	8.36142855e+03
2.16753927e+04	4.87424084e-07	8.40752850e+02
1.08376963e+04	2.78209424e-07	0.00000000e+00
3.25130890e+04	3.88047120e-07	1.83397469e+02
8.81151832e+04	7.64633508e-07	3.03900000e+00
7.44502618e+04	8.90162304e-07	0.00000000e+00
6.69109948e+04	6.49565445e-07	1.03954300e+01
5.18324607e+03	8.22167539e-07	0.00000000e+00
3.20418848e+04	6.23413613e-07	3.60482640e+01
5.70157068e+04	4.24659686e-07	1.27239000e+01
4.85340314e+04	1.78832461e-07	2.90358015e+02
4.99476440e+04	6.49565445e-07	2.69715300e+01
5.23036649e+04	1.47450262e-07	3.11188977e+02
3.29842932e+03	6.39104712e-07	0.00000000e+00
2.30890052e+04	8.99162304e-08	0.00000000e+00
5.18324607e+03	8.74471204e-07	0.00000000e+00
3.67539267e+04	2.93900524e-07	2.54541862e+02
5.37172775e+04	9.05853403e-07	6.38707000e+00
1.93193717e+04	5.81570681e-07	6.34680034e+02
5.65445026e+03	3.67125654e-07	0.00000000e+00
7.06806283e+04	5.29267016e-07	1.57761200e+01
1.46073298e+04	5.34497382e-07	7.38678768e+03
3.34554974e+04	8.32628272e-07	4.45331800e+01
8.76439791e+04	4.80732984e-08	1.78580920e+02
9.89528796e+03	3.88047120e-07	0.00000000e+00
6.26701571e+04	8.64010471e-07	4.99108000e+00
8.48167539e+03	2.99130890e-07	0.00000000e+00
5.46596859e+04	1.89293194e-07	7.33047792e+01
1.08376963e+04	9.11083770e-07	6.40090557e+02
1.27225131e+04	5.71109948e-07	0.00000000e+00
2.68586387e+04	2.57287958e-07	8.70672171e+03
4.28795812e+04	7.80324607e-07	2.35302700e+01
1.36649215e+04	3.61895288e-07	0.00000000e+00
2.87434555e+04	8.48319372e-07	7.50037100e+01
6.45549738e+04	3.72356021e-07	1.14939720e+01
9.89528796e+03	5.29267016e-07	0.00000000e+00
3.86387435e+04	6.02492147e-07	3.11136733e+01
1.60209424e+04	3.23821990e-08	0.00000000e+00
1.22513089e+04	6.89947644e-08	0.00000000e+00
3.06282723e+04	3.20052356e-07	6.28349885e+02
2.07329843e+04	2.83439791e-07	8.89155293e+03
8.48167539e+03	6.12952880e-07	0.00000000e+00
7.53926702e+04	8.27397906e-07	3.56956000e+00
3.76963351e+03	6.65256545e-07	0.00000000e+00
3.76963351e+04	1.00000000e-06	1.20453400e+01
6.17277487e+04	3.77586387e-07	2.18409367e+01
5.27748691e+04	6.28643979e-07	3.60273857e+00
1.41361257e+04	2.72979058e-07	0.00000000e+00
4.80628272e+04	5.44958115e-07	1.88036933e+01
4.94764398e+04	3.98507853e-07	4.51573733e+01
8.95287958e+03	7.42251309e-08	0.00000000e+00
2.59162304e+04	2.46827225e-07	8.85313416e+03
4.38219895e+04	5.86801047e-07	2.08418333e+01
8.85863874e+04	6.54795812e-07	9.11788000e-01
3.62827225e+04	4.35120419e-07	8.25646260e+01
2.12041885e+04	2.36366492e-07	0.00000000e+00
6.26701571e+04	2.04984293e-07	3.74439211e+01
3.01570681e+04	7.54172775e-07	1.03677530e+02
3.29842932e+04	6.96638743e-07	2.03322720e+01
4.71204188e+04	7.12329843e-07	2.39277700e+01
4.09947644e+04	4.35120419e-07	4.60226940e+01
2.30890052e+04	4.92654450e-07	3.87617309e+02
4.19371728e+04	1.05607330e-07	9.13849710e+03
4.71204188e+03	6.23036649e-09	0.00000000e+00
8.76439791e+04	6.49565445e-07	9.59034000e-01
7.25654450e+04	3.61895288e-07	1.34097600e+01
8.05759162e+04	9.16314136e-07	7.49180000e-01
2.16753927e+04	4.24659686e-07	6.40079711e+03
3.67539267e+04	4.29890052e-07	1.34983137e+02
6.69109948e+04	5.71109948e-07	1.51841500e+01
8.95287958e+03	1.42219895e-07	0.00000000e+00
8.38743455e+04	1.52680628e-07	2.60387886e+01
5.23036649e+04	5.92031414e-07	3.11298500e+01
1.50785340e+04	2.46827225e-07	0.00000000e+00
4.47643979e+04	2.99130890e-07	8.12545114e+01
5.98429319e+04	4.24659686e-07	1.05791500e+01
8.10471204e+04	7.42251309e-08	1.16522328e+02
6.59685864e+03	7.59403141e-07	0.00000000e+00
6.26701571e+04	7.42251309e-08	8.92434281e+03
6.12565445e+03	5.76340314e-07	0.00000000e+00
9.42408377e+02	8.69240838e-07	0.00000000e+00
4.80628272e+04	1.14607330e-08	0.00000000e+00
5.08900524e+04	2.20675393e-07	9.34713289e+01
2.02617801e+04	4.40350785e-07	7.18756274e+03
2.82722513e+04	7.17560209e-07	1.93018089e+01
1.74345550e+04	7.22790576e-07	1.78539867e+02
1.50785340e+04	7.54172775e-07	7.00786746e+02
6.17277487e+04	4.28429319e-08	9.20000236e+03
5.41884817e+04	8.95392670e-07	6.52344000e+00
6.03141361e+04	2.31136126e-07	3.17841544e+01
4.05235602e+04	4.19429319e-07	9.21392933e+01
2.35602094e+03	9.79078534e-07	0.00000000e+00
3.91099476e+04	1.14607330e-08	0.00000000e+00
4.99476440e+04	8.99162304e-08	9.08615042e+03
1.08376963e+04	2.71518325e-08	0.00000000e+00
6.50261780e+04	8.99162304e-08	4.44892077e+02
5.70157068e+04	6.12952880e-07	4.20616800e+00
4.14659686e+04	3.46204188e-07	9.95331760e+01
8.81151832e+04	7.17560209e-07	1.20640000e+00
2.30890052e+04	6.39104712e-07	1.63787110e+02
8.81151832e+04	6.65256545e-07	1.47919667e+00
1.41361257e+03	1.66910995e-08	0.00000000e+00
7.44502618e+04	6.39104712e-07	7.91500000e+00
5.65445026e+03	2.25905759e-07	0.00000000e+00
2.92146597e+04	5.03115183e-07	1.00620144e+02
4.47643979e+04	2.83439791e-07	7.75745078e+01
7.16230366e+04	7.94554974e-08	2.26900706e+02
4.52356021e+04	5.85340314e-08	9.26522578e+03
4.94764398e+04	1.99753927e-07	1.18323578e+02
4.71204188e+02	9.58157068e-07	0.00000000e+00
3.15706806e+04	3.56664921e-07	2.33730978e+02
8.29319372e+04	9.84308901e-07	5.68293333e-01
7.96335079e+04	7.90785340e-07	3.56216000e+00
7.06806283e+04	7.12329843e-07	2.24648667e+00
5.46596859e+04	5.33036649e-08	9.21430684e+03
3.39267016e+04	3.67125654e-07	1.41530582e+02
2.96858639e+04	4.87424084e-07	1.06533599e+02
8.19895288e+04	4.56041885e-07	1.44474400e+01
7.20942408e+04	6.07722513e-07	3.38329000e+00
1.64921466e+04	4.24659686e-07	8.31193376e+03
5.13612565e+04	3.23821990e-08	9.29195273e+03
3.67539267e+04	9.58157068e-07	1.62996000e+01
6.36125654e+04	7.96015707e-07	6.34014000e+00
1.41361257e+04	2.52057592e-07	0.00000000e+00
2.78010471e+04	9.26774869e-07	5.58743100e+01
1.13089005e+04	2.31136126e-07	0.00000000e+00
5.18324607e+04	9.21544503e-07	6.60133000e+00
8.76439791e+04	8.01246073e-07	2.70893000e+00
2.49738220e+04	5.29267016e-07	2.02280071e+02
8.01047120e+04	3.61895288e-07	9.44273333e+00
4.57068063e+04	9.47696335e-07	8.46624000e+00
1.50785340e+04	6.96638743e-07	1.62324521e+03
6.17277487e+04	3.04361257e-07	3.95289200e+01
5.18324607e+03	4.97884817e-07	0.00000000e+00
6.87958115e+04	6.18183246e-07	1.10661000e+01
4.57068063e+04	6.18183246e-07	4.37310900e+01
6.92670157e+04	8.90162304e-07	3.49428000e+00
5.60732984e+04	6.96638743e-07	2.92480000e+00
2.92146597e+04	7.33251309e-07	4.56509200e+01
3.48691099e+04	5.18806283e-07	3.61717314e+01
6.03141361e+04	1.10837696e-07	2.94583693e+02
3.95811518e+04	5.92031414e-07	3.01105633e+01
5.98429319e+04	3.20052356e-07	2.34554920e+01
6.54973822e+04	5.39727749e-07	3.88394800e+00
4.42931937e+04	4.61272251e-07	4.48901367e+01
2.35602094e+03	2.78209424e-07	0.00000000e+00
2.59162304e+04	9.84308901e-07	5.43594200e+01
5.74869110e+04	6.80947644e-07	4.85603667e+00
2.26178010e+04	1.05607330e-07	0.00000000e+00
4.66492147e+04	6.23413613e-07	1.33889833e+01
7.68062827e+04	8.11706806e-07	3.61004000e+00
4.24083770e+04	6.70486911e-07	4.33326700e+01
3.39267016e+04	7.43712042e-07	2.30944633e+01
4.52356021e+04	8.58780105e-07	1.33377900e+01
4.71204188e+03	1.99753927e-07	0.00000000e+00
1.93193717e+04	5.29267016e-07	1.81731222e+03
8.29319372e+04	7.48942408e-07	3.75208000e+00
2.73298429e+04	7.75094241e-07	1.39649520e+02
6.78534031e+04	4.76963351e-07	2.39916600e+01
4.14659686e+04	4.08968586e-07	3.87978329e+01
7.91623037e+04	6.86178010e-07	5.43238000e+00
2.59162304e+04	1.21298429e-07	0.00000000e+00
5.51308901e+04	1.42219895e-07	2.45352803e+02
4.71204188e+02	8.01246073e-07	0.00000000e+00
3.43979058e+04	5.39727749e-07	2.18536300e+02
2.49738220e+04	6.89947644e-08	0.00000000e+00
1.22513089e+04	3.82816754e-07	0.00000000e+00
3.58115183e+04	4.50811518e-07	5.48151343e+01
2.54450262e+04	2.71518325e-08	0.00000000e+00
2.59162304e+04	2.67748691e-07	8.69529480e+03
9.42408377e+03	2.83439791e-07	0.00000000e+00
8.67015707e+04	9.89539267e-07	1.53442000e+00
3.95811518e+04	5.50188482e-07	2.34924320e+01
3.34554974e+04	6.86178010e-07	3.39982867e+01
6.21989529e+04	2.88670157e-07	4.42884233e+01
5.32460733e+04	6.28643979e-07	4.89186200e+00
8.24607330e+04	9.84308901e-07	0.00000000e+00
8.38743455e+04	7.48942408e-07	3.64347000e+00
7.20942408e+04	5.92031414e-07	3.64921333e+00
1.13089005e+04	3.76125654e-08	0.00000000e+00
7.49214660e+04	5.44958115e-07	2.44724800e+00
2.87434555e+04	4.97884817e-07	1.62438232e+02
3.20418848e+04	4.76963351e-07	7.70792829e+01
3.10994764e+04	3.67125654e-07	1.87259605e+02
1.97905759e+04	6.75717277e-07	1.70141448e+02
2.35602094e+03	3.51434555e-07	0.00000000e+00
7.44502618e+04	1.89293194e-07	3.69375800e+01
8.48167539e+04	1.16068063e-07	4.75915429e+01
3.86387435e+04	7.75094241e-07	3.50982800e+01
2.30890052e+04	1.10837696e-07	0.00000000e+00
7.96335079e+04	3.72356021e-07	2.62459700e+01
3.67539267e+04	2.99130890e-07	2.30344752e+02
7.06806283e+03	2.31136126e-07	0.00000000e+00
1.88481675e+04	4.61272251e-07	7.45759202e+03
6.26701571e+04	4.76963351e-07	3.15001400e+01
1.60209424e+04	4.80732984e-08	0.00000000e+00
5.89005236e+04	4.87424084e-07	1.25875533e+01
1.46073298e+04	7.01869110e-07	2.21423204e+03
4.52356021e+04	5.97261780e-07	1.73819167e+01
4.42931937e+04	3.61895288e-07	1.01299693e+02
5.65445026e+04	2.10214660e-07	1.07321146e+02
4.71204188e+04	3.82816754e-07	6.32387667e+01
7.02094241e+04	2.78209424e-07	8.37481200e+01
2.73298429e+04	4.29890052e-07	2.35195911e+02
1.93193717e+04	1.57910995e-07	0.00000000e+00
8.15183246e+04	5.65879581e-07	8.44070000e+00
6.64397906e+04	2.99130890e-07	1.84283480e+01
5.46596859e+04	5.71109948e-07	2.98874400e+01
5.08900524e+04	8.74471204e-07	8.58935000e+00
8.52879581e+04	6.33874346e-07	5.48227000e+00
6.97382199e+04	8.84931937e-07	0.00000000e+00
6.78534031e+04	5.60649215e-07	5.16711667e+00
3.76963351e+03	6.86178010e-07	0.00000000e+00
1.46073298e+04	4.35120419e-07	0.00000000e+00
9.00000000e+04	1.14607330e-08	9.16508217e+03
7.06806283e+04	8.99162304e-08	1.64741201e+02
5.56020942e+04	3.56664921e-07	2.33089480e+01
8.90575916e+04	2.83439791e-07	1.15963200e+01
8.01047120e+04	6.44335079e-07	6.26103000e+00
5.51308901e+04	9.05853403e-07	5.94230000e+00
6.78534031e+04	6.28643979e-07	3.69882333e+00
4.33507853e+04	4.56041885e-07	5.10906400e+01
5.79581152e+04	8.43089005e-07	6.76255000e+00
1.88481675e+04	1.99753927e-07	0.00000000e+00
6.54973822e+04	6.28643979e-07	1.22567100e+01
6.03141361e+04	9.47696335e-07	3.94997000e+00
1.13089005e+04	6.80947644e-07	0.00000000e+00
6.54973822e+04	9.00623037e-07	3.85669000e+00
2.07329843e+04	7.48942408e-07	2.13485137e+02
3.01570681e+04	7.90785340e-07	8.45020300e+01
2.35602094e+03	6.28643979e-07	0.00000000e+00
5.93717277e+04	1.52680628e-07	1.11581128e+02
6.26701571e+04	3.35743455e-07	2.84130767e+01
6.73821990e+04	6.02492147e-07	4.28715667e+00
5.79581152e+04	7.01869110e-07	4.27984000e+00
1.13089005e+04	1.31759162e-07	0.00000000e+00
8.24607330e+04	8.16937173e-07	9.95286667e-01
2.68586387e+04	6.49565445e-07	1.13990270e+02
9.42408377e+03	2.46827225e-07	0.00000000e+00
7.20942408e+04	1.00000000e-09	9.28186392e+03
4.90052356e+04	7.80324607e-07	1.49896600e+01
1.74345550e+04	1.73602094e-07	0.00000000e+00
9.89528796e+03	7.54172775e-07	0.00000000e+00
4.94764398e+04	9.94769634e-07	5.43100000e+00
8.52879581e+04	1.00376963e-07	6.61715243e+01
2.68586387e+04	7.42251309e-08	0.00000000e+00
4.61780105e+04	4.50811518e-07	4.07079700e+01
8.15183246e+04	2.88670157e-07	9.19389200e+00
1.64921466e+04	7.75094241e-07	2.95582443e+02
1.60209424e+04	4.14198953e-07	0.00000000e+00
6.07853403e+04	8.32628272e-07	6.17483000e+00
8.01047120e+04	5.03115183e-07	4.09349333e+00
1.64921466e+04	2.52057592e-07	0.00000000e+00
2.73298429e+04	2.36366492e-07	8.84190746e+03
2.16753927e+04	9.63387435e-07	4.52048000e+01
3.76963351e+04	2.57287958e-07	3.24463697e+02
2.26178010e+04	9.26774869e-07	1.36014740e+02
3.39267016e+04	7.69863874e-07	5.90826600e+01
7.25654450e+04	7.28020942e-07	5.82437000e+00
7.53926702e+04	2.78209424e-07	2.24786800e+01
7.06806283e+04	9.32005236e-07	0.00000000e+00
7.63350785e+04	6.07722513e-07	2.84905667e+00
3.67539267e+04	9.37235602e-07	6.08621667e+00
6.83246073e+04	4.80732984e-08	9.10351598e+03
5.74869110e+04	3.82816754e-07	2.76948600e+01
7.35078534e+04	2.41596859e-07	3.52116333e+01
3.91099476e+04	1.52680628e-07	8.90018295e+03
4.09947644e+04	4.03738220e-07	4.28660886e+01
2.92146597e+04	1.05607330e-07	0.00000000e+00
2.12041885e+04	1.14607330e-08	0.00000000e+00
6.03141361e+04	1.47450262e-07	1.39178120e+02
3.76963351e+04	1.26528796e-07	9.11628088e+03
8.62303665e+04	8.90162304e-07	2.09771000e+00
7.20942408e+04	2.15445026e-07	5.10182133e+01
7.53926702e+04	2.15445026e-07	4.21512967e+01
1.13089005e+04	5.34497382e-07	0.00000000e+00
1.50785340e+04	9.68617801e-07	1.60764066e+02
3.29842932e+03	3.04361257e-07	0.00000000e+00
1.55497382e+04	5.55418848e-07	7.07913097e+03
9.00000000e+04	3.88047120e-07	1.57996200e+01
6.59685864e+04	3.77586387e-07	1.70068333e+01
3.58115183e+04	4.29890052e-07	9.25578000e+01
3.15706806e+04	9.42465969e-07	3.09373600e+01
7.02094241e+04	2.88670157e-07	1.15883729e+01
4.61780105e+04	5.92031414e-07	1.65763167e+01
2.96858639e+04	4.50811518e-07	1.55538961e+02
3.53403141e+04	4.50811518e-07	8.19995420e+01
5.79581152e+04	2.15445026e-07	8.66878240e+01
4.80628272e+04	6.07722513e-07	1.30990100e+01
1.97905759e+04	3.67125654e-07	8.48767789e+03
1.69633508e+04	1.73602094e-07	0.00000000e+00
6.73821990e+04	7.80324607e-07	5.77050000e+00
2.68586387e+04	5.71109948e-07	8.83014900e+01
2.40314136e+04	3.61895288e-07	7.42028819e+03
2.82722513e+03	8.64010471e-07	0.00000000e+00
7.91623037e+04	1.73602094e-07	5.78409767e+01
2.68586387e+04	6.23036649e-09	0.00000000e+00
8.24607330e+04	2.25905759e-07	2.61120000e+01
4.99476440e+04	3.20052356e-07	5.17561020e+01
4.24083770e+04	6.18183246e-07	1.96841300e+01
1.64921466e+04	6.60026178e-07	1.14007766e+03
3.76963351e+03	2.93900524e-07	0.00000000e+00
5.32460733e+04	7.38481675e-07	4.70654333e+00
3.95811518e+04	6.80947644e-07	7.69808857e+00
5.32460733e+04	7.33251309e-07	1.43695100e+01
7.16230366e+04	9.63387435e-07	2.48222000e+00
8.01047120e+04	4.76963351e-07	1.38949200e+01
1.27225131e+04	7.54172775e-07	3.30162334e+03
2.21465969e+04	2.41596859e-07	0.00000000e+00
6.59685864e+04	6.12952880e-07	1.29314400e+01
1.88481675e+03	4.50811518e-07	0.00000000e+00
4.52356021e+04	9.58157068e-07	8.31114000e+00
6.07853403e+04	4.19429319e-07	5.00717300e+01
7.53926702e+03	1.66910995e-08	0.00000000e+00
7.53926702e+03	1.73602094e-07	0.00000000e+00
3.15706806e+04	3.61895288e-07	1.80719792e+02
4.85340314e+04	1.21298429e-07	8.79348832e+03
1.27225131e+04	2.72979058e-07	0.00000000e+00
7.77486911e+04	1.36989529e-07	3.81084411e+01
7.72774869e+04	5.03115183e-07	4.58909333e+00
8.29319372e+04	1.94523560e-07	9.97085100e+01
8.52879581e+04	7.17560209e-07	3.92199000e+00
2.63874346e+04	4.61272251e-07	2.41693726e+02
5.70157068e+04	6.86178010e-07	1.44489000e+01
4.24083770e+03	1.63141361e-07	0.00000000e+00
8.10471204e+04	2.93900524e-07	8.99801600e+00
2.35602094e+04	4.92654450e-07	3.93348346e+02
5.51308901e+04	9.11083770e-07	5.80861000e+00
3.72251309e+04	6.44335079e-07	8.24303100e+01
8.67015707e+04	9.37235602e-07	1.79200000e+00
4.71204188e+03	4.80732984e-08	0.00000000e+00
7.02094241e+04	1.94523560e-07	4.50152200e+01
4.24083770e+04	7.54172775e-07	2.79258100e+01
4.75916230e+04	7.80324607e-07	1.65149400e+01
7.82198953e+04	1.73602094e-07	2.61957600e+01
7.86910995e+04	6.75717277e-07	5.76618000e+00
1.69633508e+04	3.20052356e-07	0.00000000e+00
7.06806283e+03	1.73602094e-07	0.00000000e+00
5.13612565e+04	6.70486911e-07	2.20193000e+01
7.11518325e+04	8.99162304e-08	1.36327046e+02
3.67539267e+04	6.23036649e-09	0.00000000e+00
8.24607330e+04	1.68371728e-07	2.23073214e+01
5.70157068e+04	6.02492147e-07	2.19103400e+01
8.48167539e+04	2.72979058e-07	9.05229800e+00
6.31413613e+04	8.46858639e-08	8.29824883e+03
2.68586387e+04	2.41596859e-07	8.83358220e+03
8.52879581e+04	2.93900524e-07	3.59462700e+01
7.91623037e+04	3.09591623e-07	1.44234333e+01
7.68062827e+04	3.56664921e-07	3.30040900e+01
6.45549738e+04	9.21544503e-07	3.69153000e+00
2.82722513e+03	7.28020942e-07	0.00000000e+00
9.00000000e+04	8.53549738e-07	2.14173000e+00
3.86387435e+04	1.00000000e-09	0.00000000e+00
3.01570681e+04	4.45581152e-07	1.16131273e+02
1.36649215e+04	3.25282723e-07	0.00000000e+00
2.30890052e+04	7.80324607e-07	1.00042047e+02
3.67539267e+04	7.80324607e-07	4.10954900e+01
1.17801047e+04	7.90785340e-07	1.09014113e+03
6.50261780e+04	2.71518325e-08	9.23930732e+03
8.67015707e+04	7.64633508e-07	3.16370000e+00
1.60209424e+04	7.54172775e-07	4.44484414e+02
1.60209424e+04	7.96015707e-07	4.15534254e+02
7.86910995e+04	8.16937173e-07	3.33498000e+00
6.17277487e+04	5.08345550e-07	2.77403700e+01
8.57591623e+04	3.25282723e-07	2.79720000e+01
1.55497382e+04	8.01246073e-07	3.45925380e+02
1.13089005e+04	6.12952880e-07	0.00000000e+00
8.43455497e+04	6.91408377e-07	4.46967000e+00
5.74869110e+04	5.97261780e-07	7.40244333e+00
7.72774869e+04	3.77586387e-07	9.62577333e+00
7.63350785e+04	9.26774869e-07	2.43932000e+00
4.90052356e+04	8.27397906e-07	1.19965700e+01
8.48167539e+03	6.49565445e-07	0.00000000e+00
1.41361257e+04	4.40350785e-07	0.00000000e+00
3.43979058e+04	6.28643979e-07	4.28008633e+01
8.01047120e+03	4.19429319e-07	0.00000000e+00
